tested/Multiplier/simple.TestMultiplier920381798/Multiplier.vcd
$date
2021-07-08T11:46+0000
$end
$version
0.2
$end
$comment

$end
$timescale 1ns  $end
$scope module Multiplier $end
 $var wire 2 ! stateReg $end
 $var wire 2 " _GEN_22 $end
 $var wire 2 # xMul $end
 $var wire 4 $ resMul $end
 $var wire 2 % _GEN_16 $end
 $var wire 2 & _GEN_2 $end
 $var wire 2 ' _GEN_10 $end
 $var wire 1 ( io_in_ready $end
 $var wire 11 ) _GEN_31 $end
 $var wire 11 * _GEN_25 $end
 $var wire 2 + _GEN_19 $end
 $var wire 1 , io_out_ready $end
 $var wire 2 - _GEN_5 $end
 $var wire 8 . _GEN_13 $end
 $var wire 8 / _GEN_8 $end
 $var wire 2 0 multStageReg $end
 $var wire 2 1 y1 $end
 $var wire 2 2 _GEN_24 $end
 $var wire 4 3 yReg $end
 $var wire 2 4 _GEN_27 $end
 $var wire 8 5 _GEN_33 $end
 $var wire 2 6 _GEN_12 $end
 $var wire 2 7 _GEN_15 $end
 $var wire 2 8 _GEN_7 $end
 $var wire 2 9 _GEN_21 $end
 $var wire 4 : io_in_bits_y $end
 $var wire 8 ; io_out_bits $end
 $var wire 11 < _GEN_18 $end
 $var wire 2 = _GEN_1 $end
 $var wire 2 > _GEN_4 $end
 $var wire 2 ? yMul $end
 $var wire 1 @ clock $end
 $var wire 2 A x1 $end
 $var wire 1 B io_in_valid $end
 $var wire 2 C _GEN_23 $end
 $var wire 2 D y0 $end
 $var wire 1 E io_out_valid $end
 $var wire 2 F _GEN_17 $end
 $var wire 2 G _GEN_26 $end
 $var wire 2 H _GEN_32 $end
 $var wire 2 I _GEN_11 $end
 $var wire 4 J xReg $end
 $var wire 2 K _GEN_20 $end
 $var wire 2 L _GEN_14 $end
 $var wire 2 M _GEN_6 $end
 $var wire 4 N io_in_bits_x $end
 $var wire 2 O _GEN_0 $end
 $var wire 2 P _GEN_9 $end
 $var wire 1 Q reset $end
 $var wire 8 R _GEN_3 $end
 $var wire 8 S resReg $end
 $var wire 6 T _GEN_34 $end
 $var wire 2 U _GEN_28 $end
 $var wire 2 V x0 $end
$upscope $end
$enddefinitions $end
$dumpvars
b00000000 .
b00 &
b00000000 /
b00 D
b00 '
b00 =
b000000 T
b00000000000 <
b00 >
b00 ?
b00 "
b00 U
b0000 N
b00 #
b00 V
b00 A
b0000 $
b00 9
b0000 :
b00 %
b0000 3
b00 P
0Q
b00 4
b0000 J
b00000000 S
b00 K
b00 6
b00 !
b00 L
b00 7
b00 M
b00 8
b00 0
0E
b00 F
b00 1
0(
b00 O
b00 G
b00 2
b00000000 ;
b00 H
b00000000000 )
b00 +
b00 I
b00000000000 *
b00000000 R
0@
b00000000 5
0,
b00 -
0B
b00 C
$end
#0
1Q
b01 +
1(
#1
1@
#6
0@
#11
1@
#16
0@
#21
1@
#26
0@
#31
1@
#36
0@
#41
1@
#46
1B
0Q
b1111 N
b01 U
0@
b01 O
b0110 :
1,
#51
b01 !
b01 -
b01 "
b01 4
1@
b01 G
b01 '
b01 K
b01 H
0(
b01 7
#56
0B
0@
#61
b01 0
1@
b10 G
b10 H
b10 +
b10 L
b01 >
b01 P
#66
0@
#71
b10 0
1@
b11 G
b11 H
b11 +
b11 L
b10 >
b11 P
#76
0@
#81
b10 -
b10 4
b10 '
b10 K
b00 L
b10 7
b00 >
b11 0
b10 U
1@
b00 G
b00 H
b00 +
b00 P
#86
0@
#91
b10 !
b00 0
b00 "
b00 4
1@
b00 U
1E
b01 +
b10 O
#96
0@
#101
b00 !
b00 -
1@
b00 '
b00 K
0E
b00 O
1(
b00 7
#106
0@
#111
1@
#116
0@
#121
1@
#126
0@
#131
1@
#136
0@
#141
1@
#146
0@
#151
1@
#156
1B
b01 U
0@
b01 O
b0000 :
#161
b01 !
b01 -
b01 "
b01 4
1@
b01 G
b01 '
b01 K
b01 H
0(
b01 7
#166
0B
0@
#171
b01 0
1@
b10 G
b10 H
b10 +
b10 L
b01 >
b01 P
#176
0@
#181
b10 0
1@
b11 G
b11 H
b11 +
b11 L
b10 >
b11 P
#186
0@
#191
b10 -
b10 4
b10 '
b10 K
b00 L
b10 7
b00 >
b11 0
b10 U
1@
b00 G
b00 H
b00 +
b00 P
#196
0@
#201
b10 !
b00 0
b00 "
b00 4
1@
b00 U
1E
b01 +
b10 O
#206
0@
#211
b00 !
b00 -
1@
b00 '
b00 K
0E
b00 O
1(
b00 7
#216
0@
#221
1@
#226
0@
#231
1@
#236
0@
#241
1@
#246
0@
#251
1@
#256
0@
#261
1@
#266
1B
b0000 N
b01 U
0@
b01 O
b1111 :
#271
b01 !
b01 -
b01 "
b01 4
1@
b01 G
b01 '
b01 K
b01 H
0(
b01 7
#276
0B
0@
#281
b01 0
1@
b10 G
b10 H
b10 +
b10 L
b01 >
b01 P
#286
0@
#291
b10 0
1@
b11 G
b11 H
b11 +
b11 L
b10 >
b11 P
#296
0@
#301
b10 -
b10 4
b10 '
b10 K
b00 L
b10 7
b00 >
b11 0
b10 U
1@
b00 G
b00 H
b00 +
b00 P
#306
0@
#311
b10 !
b00 0
b00 "
b00 4
1@
b00 U
1E
b01 +
b10 O
#316
0@
#321
b00 !
b00 -
1@
b00 '
b00 K
0E
b00 O
1(
b00 7
#326
0@
#331
1@
#336
0@
#341
1@
#346
0@
#351
1@
#356
0@
#361
1@
#366
0@
#371
1@
#376
1B
b0010 N
b01 U
0@
b01 O
b0001 :
#381
b01 !
b01 -
b01 "
b01 4
1@
b01 G
b01 '
b01 K
b01 H
0(
b01 7
#386
0B
0@
#391
b01 0
1@
b10 G
b10 H
b10 +
b10 L
b01 >
b01 P
#396
0@
#401
b10 0
1@
b11 G
b11 H
b11 +
b11 L
b10 >
b11 P
#406
0@
#411
b10 -
b10 4
b10 '
b10 K
b00 L
b10 7
b00 >
b11 0
b10 U
1@
b00 G
b00 H
b00 +
b00 P
#416
0@
#421
b10 !
b00 0
b00 "
b00 4
1@
b00 U
1E
b01 +
b10 O
#426
0@
#431
b00 !
b00 -
1@
b00 '
b00 K
0E
b00 O
1(
b00 7
#436
0@
#441
1@
#446
0@
#451
1@
#456
0@
#461
1@
#466
0@
#471
1@
#476
0@
#481
1@
#486
1B
b0100 N
b01 U
0@
b01 O
b1011 :
#491
b01 !
b01 -
b01 "
b01 4
1@
b01 G
b01 '
b01 K
b01 H
0(
b01 7
#496
0B
0@
#501
b01 0
1@
b10 G
b10 H
b10 +
b10 L
b01 >
b01 P
#506
0@
#511
b10 0
1@
b11 G
b11 H
b11 +
b11 L
b10 >
b11 P
#516
0@
#521
b10 -
b10 4
b10 '
b10 K
b00 L
b10 7
b00 >
b11 0
b10 U
1@
b00 G
b00 H
b00 +
b00 P
#526
0@
#531
b10 !
b00 0
b00 "
b00 4
1@
b00 U
1E
b01 +
b10 O
#536
0@
#541
b00 !
b00 -
1@
b00 '
b00 K
0E
b00 O
1(
b00 7
