tested/Multiplier/simple.TestMultiplier920381798/Multiplier.vcd
$date
2021-07-08T11:57+0000
$end
$version
0.2
$end
$comment

$end
$timescale 1ns  $end
$scope module Multiplier $end
 $var wire 2 ! stateReg $end
 $var wire 8 " _GEN_37 $end
 $var wire 2 # _GEN_22 $end
 $var wire 2 $ xMul $end
 $var wire 4 % resMul $end
 $var wire 2 & _GEN_16 $end
 $var wire 2 ' _GEN_2 $end
 $var wire 8 ( _GEN_10 $end
 $var wire 1 ) io_in_ready $end
 $var wire 4 * _GEN_31 $end
 $var wire 2 + _GEN_25 $end
 $var wire 2 , _GEN_19 $end
 $var wire 1 - io_out_ready $end
 $var wire 8 . _GEN_5 $end
 $var wire 2 / _GEN_13 $end
 $var wire 2 0 multStageReg $end
 $var wire 2 1 _GEN_8 $end
 $var wire 2 2 y1 $end
 $var wire 4 3 _GEN_30 $end
 $var wire 2 4 _GEN_24 $end
 $var wire 4 5 yReg $end
 $var wire 11 6 _GEN_27 $end
 $var wire 2 7 _GEN_12 $end
 $var wire 8 8 _GEN_15 $end
 $var wire 2 9 _GEN_7 $end
 $var wire 2 : _GEN_36 $end
 $var wire 2 ; _GEN_21 $end
 $var wire 4 < io_in_bits_y $end
 $var wire 8 = io_out_bits $end
 $var wire 2 > _GEN_18 $end
 $var wire 4 ? _GEN_1 $end
 $var wire 2 @ _GEN_4 $end
 $var wire 2 A yMul $end
 $var wire 11 B _GEN_35 $end
 $var wire 1 C clock $end
 $var wire 2 D x1 $end
 $var wire 1 E io_in_valid $end
 $var wire 2 F _GEN_23 $end
 $var wire 2 G y0 $end
 $var wire 6 H _GEN_38 $end
 $var wire 2 I _GEN_17 $end
 $var wire 1 J io_out_valid $end
 $var wire 2 K _GEN_26 $end
 $var wire 2 L _GEN_32 $end
 $var wire 2 M _GEN_11 $end
 $var wire 4 N xReg $end
 $var wire 11 O _GEN_20 $end
 $var wire 2 P _GEN_29 $end
 $var wire 2 Q _GEN_6 $end
 $var wire 2 R _GEN_14 $end
 $var wire 4 S io_in_bits_x $end
 $var wire 4 T _GEN_0 $end
 $var wire 2 U _GEN_9 $end
 $var wire 1 V reset $end
 $var wire 2 W _GEN_3 $end
 $var wire 8 X resReg $end
 $var wire 2 Y _GEN_28 $end
 $var wire 2 Z x0 $end
$upscope $end
$enddefinitions $end
$dumpvars
b0000 <
0C
b00000000000 B
b00 Y
b00 D
b00 '
b0000 S
b00 >
b00 U
b00000000000 6
b00 @
b00 #
0V
b00 W
b00 :
b00000000 X
b00000000000 O
b00 Q
b00 4
b00000000 =
b00000000 (
0J
b00 K
0-
b00 !
b00000000 "
b00 M
b00 0
b000000 H
b0000 *
b00 G
b00 2
0)
b00 I
b00 ,
b00 &
b00 Z
b0000 T
b0000 ?
b0000 N
b00 A
b00 9
b00 $
b0000 3
b00 P
b00 ;
b0000 5
b00 R
b00 L
b00 7
b00 /
b00000000 8
0E
b00 F
b00 1
b00 +
b0000 %
b00000000 .
$end
#0
1V
b01 ;
1)
#1
1C
#6
0C
#11
1C
#16
0C
#21
1C
#26
0C
#31
1C
#36
0C
#41
1C
#46
b1111 3
b1111 T
1-
b0110 <
b0110 ?
0C
0V
b1111 S
b0110 *
b01 '
1E
b01 L
#51
b01 4
b0110 5
b01 K
b00000110000 6
b01 7
b1111 N
b10 G
b01 2
b001100 H
b11 +
b01 I
b01 A
b01 ,
b00000110000 B
b0011 %
1C
b01 Y
b11 D
b11 Z
b11 >
0)
b01 !
b00110000 "
b01 #
b01 9
b11 $
b00000110000 O
b01 :
b01 P
#56
0C
0E
#61
b00000111100 B
b01 Q
b00110000 X
1C
b01 R
b00110000 .
b10 &
b10 Y
b00000111100 6
b00110000 =
b00110000 (
b11 /
b01 M
b01 0
b00111100 8
b00000111100 O
b10 :
b10 ;
#66
0C
#71
b00001010100 B
b10 Q
b0110 %
b00111100 X
1C
b10 R
b00111100 .
b11 &
b11 Y
b10 K
b00001010100 6
b00111100 =
b01010100 (
b11 M
b10 0
b01100000 "
b10 U
b11 1
b01010100 8
b011000 H
b00001010100 O
b11 :
b10 A
b10 ,
b11 ;
#76
0C
#81
b00001011010 B
b00 Q
b01010100 X
1C
b01011010 .
b00 &
b00 Y
b00001011010 6
b01010100 =
b10 L
b10 7
b01011010 (
b00 M
b11 0
b10 @
b01011010 8
b10 #
b10 9
b11 W
b00001011010 O
b00 :
b10 I
b10 P
b00 ;
#86
0C
#91
b0000 %
b01011010 X
1C
b00 R
b00 4
1J
b10 '
b00 K
b01011010 =
b00 L
b00 /
b10 !
b00 0
b00000000 "
b00 U
b00 @
b00 1
b00 $
b00 W
b000000 H
b00 +
b00000000000 O
b00 A
b01 ,
b01 ;
b00 P
#96
0C
#101
b00 !
1C
0J
b00 #
b00 9
b00 '
b00 7
b00 I
1)
#106
b0100 3
b0100 T
b1011 ?
b1011 <
0C
b0100 S
b1011 *
b01 '
1E
b01 L
#111
b01 4
b1011 5
b10 K
b00000100000 6
b01 7
b0100 N
b11 G
b10 2
b001000 H
b01 +
b01 I
b10 A
b10 ,
b00000100000 B
b0010 %
1C
b01 Y
b01 D
b00 Z
b01 >
0)
b01 !
b00100000 "
b01 #
b01 9
b01 $
b00000100000 O
b01 :
b01 P
#116
0C
0E
#121
b01 Q
b0000 %
b00100000 X
1C
b10 R
b00100000 .
b10 &
b10 Y
b00100000 =
b00100000 (
b00 >
b01 M
b01 0
b00000000 "
b00100000 8
b00 $
b000000 H
b00 +
b10 :
b10 ;
#126
0C
#131
b00000101100 B
b10 Q
b0011 %
1C
b11 R
b11 &
b11 Y
b11 K
b00000101100 6
b00101100 (
b01 /
b01 >
b11 M
b10 0
b00110000 "
b11 U
b01 1
b00101100 8
b01 $
b001100 H
b01 +
b11 :
b00000101100 O
b11 A
b11 ,
b11 ;
#136
0C
#141
b00 Q
b0000 %
b00101100 X
1C
b00101100 .
b00 &
b00 Y
b00101100 =
b10 L
b10 7
b00 /
b00 >
b00 M
b11 0
b00000000 "
b00 1
b11 @
b10 #
b10 9
b00 $
b000000 H
b00 +
b00 :
b10 I
b10 P
b00 ;
#146
0C
#151
b00 4
1C
b00 R
1J
b10 '
b00 K
b00 L
b01 >
b10 !
b00 0
b00 U
b00 @
b00000000000 O
b00 A
b00 P
b10 ,
b01 ;
#156
0C
#161
b00 !
1C
0J
b00 #
b00 9
b00 '
b00 7
b00 I
1)
#166
0C
#171
1C
#176
0C
#181
1C
#186
0C
#191
1C
#196
0C
#201
1C
#206
0C
#211
1C
#216
b1111 3
b1111 T
b0000 ?
b0000 <
0C
b1111 S
b0000 *
b01 '
1E
b01 L
#221
b00000000000 B
b01 4
1C
b0000 5
b11 D
b01 Y
b11 Z
b00000000000 6
b01 7
b11 >
0)
b01 !
b1111 N
b00 G
b00 2
b01 #
b01 9
b11 $
b11 +
b01 :
b01 I
b00 ,
b01 P
#226
0C
0E
#231
b01 Q
b00000000 X
1C
b00000000 .
b10 &
b10 Y
b00000000 =
b00000000 (
b11 /
b01 M
b01 0
b00000000 8
b10 :
b10 ;
#236
0C
#241
b10 0
b10 Q
1C
b11 1
b11 &
b11 Y
b11 :
b11 M
b11 ;
#246
0C
#251
b00 Q
1C
b00 &
b00 Y
b10 L
b10 7
b00 M
b11 0
b10 #
b10 9
b11 W
b00 :
b10 I
b10 P
b00 ;
#256
0C
#261
b00 4
1C
1J
b10 '
b00 L
b00 /
b10 !
b00 0
b00 1
b00 $
b00 W
b00 +
b00 P
b01 ;
#266
0C
#271
b00 !
1C
0J
b00 #
b00 9
b00 '
b00 7
b00 I
1)
#276
0C
#281
1C
#286
0C
#291
1C
#296
0C
#301
1C
#306
0C
#311
1C
#316
0C
#321
1C
#326
b0000 3
b0000 T
b1111 ?
b1111 <
0C
b0000 S
b1111 *
b01 '
1E
b01 L
#331
b01 4
1C
b1111 5
b00 D
b01 Y
b11 K
b00 Z
b01 7
b00 >
0)
b01 !
b0000 N
b11 G
b11 2
b01 #
b01 9
b01 :
b01 I
b11 A
b11 ,
b01 P
#336
0C
0E
#341
b01 0
b01 Q
1C
b11 R
b10 &
b10 Y
b10 :
b01 M
b10 ;
#346
0C
#351
b10 0
b10 Q
1C
b11 U
b11 &
b11 Y
b11 :
b11 M
b11 ;
#356
0C
#361
b00 Q
1C
b00 &
b00 Y
b10 L
b10 7
b00 M
b11 0
b11 @
b10 #
b10 9
b00 :
b10 I
b10 P
b00 ;
#366
0C
#371
b00 4
1C
b00 R
1J
b10 '
b00 K
b00 L
b10 !
b00 0
b00 U
b00 @
b00 A
b00 P
b01 ;
#376
0C
#381
b00 !
1C
0J
b00 #
b00 9
b00 '
b00 7
b00 I
1)
#386
0C
#391
1C
#396
0C
#401
1C
#406
0C
#411
1C
#416
0C
#421
1C
#426
0C
#431
1C
#436
b0010 3
b0010 T
b0001 ?
b0001 <
0C
b0010 S
b0001 *
b01 '
1E
b01 L
#441
b01 4
1C
b0001 5
b01 Y
b10 Z
b01 7
0)
b01 !
b0010 N
b01 G
b00 2
b01 #
b01 9
b01 :
b01 I
b00 ,
b01 P
#446
0C
0E
#451
b01 0
b01 Q
1C
b10 &
b10 Y
b10 $
b10 +
b10 :
b10 /
b10 >
b01 M
b10 ;
#456
0C
#461
b10 Q
1C
b01 R
b11 &
b11 Y
b01 K
b00 /
b00 >
b11 M
b10 0
b01 U
b00 $
b00 +
b11 :
b01 A
b01 ,
b11 ;
#466
0C
#471
b00 Q
b00000000010 6
b10 L
b10 7
b10 /
b00 M
b11 0
b10 1
b001000 H
b10 +
b10 I
b00000000010 B
b0010 %
1C
b00000010 .
b00 &
b00 Y
b00000010 (
b10 >
b00100000 "
b01 @
b00000010 8
b10 #
b10 9
b10 $
b10 W
b00000000010 O
b00 :
b10 P
b00 ;
#476
0C
#481
b0000 %
b00000010 X
1C
b00 R
b00 4
1J
b10 '
b00 K
b00000010 =
b00 L
b00 /
b00 >
b10 !
b00 0
b00000000 "
b00 U
b00 @
b00 1
b00 $
b00 W
b000000 H
b00 +
b00000000000 O
b00 A
b00 ,
b01 ;
b00 P
#486
0C
#491
b00 !
1C
0J
b00 #
b00 9
b00 '
b00 7
b00 I
1)
#496
0C
#501
1C
#506
0C
#511
1C
#516
0C
#521
1C
#526
0C
#531
1C
#536
0C
#541
1C
#546
b0100 3
b0100 T
b1011 ?
b1011 <
0C
b0100 S
b1011 *
b01 '
1E
b01 L
#551
b01 4
b1011 5
b10 K
b00000100000 6
b01 7
b0100 N
b11 G
b10 2
b001000 H
b01 +
b01 I
b10 A
b10 ,
b00000100000 B
b0010 %
1C
b01 Y
b01 D
b00 Z
b01 >
0)
b01 !
b00100000 "
b01 #
b01 9
b01 $
b00000100000 O
b01 :
b01 P
#556
0C
0E
#561
b01 Q
b0000 %
b00100000 X
1C
b10 R
b00100000 .
b10 &
b10 Y
b00100000 =
b00100000 (
b00 >
b01 M
b01 0
b00000000 "
b00100000 8
b00 $
b000000 H
b00 +
b10 :
b10 ;
#566
0C
#571
b00000101100 B
b10 Q
b0011 %
1C
b11 R
b11 &
b11 Y
b11 K
b00000101100 6
b00101100 (
b01 /
b01 >
b11 M
b10 0
b00110000 "
b11 U
b01 1
b00101100 8
b01 $
b001100 H
b01 +
b11 :
b00000101100 O
b11 A
b11 ,
b11 ;
#576
0C
#581
b00 Q
b0000 %
b00101100 X
1C
b00101100 .
b00 &
b00 Y
b00101100 =
b10 L
b10 7
b00 /
b00 >
b00 M
b11 0
b00000000 "
b00 1
b11 @
b10 #
b10 9
b00 $
b000000 H
b00 +
b00 :
b10 I
b10 P
b00 ;
#586
0C
#591
b00 4
1C
b00 R
1J
b10 '
b00 K
b00 L
b01 >
b10 !
b00 0
b00 U
b00 @
b00000000000 O
b00 A
b00 P
b10 ,
b01 ;
#596
0C
#601
b00 !
1C
0J
b00 #
b00 9
b00 '
b00 7
b00 I
1)
