tested/AES_EncryptionPipelined/aes.TestAES_EncryptionPipelined338023465/AES_EncryptionPipelined.vcd
$date
2021-08-03T12:19+0000
$end
$version
0.2
$end
$comment

$end
$timescale 1ns  $end
$scope module AES_Pipelined $end
 $var wire 128 1 io_in_bits_text $end
 $var wire 1 3 PEs_9 $end
 $var wire 1 6 io_in_ready $end
 $var wire 1 B PEs_3 $end
 $var wire 128 L io_in_bits_key $end
 $var wire 1 V PEs_6 $end
 $var wire 1 \ PEs_0 $end
 $var wire 1 w io_result_ready $end
 $var wire 1 "5 PEs_8 $end
 $var wire 1 "D PEs_2 $end
 $var wire 1 "N clock $end
 $var wire 1 "W io_in_valid $end
 $var wire 1 "X PEs_5 $end
 $var wire 1 "q finalPermutation $end
 $var wire 1 "r initialPermutation $end
 $var wire 1 #! PEs_4 $end
 $var wire 1 #7 PEs_7 $end
 $var wire 1 #@ io_result_valid $end
 $var wire 1 #E reset $end
 $var wire 1 #K PEs_1 $end
 $var wire 128 #a io_result_bits $end
  $scope module PEs_7 $end
   $var wire 1 * enable $end
   $var wire 32 8 io_in_bits_state_1 $end
   $var wire 32 < input_state_1 $end
   $var wire 1 O io_in_valid $end
   $var wire 1 [ valid $end
   $var wire 1 ^ io_out_valid $end
   $var wire 1 h _T $end
   $var wire 32 m input_state_3 $end
   $var wire 32 p io_out_bits_state_1 $end
   $var wire 32 "1 input_state_0 $end
   $var wire 32 "4 io_in_bits_state_0 $end
   $var wire 1 "< clock $end
   $var wire 1 "B io_in_ready $end
   $var wire 32 "C io_in_bits_state_3 $end
   $var wire 1 "O io_out_ready $end
   $var wire 32 "V io_out_bits_state_3 $end
   $var wire 32 "k input_state_2 $end
   $var wire 32 "v io_out_bits_state_0 $end
   $var wire 32 #N io_in_bits_state_2 $end
   $var wire 32 #c io_out_bits_state_2 $end
  $upscope $end
  $scope module PEs_4 $end
   $var wire 1 & valid $end
   $var wire 32 / input_state_1 $end
   $var wire 1 @ io_in_ready $end
   $var wire 32 C io_out_bits_state_0 $end
   $var wire 32 S io_out_bits_state_3 $end
   $var wire 32 U io_in_bits_state_0 $end
   $var wire 32 f io_in_bits_state_3 $end
   $var wire 1 x io_out_ready $end
   $var wire 1 "" clock $end
   $var wire 32 ". input_state_0 $end
   $var wire 32 "9 input_state_3 $end
   $var wire 1 "R io_in_valid $end
   $var wire 32 "Z io_out_bits_state_2 $end
   $var wire 32 "^ input_state_2 $end
   $var wire 32 "g io_in_bits_state_2 $end
   $var wire 1 "{ _T $end
   $var wire 1 #' enable $end
   $var wire 32 #6 io_in_bits_state_1 $end
   $var wire 1 #< io_out_valid $end
   $var wire 32 #R io_out_bits_state_1 $end
  $upscope $end
  $scope module initialPermutation $end
   $var wire 1 4 io_out_valid $end
   $var wire 32 J result_state_1 $end
   $var wire 1 n enable $end
   $var wire 32 r io_out_bits_state_1 $end
   $var wire 1 s _T $end
   $var wire 1 | io_in_valid $end
   $var wire 32 "# result_state_3 $end
   $var wire 32 "@ result_state_0 $end
   $var wire 32 "Q io_out_bits_state_3 $end
   $var wire 128 "S io_in_bits_text $end
   $var wire 1 "T io_out_ready $end
   $var wire 32 "p io_out_bits_state_0 $end
   $var wire 1 #1 valid $end
   $var wire 32 #2 result_state_2 $end
   $var wire 1 #8 io_in_ready $end
   $var wire 32 #U io_out_bits_state_2 $end
   $var wire 1 #X clock $end
  $upscope $end
  $scope module PEs_8 $end
   $var wire 32 2 input_state_0 $end
   $var wire 1 7 io_out_valid $end
   $var wire 1 > clock $end
   $var wire 32 M io_out_bits_state_2 $end
   $var wire 32 T io_in_bits_state_0 $end
   $var wire 32 ` io_in_bits_state_3 $end
   $var wire 32 q input_state_2 $end
   $var wire 32 "* io_out_bits_state_1 $end
   $var wire 1 "+ io_out_ready $end
   $var wire 1 "3 io_in_ready $end
   $var wire 32 "b io_in_bits_state_2 $end
   $var wire 32 "j input_state_1 $end
   $var wire 1 #) _T $end
   $var wire 32 #* io_out_bits_state_0 $end
   $var wire 32 #9 io_out_bits_state_3 $end
   $var wire 32 #: io_in_bits_state_1 $end
   $var wire 1 #? enable $end
   $var wire 1 #H valid $end
   $var wire 32 #T input_state_3 $end
   $var wire 1 #W io_in_valid $end
  $upscope $end
  $scope module PEs_0 $end
   $var wire 32 $ io_in_bits_state_1 $end
   $var wire 1 . io_in_valid $end
   $var wire 1 5 io_out_ready $end
   $var wire 32 Q io_in_bits_state_0 $end
   $var wire 32 Y io_in_bits_state_3 $end
   $var wire 32 l input_state_1 $end
   $var wire 1 v valid $end
   $var wire 32 y io_out_bits_state_1 $end
   $var wire 1 "H io_in_ready $end
   $var wire 1 "K clock $end
   $var wire 1 "Y io_out_valid $end
   $var wire 32 "\ io_in_bits_state_2 $end
   $var wire 1 "l enable $end
   $var wire 32 "u io_out_bits_state_0 $end
   $var wire 32 "w input_state_0 $end
   $var wire 32 "y io_out_bits_state_3 $end
   $var wire 32 #, input_state_3 $end
   $var wire 1 #. _T $end
   $var wire 32 #Y io_out_bits_state_2 $end
   $var wire 32 #` input_state_2 $end
  $upscope $end
  $scope module PEs_9 $end
   $var wire 32 ) io_in_bits_state_3 $end
   $var wire 32 - io_out_bits_state_0 $end
   $var wire 1 W io_out_ready $end
   $var wire 32 Z io_out_bits_state_2 $end
   $var wire 1 c _T $end
   $var wire 32 u input_state_1 $end
   $var wire 32 "( io_in_bits_state_2 $end
   $var wire 1 ") io_in_ready $end
   $var wire 1 "? valid $end
   $var wire 32 "P io_in_bits_state_1 $end
   $var wire 32 "[ io_out_bits_state_1 $end
   $var wire 1 "` enable $end
   $var wire 32 "i input_state_0 $end
   $var wire 32 #0 input_state_3 $end
   $var wire 1 #B clock $end
   $var wire 1 #F io_out_valid $end
   $var wire 1 #G io_in_valid $end
   $var wire 32 #I io_out_bits_state_3 $end
   $var wire 32 #[ io_in_bits_state_0 $end
   $var wire 32 #] input_state_2 $end
  $upscope $end
  $scope module PEs_1 $end
   $var wire 32 0 io_in_bits_state_3 $end
   $var wire 1 I clock $end
   $var wire 32 P io_out_bits_state_2 $end
   $var wire 1 g _T $end
   $var wire 32 o input_state_0 $end
   $var wire 32 } io_in_bits_state_2 $end
   $var wire 1 ~ io_out_valid $end
   $var wire 32 "& io_out_bits_state_1 $end
   $var wire 32 "' input_state_3 $end
   $var wire 1 "; io_in_ready $end
   $var wire 1 "I enable $end
   $var wire 32 "} input_state_2 $end
   $var wire 32 "~ io_in_bits_state_1 $end
   $var wire 32 #- io_out_bits_state_0 $end
   $var wire 32 #; io_out_bits_state_3 $end
   $var wire 1 #C io_out_ready $end
   $var wire 1 #O io_in_valid $end
   $var wire 1 #V valid $end
   $var wire 32 #\ io_in_bits_state_0 $end
   $var wire 32 #d input_state_1 $end
  $upscope $end
  $scope module finalPermutation $end
   $var wire 1 : _T $end
   $var wire 32 = input_state_0 $end
   $var wire 128 F result $end
   $var wire 1 H clock $end
   $var wire 1 X io_out_ready $end
   $var wire 1 _ io_in_ready $end
   $var wire 32 e io_in_bits_state_2 $end
   $var wire 32 t input_state_2 $end
   $var wire 128 ": io_out_bits $end
   $var wire 32 "] io_in_bits_state_1 $end
   $var wire 32 "x input_state_1 $end
   $var wire 1 #" io_out_valid $end
   $var wire 1 #$ io_in_valid $end
   $var wire 1 #( enable $end
   $var wire 32 #= io_in_bits_state_0 $end
   $var wire 32 #J io_in_bits_state_3 $end
   $var wire 32 #Q input_state_3 $end
   $var wire 1 #_ valid $end
  $upscope $end
  $scope module PEs_5 $end
   $var wire 32 ' io_in_bits_state_3 $end
   $var wire 32 ( io_out_bits_state_1 $end
   $var wire 32 + input_state_0 $end
   $var wire 1 , clock $end
   $var wire 32 ? input_state_3 $end
   $var wire 1 D io_out_ready $end
   $var wire 1 d _T $end
   $var wire 1 { io_in_valid $end
   $var wire 32 "! io_out_bits_state_0 $end
   $var wire 32 ", io_in_bits_state_2 $end
   $var wire 32 "7 io_out_bits_state_3 $end
   $var wire 32 "= input_state_2 $end
   $var wire 32 "L io_in_bits_state_1 $end
   $var wire 1 "M enable $end
   $var wire 1 "d io_out_valid $end
   $var wire 32 "e input_state_1 $end
   $var wire 32 "f io_out_bits_state_2 $end
   $var wire 1 #4 io_in_ready $end
   $var wire 1 #> valid $end
   $var wire 32 #b io_in_bits_state_0 $end
  $upscope $end
  $scope module PEs_2 $end
   $var wire 32 ! input_state_3 $end
   $var wire 32 " io_out_bits_state_0 $end
   $var wire 32 K io_in_bits_state_2 $end
   $var wire 1 N io_in_ready $end
   $var wire 1 R io_out_valid $end
   $var wire 32 i io_out_bits_state_2 $end
   $var wire 1 k enable $end
   $var wire 32 "/ input_state_2 $end
   $var wire 32 "J io_in_bits_state_1 $end
   $var wire 32 "_ io_out_bits_state_1 $end
   $var wire 1 "m io_out_ready $end
   $var wire 32 "n io_in_bits_state_0 $end
   $var wire 1 "z _T $end
   $var wire 32 "| io_in_bits_state_3 $end
   $var wire 1 ## valid $end
   $var wire 32 #% input_state_1 $end
   $var wire 1 #A io_in_valid $end
   $var wire 32 #L io_out_bits_state_3 $end
   $var wire 1 #P clock $end
   $var wire 32 #Z input_state_0 $end
  $upscope $end
  $scope module PEs_6 $end
   $var wire 32 9 input_state_2 $end
   $var wire 32 A io_in_bits_state_2 $end
   $var wire 1 ] io_in_valid $end
   $var wire 32 a io_out_bits_state_1 $end
   $var wire 32 z io_in_bits_state_1 $end
   $var wire 1 "% enable $end
   $var wire 1 "0 valid $end
   $var wire 32 "2 io_out_bits_state_0 $end
   $var wire 1 "8 io_out_valid $end
   $var wire 32 "> input_state_1 $end
   $var wire 32 "A io_out_bits_state_3 $end
   $var wire 32 "a input_state_0 $end
   $var wire 32 "s input_state_3 $end
   $var wire 32 "t io_in_bits_state_0 $end
   $var wire 32 #+ io_in_bits_state_3 $end
   $var wire 1 #/ _T $end
   $var wire 1 #3 io_in_ready $end
   $var wire 1 #5 clock $end
   $var wire 32 #D io_out_bits_state_2 $end
   $var wire 1 #^ io_out_ready $end
  $upscope $end
  $scope module PEs_3 $end
   $var wire 1 # io_out_valid $end
   $var wire 32 % input_state_2 $end
   $var wire 32 ; io_out_bits_state_0 $end
   $var wire 32 E io_out_bits_state_3 $end
   $var wire 1 G io_in_ready $end
   $var wire 1 b _T $end
   $var wire 32 j io_in_bits_state_1 $end
   $var wire 32 "$ input_state_1 $end
   $var wire 1 "- valid $end
   $var wire 32 "6 io_in_bits_state_0 $end
   $var wire 1 "E io_out_ready $end
   $var wire 32 "F io_out_bits_state_2 $end
   $var wire 32 "G io_in_bits_state_3 $end
   $var wire 1 "U clock $end
   $var wire 1 "c io_in_valid $end
   $var wire 32 "h input_state_3 $end
   $var wire 32 "o io_out_bits_state_1 $end
   $var wire 32 #& input_state_0 $end
   $var wire 32 #M io_in_bits_state_2 $end
   $var wire 1 #S enable $end
  $upscope $end
$upscope $end
$enddefinitions $end
$dumpvars
b00000000000000000000000000000000000000000000000000000000000000000000000000000000000000000000000000000000000000000000000000000000 #a
0"c
0R
b00000000000000000000000000000000 "j
b00000000000000000000000000000000 #6
b00000000000000000000000000000000 r
0#1
b00000000000000000000000000000000 "#
0#W
b00000000000000000000000000000000 #*
b00000000000000000000000000000000 "4
b00000000000000000000000000000000 Q
b00000000000000000000000000000000000000000000000000000000000000000000000000000000000000000000000000000000000000000000000000000000 "S
0~
0"r
0#S
0#!
b00000000000000000000000000000000 E
b00000000000000000000000000000000 0
0D
b00000000000000000000000000000000 "y
b00000000000000000000000000000000 #Z
b00000000000000000000000000000000 "\
b00000000000000000000000000000000 "G
b00000000000000000000000000000000 #=
b00000000000000000000000000000000 "*
0#O
0]
0H
0"<
0@
b00000000000000000000000000000000 A
b00000000000000000000000000000000 "u
b00000000000000000000000000000000 $
b00000000000000000000000000000000 #9
b00000000000000000000000000000000 "C
b00000000000000000000000000000000 "&
0"l
b00000000000000000000000000000000 q
0"d
0"O
0#E
b00000000000000000000000000000000 T
b00000000000000000000000000000000 ?
0>
0#^
b00000000000000000000000000000000 m
0"`
0"K
b00000000000000000000000000000000 e
0O
0#$
0:
0#A
b00000000000000000000000000000000 P
b00000000000000000000000000000000 "g
b00000000000000000000000000000000000000000000000000000000000000000000000000000000000000000000000000000000000000000000000000000000 1
0"?
b00000000000000000000000000000000 /
b00000000000000000000000000000000 #D
b00000000000000000000000000000000 "1
b00000000000000000000000000000000000000000000000000000000000000000000000000000000000000000000000000000000000000000000000000000000 L
0#P
b00000000000000000000000000000000 t
b00000000000000000000000000000000 -
b00000000000000000000000000000000 "v
b00000000000000000000000000000000 p
0"N
b00000000000000000000000000000000 "6
b00000000000000000000000000000000 S
b00000000000000000000000000000000 "!
0#/
b00000000000000000000000000000000 !
0k
0#@
0N
0"-
b00000000000000000000000000000000 2
0#_
b00000000000000000000000000000000 "f
b00000000000000000000000000000000 "Q
b00000000000000000000000000000000 #2
0|
b00000000000000000000000000000000 "w
b00000000000000000000000000000000 "b
0"z
0#>
b00000000000000000000000000000000 #&
b00000000000000000000000000000000 M
b00000000000000000000000000000000 "(
0"+
b00000000000000000000000000000000 "^
0"Y
b00000000000000000000000000000000 "A
b00000000000000000000000000000000 ",
b00000000000000000000000000000000 "$
b00000000000000000000000000000000 o
0n
0"M
0#.
b00000000000000000000000000000000 =
b00000000000000000000000000000000 #R
b00000000000000000000000000000000 "i
b00000000000000000000000000000000 #J
b00000000000000000000000000000000 "7
0"{
0"I
b00000000000000000000000000000000 #c
b00000000000000000000000000000000 #N
0#
b00000000000000000000000000000000 "e
b00000000000000000000000000000000 "P
0h
0"q
0#(
b00000000000000000000000000000000 a
b00000000000000000000000000000000 z
0"m
0"X
0\
0G
0";
b00000000000000000000000000000000 +
b00000000000000000000000000000000 "t
b00000000000000000000000000000000 "_
b00000000000000000000000000000000 #U
0*
b00000000000000000000000000000000 Y
0X
0""
b00000000000000000000000000000000 <
b00000000000000000000000000000000 '
b00000000000000000000000000000000 "p
b00000000000000000000000000000000 #Q
0&
b00000000000000000000000000000000 ">
0#H
b00000000000000000000000000000000 l
0V
b00000000000000000000000000000000 "2
b00000000000000000000000000000000 #d
b00000000000000000000000000000000 }
0g
0#<
0#'
b00000000000000000000000000000000 `
b00000000000000000000000000000000 K
05
b00000000000000000000000000000000 #`
b00000000000000000000000000000000 ".
0")
b00000000000000000000000000000000000000000000000000000000000000000000000000000000000000000000000000000000000000000000000000000000 ":
0x
0[
b00000000000000000000000000000000 "s
b00000000000000000000000000000000 #T
0W
b00000000000000000000000000000000 ;
b00000000000000000000000000000000 "o
0v
0#K
0"U
b00000000000000000000000000000000 "=
b00000000000000000000000000000000 Z
0"8
b00000000000000000000000000000000 (
06
b00000000000000000000000000000000 "k
b00000000000000000000000000000000 #L
0#G
b00000000000000000000000000000000 "9
b00000000000000000000000000000000 9
0#X
0{
0"E
0I
04
b00000000000000000000000000000000 "~
b00000000000000000000000000000000 J
b00000000000000000000000000000000 "a
b00000000000000000000000000000000 "L
b00000000000000000000000000000000 i
b00000000000000000000000000000000 #-
b00000000000000000000000000000000 #%
b00000000000000000000000000000000 "/
0w
0b
0#7
b00000000000000000000000000000000 #[
b00000000000000000000000000000000 )
0#V
b00000000000000000000000000000000 "]
b00000000000000000000000000000000 "@
b00000000000000000000000000000000000000000000000000000000000000000000000000000000000000000000000000000000000000000000000000000000 F
0#5
0"T
b00000000000000000000000000000000 "'
0#F
b00000000000000000000000000000000 j
b00000000000000000000000000000000 U
0"H
0"3
0#)
07
b00000000000000000000000000000000 8
b00000000000000000000000000000000 #b
b00000000000000000000000000000000 #M
b00000000000000000000000000000000 #0
0#B
b00000000000000000000000000000000 f
0"D
03
b00000000000000000000000000000000 "}
b00000000000000000000000000000000 "h
b00000000000000000000000000000000 #I
b00000000000000000000000000000000 #,
b00000000000000000000000000000000 y
0c
0"W
0"B
0##
0#8
0"%
b00000000000000000000000000000000 #\
b00000000000000000000000000000000 u
0_
0#4
b00000000000000000000000000000000 C
0B
b00000000000000000000000000000000 "Z
b00000000000000000000000000000000 #;
b00000000000000000000000000000000 "
b00000000000000000000000000000000 "V
0d
b00000000000000000000000000000000 "|
b00000000000000000000000000000000 #]
0#C
b00000000000000000000000000000000 "J
b00000000000000000000000000000000 #+
0"0
0.
b00000000000000000000000000000000 "x
b00000000000000000000000000000000 #Y
0#?
b00000000000000000000000000000000 "F
b00000000000000000000000000000000 "[
0#"
0s
0^
0"R
0#3
0,
0"5
b00000000000000000000000000000000 %
b00000000000000000000000000000000 "n
b00000000000000000000000000000000 #:
$end
#0
1#?
1n
1g
1#8
1"B
15
1h
1"%
1";
16
1b
1#3
1c
1#4
1N
1d
1"T
1G
1*
1#.
1"M
1#/
1"l
1#E
1"O
1_
1"m
1"3
1D
1"I
1#^
1x
1"`
1#C
1@
1"E
1s
1k
1#'
1")
1W
1#(
1"z
1:
1#S
1#)
1"{
1"H
1"+
#1
1"K
1#X
1#5
1""
1"U
1H
1"N
1"<
1#P
1I
1>
1,
1#B
#6
0"K
0#X
0#5
0""
0"U
0H
0"N
0"<
0#P
0I
0>
0,
0#B
#11
1"K
1#X
1#5
1""
1"U
1H
1"N
1"<
1#P
1I
1>
1,
1#B
#16
0"K
0#X
0#5
0""
0"U
0H
0"N
0"<
0#P
0I
0>
0,
0#B
#21
1"K
1#X
1#5
1""
1"U
1H
1"N
1"<
1#P
1I
1>
1,
1#B
#26
0"K
0#X
0#5
0""
0"U
0H
0"N
0"<
0#P
0I
0>
0,
0#B
#31
1"K
1#X
1#5
1""
1"U
1H
1"N
1"<
1#P
1I
1>
1,
1#B
#36
0"K
0#X
0#5
0""
0"U
0H
0"N
0"<
0#P
0I
0>
0,
0#B
#41
1"K
1#X
1#5
1""
1"U
1H
1"N
1"<
1#P
1I
1>
1,
1#B
#46
1X
1"W
b00000001001000110100010101100111 J
1w
b00000000000000000000000000000000000000000000000000000000000000000001001100110100010101110111100110011011101111001101111111110001 L
0"<
0#P
0"K
0>
0#B
b00000000000000000000000000000000000000000000000000000000000000000000000100100011010001010110011110001001101010111100110111101111 "S
0#X
b00000000000000000000000000000000000000000000000000000000000000000000000100100011010001010110011110001001101010111100110111101111 1
0#5
0""
0"U
0H
0"N
0I
1|
0,
0#E
b10001001101010111100110111101111 "@
#51
b10001001101010111100110111101111 Q
1#1
14
1.
1"<
1"K
1#P
1>
1#B
b10001001101010111100110111101111 "p
1#X
b00000001001000110100010101100111 r
1#5
0s
1""
1"U
1H
b00000001001000110100010101100111 $
1"N
1I
1,
#56
b01100101011001100110011101101000 Q
b01100001011000100110001101100100 J
b00000000000000000000000000000000000000000000000000000000000000000011000100110010001100110011010000110101001101100011011100111000 L
0"<
0"K
0#P
0>
0#B
b01100101011001100110011101101000 "p
b00000000000000000000000000000000000000000000000000000000000000000110000101100010011000110110010001100101011001100110011101101000 "S
0#X
b01100001011000100110001101100100 r
b00000000000000000000000000000000000000000000000000000000000000000110000101100010011000110110010001100101011001100110011101101000 1
0#5
0""
0"U
0H
b01100001011000100110001101100100 $
0"N
0I
0,
b01100101011001100110011101101000 "@
#61
1v
b01100101011001100110011101101000 "u
1#O
1"Y
1"<
1"K
1#P
b01100001011000100110001101100100 "~
1>
1#B
b01100101011001100110011101101000 "w
1#X
b01100001011000100110001101100100 y
1#5
1""
1"U
0#.
b01100001011000100110001101100100 l
1H
1"N
1I
b01100101011001100110011101101000 #\
1,
#66
b01110100011110010111010101101001 Q
b01110001011101110110010101110010 J
0"<
0"K
0#P
0>
0#B
b01110100011110010111010101101001 "p
b00000000000000000000000000000000000000000000000000000000000000000111000101110111011001010111001001110100011110010111010101101001 "S
0#X
b01110001011101110110010101110010 r
b00000000000000000000000000000000000000000000000000000000000000000111000101110111011001010111001001110100011110010111010101101001 1
0#5
0""
0"U
0H
b01110001011101110110010101110010 $
0"N
0I
0,
b01110100011110010111010101101001 "@
#71
0g
1#V
b01110100011110010111010101101001 "u
1~
b01100001011000100110001101100100 "&
b01100101011001100110011101101000 "n
1"<
1#P
b01110001011101110110010101110010 y
1#5
1""
1"U
1H
1"N
1I
1,
b01100001011000100110001101100100 #d
b01100101011001100110011101101000 o
b01100001011000100110001101100100 "J
1#A
1"K
b01110001011101110110010101110010 "~
1>
1#B
b01100101011001100110011101101000 #-
b01110100011110010111010101101001 "w
1#X
b01110001011101110110010101110010 l
b01110100011110010111010101101001 #\
#76
b01100101011001100110011101101000 Q
b01100001011000100110001101100100 J
b00000000000000000000000000000000000000000000000000000000000000000011100000110111001101100011010100110100001100110011001000110001 L
0"<
0"K
0#P
0>
0#B
b01100101011001100110011101101000 "p
b00000000000000000000000000000000000000000000000000000000000000000110000101100010011000110110010001100101011001100110011101101000 "S
0#X
b01100001011000100110001101100100 r
b00000000000000000000000000000000000000000000000000000000000000000110000101100010011000110110010001100101011001100110011101101000 1
0#5
0""
0"U
0H
b01100001011000100110001101100100 $
0"N
0I
0,
b01100101011001100110011101101000 "@
#81
b01100001011000100110001101100100 "_
1R
1##
b01100101011001100110011101101000 "u
b01110001011101110110010101110010 "&
b01110100011110010111010101101001 "n
1"<
1#P
b01100001011000100110001101100100 j
b01100101011001100110011101101000 "6
b01100001011000100110001101100100 y
1#5
1""
1"U
1H
1"N
1I
1,
b01110001011101110110010101110010 #d
b01110100011110010111010101101001 o
b01110001011101110110010101110010 "J
1"K
b01100001011000100110001101100100 "~
1>
1#B
b01110100011110010111010101101001 #-
b01100001011000100110001101100100 #%
b01100101011001100110011101101000 "w
1#X
b01100101011001100110011101101000 "
1"c
b01100101011001100110011101101000 #Z
b01100001011000100110001101100100 l
0"z
b01100101011001100110011101101000 #\
#86
b01110100011110010111010101101001 Q
b01110001011101110110010101110010 J
0"<
0"K
0#P
0>
0#B
b01110100011110010111010101101001 "p
b00000000000000000000000000000000000000000000000000000000000000000111000101110111011001010111001001110100011110010111010101101001 "S
0#X
b01110001011101110110010101110010 r
b00000000000000000000000000000000000000000000000000000000000000000111000101110111011001010111001001110100011110010111010101101001 1
0#5
0""
0"U
0H
b01110001011101110110010101110010 $
0"N
0I
0,
b01110100011110010111010101101001 "@
#91
b01110001011101110110010101110010 "_
b01100001011000100110001101100100 "$
b01110100011110010111010101101001 "u
b01100001011000100110001101100100 "&
b01100101011001100110011101101000 "n
1"<
b01100001011000100110001101100100 "o
1#P
b01110001011101110110010101110010 j
0b
1"R
b01110100011110010111010101101001 "6
b01110001011101110110010101110010 y
1#5
1""
1"U
b01100001011000100110001101100100 #6
1H
1"N
1I
1,
b01100001011000100110001101100100 #d
b01100101011001100110011101101000 o
b01100001011000100110001101100100 "J
1"-
1"K
b01110001011101110110010101110010 "~
1>
1#B
b01100101011001100110011101101000 #-
b01110001011101110110010101110010 #%
b01110100011110010111010101101001 "w
1#X
b01110100011110010111010101101001 "
b01100101011001100110011101101000 U
b01100101011001100110011101101000 #&
1#
b01110100011110010111010101101001 #Z
b01110001011101110110010101110010 l
b01110100011110010111010101101001 #\
b01100101011001100110011101101000 ;
#96
b10001001101010111100110111101111 Q
b00000001001000110100010101100111 J
b00000000000000000000000000000000000000000000000000000000000000000001001100110100010101110111100110011011101111001101111111110001 L
0"<
0"K
0#P
0>
0#B
b10001001101010111100110111101111 "p
b00000000000000000000000000000000000000000000000000000000000000000000000100100011010001010110011110001001101010111100110111101111 "S
0#X
b00000001001000110100010101100111 r
b00000000000000000000000000000000000000000000000000000000000000000000000100100011010001010110011110001001101010111100110111101111 1
0#5
0""
0"U
0H
b00000001001000110100010101100111 $
0"N
0I
0,
b10001001101010111100110111101111 "@
#101
b01100001011000100110001101100100 "_
b01110001011101110110010101110010 "$
b10001001101010111100110111101111 "u
b01110001011101110110010101110010 "&
b01110100011110010111010101101001 "n
1"<
b01110001011101110110010101110010 "o
1#P
b01100001011000100110001101100100 /
b01100001011000100110001101100100 j
b01100001011000100110001101100100 #R
b01100101011001100110011101101000 "6
b00000001001000110100010101100111 y
1#5
1""
1"U
b01110001011101110110010101110010 #6
1H
1{
1"N
b01100101011001100110011101101000 #b
1I
1,
b01110001011101110110010101110010 #d
b01100101011001100110011101101000 C
1&
b01110100011110010111010101101001 o
b01110001011101110110010101110010 "J
1"K
b00000001001000110100010101100111 "~
1>
b01100101011001100110011101101000 ".
1#B
b01100001011000100110001101100100 "L
b01110100011110010111010101101001 #-
b01100001011000100110001101100100 #%
b10001001101010111100110111101111 "w
1#X
b01100101011001100110011101101000 "
b01110100011110010111010101101001 U
b01110100011110010111010101101001 #&
1#<
b01100101011001100110011101101000 #Z
b00000001001000110100010101100111 l
0"{
b10001001101010111100110111101111 #\
b01110100011110010111010101101001 ;
#106
0"W
0"<
0"K
0#P
0>
0#B
0#X
0#5
0""
0"U
0H
0"N
0|
0I
0,
#111
b00000000000000000000000000000000 Q
b01100101011001100110011101101000 "t
b01110001011101110110010101110010 "_
04
b01100001011000100110001101100100 "$
b00000001001000110100010101100111 "&
b10001001101010111100110111101111 "n
1"<
b01100001011000100110001101100100 "o
1#P
b01110001011101110110010101110010 /
b01110001011101110110010101110010 j
b00000000000000000000000000000000 "p
b01110001011101110110010101110010 #R
b01110100011110010111010101101001 "6
0d
1#5
b01100101011001100110011101101000 "!
b01100001011000100110001101100100 z
1""
1"U
b01100001011000100110001101100100 #6
1]
1H
b01100101011001100110011101101000 +
1"N
b01110100011110010111010101101001 #b
1I
1,
1"d
b01100001011000100110001101100100 "e
0#1
b00000001001000110100010101100111 #d
b01110100011110010111010101101001 C
0.
b10001001101010111100110111101111 o
b00000001001000110100010101100111 "J
b01100001011000100110001101100100 (
1"K
1>
b01110100011110010111010101101001 ".
1#B
b01110001011101110110010101110010 "L
b10001001101010111100110111101111 #-
b01110001011101110110010101110010 #%
1#X
b00000000000000000000000000000000 r
b01110100011110010111010101101001 "
b01100101011001100110011101101000 U
b01100101011001100110011101101000 #&
1s
b01110100011110010111010101101001 #Z
b00000000000000000000000000000000 $
1#>
b01100101011001100110011101101000 ;
#116
0"K
0#X
0#5
0""
0"U
0H
0"N
0"<
0#P
0I
0>
0,
0#B
#121
b01110100011110010111010101101001 "t
b00000001001000110100010101100111 "_
0#O
0"Y
1"<
b00000001001000110100010101100111 j
b01100001011000100110001101100100 ">
b10001001101010111100110111101111 "6
b01110100011110010111010101101001 "!
b00000000000000000000000000000000 y
1"U
b01110001011101110110010101110010 #6
1#.
1"8
1I
b01100101011001100110011101101000 #b
1,
b01100101011001100110011101101000 "2
b01100101011001100110011101101000 C
b01100101011001100110011101101000 "4
b01110001011101110110010101110010 (
1"K
b01100101011001100110011101101000 ".
b00000000000000000000000000000000 "w
1#X
b10001001101010111100110111101111 "
b01110100011110010111010101101001 #&
1"0
b10001001101010111100110111101111 #Z
b00000000000000000000000000000000 #\
b01110100011110010111010101101001 ;
b01110001011101110110010101110010 "$
b00000000000000000000000000000000 "u
b01100001011000100110001101100100 a
b01110001011101110110010101110010 "o
1#P
b01100001011000100110001101100100 /
b01100001011000100110001101100100 #R
1#5
b01110001011101110110010101110010 z
1""
1H
b01110100011110010111010101101001 +
1"N
0#/
b01110001011101110110010101110010 "e
0v
b00000000000000000000000000000000 "~
1>
b01100101011001100110011101101000 "a
1#B
b01100001011000100110001101100100 "L
b00000001001000110100010101100111 #%
b01110100011110010111010101101001 U
b01100001011000100110001101100100 8
b00000000000000000000000000000000 l
1O
#126
0"K
0#X
0#5
0""
0"U
0H
0"N
0"<
0#P
0I
0>
0,
0#B
#131
b01100001011000100110001101100100 <
b01100101011001100110011101101000 "t
0h
1#W
b01100101011001100110011101101000 "v
b00000000000000000000000000000000 "n
b01100001011000100110001101100100 #:
1"<
b01110001011101110110010101110010 ">
b01100101011001100110011101101000 "!
1"U
b00000001001000110100010101100111 #6
1^
1I
b01110100011110010111010101101001 #b
1,
b01110100011110010111010101101001 "2
b00000000000000000000000000000000 #d
b01110100011110010111010101101001 C
b01110100011110010111010101101001 "4
b00000000000000000000000000000000 o
b01100001011000100110001101100100 (
0#A
1"K
b01110100011110010111010101101001 ".
b01100101011001100110011101101000 T
1#X
b10001001101010111100110111101111 #&
b10001001101010111100110111101111 ;
b00000001001000110100010101100111 "$
1g
0#V
0~
b00000000000000000000000000000000 "&
b01110001011101110110010101110010 a
b00000001001000110100010101100111 "o
1#P
b01110001011101110110010101110010 /
b01110001011101110110010101110010 #R
1#5
b01100001011000100110001101100100 z
1""
1H
b01100101011001100110011101101000 +
1"N
b01100001011000100110001101100100 "e
b00000000000000000000000000000000 "J
b01100001011000100110001101100100 p
1[
1>
1#B
b01110100011110010111010101101001 "a
b01110001011101110110010101110010 "L
b00000000000000000000000000000000 #-
b10001001101010111100110111101111 U
b01110001011101110110010101110010 8
b01100101011001100110011101101000 "1
#136
0"K
0#X
0#5
0""
0"U
0H
0"N
0"<
0#P
0I
0>
0,
0#B
