tested/DotProductFSM/TestDotProductFSM2093549741/DotProductFSM.vcd
$date
2021-07-05T13:15+0000
$end
$version
0.2
$end
$comment

$end
$timescale 1ns  $end
$scope module DotProductFSM $end
 $var wire 2 ! stateReg $end
 $var wire 32 " _GEN_16 $end
 $var wire 2 # _GEN_2 $end
 $var wire 32 $ _GEN_10 $end
 $var wire 1 & io_in_ready $end
 $var wire 2 ' cntReg $end
 $var wire 1 ) io_out_ready $end
 $var wire 2 * _GEN_13 $end
 $var wire 1 + _GEN_8 $end
 $var wire 1 , pe $end
 $var wire 32 - yReg $end
 $var wire 2 . _GEN_12 $end
 $var wire 32 / _GEN_15 $end
 $var wire 2 1 _GEN_7 $end
 $var wire 32 4 io_in_bits_y $end
 $var wire 32 6 io_out_bits $end
 $var wire 32 7 _GEN_1 $end
 $var wire 2 8 _GEN_4 $end
 $var wire 1 : clock $end
 $var wire 1 ; io_in_valid $end
 $var wire 2 = _GEN_17 $end
 $var wire 1 > io_out_valid $end
 $var wire 32 @ _GEN_11 $end
 $var wire 32 A xReg $end
 $var wire 2 B _GEN_20 $end
 $var wire 1 C _GEN_14 $end
 $var wire 2 D _GEN_6 $end
 $var wire 32 E io_in_bits_x $end
 $var wire 32 F _GEN_0 $end
 $var wire 2 G _GEN_9 $end
 $var wire 1 I reset $end
 $var wire 2 J _GEN_3 $end
  $scope module pe $end
   $var wire 32 % io_out $end
   $var wire 32 ( io_y $end
   $var wire 1 0 io_reset $end
   $var wire 32 2 accReg $end
   $var wire 1 3 clock $end
   $var wire 32 5 io_x $end
   $var wire 32 9 _GEN_1 $end
   $var wire 64 < _T $end
   $var wire 1 ? reset $end
   $var wire 64 H _GEN_0 $end
  $upscope $end
$upscope $end
$enddefinitions $end
$dumpvars
b00 .
0C
b0000000000000000000000000000000000000000000000000000000000000000 <
b00 D
0&
0;
b00 '
b00000000000000000000000000000000 (
b00 =
0>
b00000000000000000000000000000000 7
b00 *
b00000000000000000000000000000000 "
b00 #
b00000000000000000000000000000000 9
b00000000000000000000000000000000 2
b0000000000000000000000000000000000000000000000000000000000000000 H
0:
03
b00000000000000000000000000000000 4
0I
b00000000000000000000000000000000 5
b00000000000000000000000000000000 6
b00 !
b00000000000000000000000000000000 /
b00000000000000000000000000000000 E
b00 8
b00000000000000000000000000000000 F
00
b00 1
b00 G
0)
0?
b00000000000000000000000000000000 @
b00000000000000000000000000000000 A
0+
b00000000000000000000000000000000 $
b00 J
0,
b00000000000000000000000000000000 -
b00 B
b00000000000000000000000000000000 %
$end
#0
1?
1&
1I
#1
13
b01 B
b01 1
b01 .
b01 8
b01 '
1:
#6
03
0:
#11
13
1:
#16
03
0:
#21
13
1:
#26
03
0:
#31
13
1:
#36
03
0:
#41
13
1:
#46
03
b00000000000000000000000000000101 4
b00000000000000000000000000001010 E
b01 =
b00000000000000000000000000000101 7
b00000000000000000000000000001010 /
1)
0?
b00000000000000000000000000001010 F
b00000000000000000000000000000101 "
b01 #
0:
0I
1;
#51
13
b10 B
b00000000000000000000000000000101 -
b0000000000000000000000000000000000000000000000000000000000110010 <
b10 .
0&
b00000000000000000000000000001010 5
b00 =
b00000000000000000000000000000101 (
b01 !
b00000000000000000000000000000101 @
b01 G
b00000000000000000000000000110010 9
b00000000000000000000000000001010 $
b0000000000000000000000000000000000000000000000000000000000110010 H
1:
b00000000000000000000000000001010 A
#56
03
0:
0;
#61
13
b0000000000000000000000000000000000000000000000000000000000000000 <
b00000000000000000000000000110010 %
b10 J
1&
b00000000000000000000000000000000 5
b10 '
b00000000000000000000000000110010 6
b00000000000000000000000000000000 (
b00 !
b10 1
b00000000000000000000000000000000 @
b00 G
b00 #
b00000000000000000000000000110010 2
b00000000000000000000000000000000 $
1:
#66
03
0:
#71
13
1:
#76
03
0:
#81
13
1:
#86
03
b11111111111111111111111111111111 4
b11111111111111111111111111111111 "
b01 #
b01 =
0:
b11111111111111111111111111111111 7
1;
#91
13
b11 B
b11111111111111111111111111111111 -
b1111111111111111111111111111111111111111111111111111111111110110 <
b11 .
0&
b00000000000000000000000000001010 5
b10 =
b11111111111111111111111111111111 (
b01 !
b11111111111111111111111111111111 @
b01 G
b10 *
b00000000000000000000000000101000 9
b00000000000000000000000000001010 $
b0000000000000000000000000000000000000000000000000000000000101000 H
1:
#96
03
0:
0;
#101
13
b01 B
b0000000000000000000000000000000000000000000000000000000000000000 <
b00000000000000000000000000101000 %
1C
b01 .
b00 J
b00000000000000000000000000000000 5
b11 '
b00000000000000000000000000101000 6
b00 =
b00000000000000000000000000000000 (
1>
b10 !
10
b01 1
b00000000000000000000000000000000 @
b00 G
b10 #
b00000000000000000000000000101000 2
b00 *
b00000000000000000000000000000000 9
b00000000000000000000000000000000 $
b0000000000000000000000000000000000000000000000000000000000000000 H
1+
1:
#106
03
0:
#111
b00 !
00
13
b00000000000000000000000000000000 %
0C
1&
b00 #
b00000000000000000000000000000000 2
b01 '
b00000000000000000000000000000000 6
0+
1:
0>
