tested/CorrelationFSM/correlation.TestCorrelationFSM140249337/CorrelationFSM.vcd
$date
2021-07-06T19:05+0000
$end
$version
0.2
$end
$comment

$end
$timescale 1ns  $end
$scope module CorrelationFSM $end
 $var wire 2 ! stateReg $end
 $var wire 2 " _GEN_22 $end
 $var wire 32 # x2Reg $end
 $var wire 32 $ x0Reg $end
 $var wire 32 % _GEN_2 $end
 $var wire 2 & _GEN_10 $end
 $var wire 1 ( io_in_ready $end
 $var wire 32 * _GEN_25 $end
 $var wire 2 + _GEN_19 $end
 $var wire 1 , io_out_ready $end
 $var wire 32 - _GEN_5 $end
 $var wire 3 . _GEN_13 $end
 $var wire 32 / _GEN_8 $end
 $var wire 2 0 computingStageReg $end
 $var wire 1 1 pe $end
 $var wire 1 2 _GEN_24 $end
 $var wire 32 3 _GEN_27 $end
 $var wire 32 4 _GEN_12 $end
 $var wire 2 5 _GEN_15 $end
 $var wire 2 7 _GEN_7 $end
 $var wire 3 : _GEN_21 $end
 $var wire 32 ; io_out_bits $end
 $var wire 1 = _GEN_18 $end
 $var wire 32 > _GEN_1 $end
 $var wire 32 ? x1Reg $end
 $var wire 2 @ _GEN_4 $end
 $var wire 1 B clock $end
 $var wire 1 C io_in_valid $end
 $var wire 2 D _GEN_23 $end
 $var wire 2 F _GEN_17 $end
 $var wire 1 G io_out_valid $end
 $var wire 32 H _GEN_26 $end
 $var wire 2 J _GEN_11 $end
 $var wire 32 K _GEN_20 $end
 $var wire 2 L _GEN_29 $end
 $var wire 2 M _GEN_14 $end
 $var wire 3 N _GEN_6 $end
 $var wire 32 O _GEN_0 $end
 $var wire 3 P _GEN_9 $end
 $var wire 1 R reset $end
 $var wire 32 S io_in_bits $end
 $var wire 2 T _GEN_3 $end
 $var wire 2 U _GEN_28 $end
  $scope module pe $end
   $var wire 32 ' io_out $end
   $var wire 32 ) io_y $end
   $var wire 1 6 io_reset $end
   $var wire 32 8 accReg $end
   $var wire 1 9 clock $end
   $var wire 32 < io_x $end
   $var wire 32 A _GEN_1 $end
   $var wire 64 E _T $end
   $var wire 1 I reset $end
   $var wire 64 Q _GEN_0 $end
  $upscope $end
$upscope $end
$enddefinitions $end
$dumpvars
b0000000000000000000000000000000000000000000000000000000000000000 Q
0C
b00 &
b00000000000000000000000000000000 <
b00 D
b00000000000000000000000000000000 '
0R
b00000000000000000000000000000000 S
0=
b00000000000000000000000000000000 >
b00000000000000000000000000000000 ?
b00 T
06
b00 "
b00 U
b00 @
b00000000000000000000000000000000 8
b00000000000000000000000000000000 #
b000 .
b00000000000000000000000000000000 O
09
b00000000000000000000000000000000 3
02
b00000000000000000000000000000000 4
0I
b00 5
b00000000000000000000000000000000 K
b00 !
b00 L
b00 7
b00000000000000000000000000000000 /
b000 :
b0000000000000000000000000000000000000000000000000000000000000000 E
b00 M
b000 P
b00 0
b00 F
0(
b00000000000000000000000000000000 )
01
b00000000000000000000000000000000 *
0G
b00000000000000000000000000000000 H
b00 +
b00000000000000000000000000000000 A
b00000000000000000000000000000000 $
b00 J
0,
b00000000000000000000000000000000 -
b00000000000000000000000000000000 %
0B
b000 N
b00000000000000000000000000000000 ;
$end
#0
1R
b001 .
1(
1I
b01 M
#1
1B
19
#6
0B
09
#11
1B
19
#16
0B
09
#21
1B
19
#26
0B
09
#31
1B
19
#36
0B
09
#41
1B
19
#46
b00000000000000000000000000000001 3
0B
b01 T
b00000000000000000000000000000001 %
1C
0R
b01 U
b00000000000000000000000000000001 S
09
0I
1,
#51
1B
b01 J
b01 5
b01 D
0(
b01 7
b01 L
b00000000000000000000000000000001 >
b00000000000000000000000000000001 )
b01 !
b01 "
b00000000000000000000000000000001 #
19
b01 +
b001 :
#56
0B
0C
09
b00000000000000000000000000000000 >
#61
1B
b01 0
b10 "
b010 .
b01 @
b10 &
19
b010 :
b10 L
b010 P
b10 M
b00000000000000000000000000000010 )
#66
0B
09
#71
1B
b00000000000000000000000000000001 -
b00000000000000000000000000000001 <
b0000000000000000000000000000000000000000000000000000000000000011 Q
b00000000000000000000000000000001 4
b011 .
b10 J
b10 5
b10 D
b00000000000000000000000000000001 K
b0000000000000000000000000000000000000000000000000000000000000011 E
b10 7
b00000000000000000000000000000001 /
b00000000000000000000000000000011 )
b10 0
b011 N
b10 U
b10 @
19
b011 :
b00000000000000000000000000000011 A
b011 P
#76
0B
09
#81
1B
b0000000000000000000000000000000000000000000000000000000000000000 Q
b00000000000000000000000000000000 <
b00 D
b00000000000000000000000000000000 K
16
b0000000000000000000000000000000000000000000000000000000000000000 E
b00000000000000000000000000000011 '
1=
b00000000000000000000000000000000 )
b10 !
b10 T
b00 U
b00000000000000000000000000000011 8
1G
12
19
b00 +
b000 :
b00000000000000000000000000000000 A
b00000000000000000000000000000011 ;
#86
0B
09
#91
b00 !
1B
b00 T
b00000000000000000000000000000000 8
0G
02
19
06
b00000000000000000000000000000000 '
0=
1(
b00000000000000000000000000000000 ;
#96
0B
09
#101
1B
19
#106
0B
09
#111
1B
19
#116
0B
09
#121
1B
19
#126
0B
09
#131
1B
19
#136
0B
09
#141
1B
19
#146
0B
09
#151
1B
19
#156
0B
09
#161
1B
19
#166
0B
09
#171
1B
19
#176
0B
09
#181
1B
19
#186
0B
09
#191
1B
19
#196
0B
09
#201
1B
19
#206
b11111111111111111111111111111111 3
0B
b01 T
b11111111111111111111111111111111 %
1C
b00 @
b01 U
b11111111111111111111111111111111 S
09
b00000000000000000000000000000001 H
b00 L
b00000000000000000000000000000001 >
#211
1B
b00000000000000000000000000000000 -
b00000000000000000000000000000000 4
b001 .
b00 &
b01 J
b01 5
b01 D
0(
b01 7
b01 L
b00000000000000000000000000000000 /
b11111111111111111111111111111111 >
b01 M
b00000000000000000000000000000001 )
b01 !
b00 0
b00000000000000000000000000000001 ?
b000 N
b01 "
b11111111111111111111111111111111 #
19
b00000000000000000000000000000001 O
b01 +
b001 :
b000 P
#216
0B
0C
09
b00000000000000000000000000000000 O
b00000000000000000000000000000001 >
#221
1B
b0000000000000000000000000000000000000000000000000000000000000010 Q
b00000000000000000000000000000001 <
b00000000000000000000000000000001 4
b010 .
b10 &
b00000000000000000000000000000001 K
b0000000000000000000000000000000000000000000000000000000000000010 E
b10 L
b00000000000000000000000000000001 /
b10 M
b00000000000000000000000000000010 )
b01 0
b10 "
b01 @
19
b010 :
b00000000000000000000000000000010 A
b010 P
#226
0B
09
#231
1B
b11111111111111111111111111111111 -
b11111111111111111111111111111111 <
b1111111111111111111111111111111111111111111111111111111111111111 Q
b11111111111111111111111111111111 4
b011 .
b10 J
b10 5
b10 D
b11111111111111111111111111111111 K
b00000000000000000000000000000010 '
b1111111111111111111111111111111111111111111111111111111111111101 E
b10 7
b11111111111111111111111111111111 /
b00000000000000000000000000000011 )
b10 0
b011 N
b10 U
b10 @
b00000000000000000000000000000010 8
19
b011 :
b11111111111111111111111111111111 A
b011 P
b00000000000000000000000000000010 ;
#236
0B
09
#241
1B
b0000000000000000000000000000000000000000000000000000000000000000 Q
b00000000000000000000000000000000 <
b00 D
b00000000000000000000000000000000 K
16
b0000000000000000000000000000000000000000000000000000000000000000 E
b11111111111111111111111111111111 '
1=
b00000000000000000000000000000000 )
b10 !
b10 T
b00 U
b11111111111111111111111111111111 8
1G
12
19
b00 +
b000 :
b00000000000000000000000000000000 A
b11111111111111111111111111111111 ;
#246
0B
09
#251
b00 !
1B
b00 T
b00000000000000000000000000000000 8
0G
02
19
06
b00000000000000000000000000000000 '
0=
1(
b00000000000000000000000000000000 ;
#256
0B
09
#261
1B
19
#266
0B
09
#271
1B
19
#276
0B
09
#281
1B
19
#286
0B
09
#291
1B
19
#296
0B
09
#301
1B
19
#306
0B
09
#311
1B
19
#316
0B
09
#321
1B
19
#326
0B
09
#331
1B
19
#336
0B
09
#341
1B
19
#346
0B
09
#351
1B
19
#356
0B
09
#361
1B
19
#366
b00000000000000000000000000000001 3
0B
b00000000000000000000000000000001 %
1C
b00000000000000000000000000000001 S
b00 L
b11111111111111111111111111111111 >
b01 T
b01 U
b00 @
b00000000000000000000000000000001 *
09
b11111111111111111111111111111111 H
b00000000000000000000000000000001 O
#371
b0000000000000000000000000000000000000000000000000000000000000001 Q
b00000000000000000000000000000001 <
b00000000000000000000000000000001 4
b01 J
b01 5
b00000000000000000000000000000001 K
b01 L
b01 7
b00000000000000000000000000000000 /
b01 M
b00 0
b000 N
b01 +
b00000000000000000000000000000001 A
1B
b00000000000000000000000000000000 -
b001 .
b00 &
b01 D
b0000000000000000000000000000000000000000000000000000000000000001 E
0(
b00000000000000000000000000000001 >
b00000000000000000000000000000001 )
b01 !
b11111111111111111111111111111111 ?
b01 "
b00000000000000000000000000000001 #
19
b00000000000000000000000000000001 $
b11111111111111111111111111111111 O
b001 :
b000 P
#376
0B
0C
09
b00000000000000000000000000000001 O
b11111111111111111111111111111111 >
#381
1B
b1111111111111111111111111111111111111111111111111111111111111111 Q
b11111111111111111111111111111111 <
b11111111111111111111111111111111 4
b010 .
b10 &
b11111111111111111111111111111111 K
b00000000000000000000000000000001 '
b1111111111111111111111111111111111111111111111111111111111111110 E
b10 L
b11111111111111111111111111111111 /
b10 M
b00000000000000000000000000000010 )
b01 0
b10 "
b01 @
b00000000000000000000000000000001 8
19
b010 :
b11111111111111111111111111111111 A
b010 P
b00000000000000000000000000000001 ;
#386
0B
09
#391
1B
b00000000000000000000000000000001 -
b00000000000000000000000000000001 <
b0000000000000000000000000000000000000000000000000000000000000010 Q
b00000000000000000000000000000001 4
b011 .
b10 J
b10 5
b10 D
b00000000000000000000000000000001 K
b11111111111111111111111111111111 '
b0000000000000000000000000000000000000000000000000000000000000011 E
b10 7
b00000000000000000000000000000001 /
b00000000000000000000000000000011 )
b10 0
b011 N
b10 U
b10 @
b11111111111111111111111111111111 8
19
b011 :
b00000000000000000000000000000010 A
b011 P
b11111111111111111111111111111111 ;
#396
0B
09
#401
1B
b0000000000000000000000000000000000000000000000000000000000000000 Q
b00000000000000000000000000000000 <
b00 D
b00000000000000000000000000000000 K
16
b0000000000000000000000000000000000000000000000000000000000000000 E
b00000000000000000000000000000010 '
1=
b00000000000000000000000000000000 )
b10 !
b10 T
b00 U
b00000000000000000000000000000010 8
1G
12
19
b00 +
b000 :
b00000000000000000000000000000000 A
b00000000000000000000000000000010 ;
#406
0B
09
#411
b00 !
1B
b00 T
b00000000000000000000000000000000 8
0G
02
19
06
b00000000000000000000000000000000 '
0=
1(
b00000000000000000000000000000000 ;
#416
0B
09
#421
1B
19
#426
0B
09
#431
1B
19
#436
0B
09
#441
1B
19
#446
0B
09
#451
1B
19
#456
0B
09
#461
1B
19
#466
0B
09
#471
1B
19
#476
0B
09
#481
1B
19
#486
0B
09
#491
1B
19
#496
0B
09
#501
1B
19
#506
0B
09
#511
1B
19
#516
0B
09
#521
1B
19
#526
b00000000000000000000000000000010 3
0B
b00000000000000000000000000000010 %
1C
b00000000000000000000000000000010 S
b00 L
b00000000000000000000000000000001 >
b01 T
b01 U
b00 @
b11111111111111111111111111111111 *
09
b00000000000000000000000000000001 H
b11111111111111111111111111111111 O
#531
b1111111111111111111111111111111111111111111111111111111111111111 Q
b11111111111111111111111111111111 <
b11111111111111111111111111111111 4
b01 J
b01 5
b11111111111111111111111111111111 K
b01 L
b01 7
b00000000000000000000000000000000 /
b01 M
b00 0
b000 N
b01 +
b11111111111111111111111111111111 A
1B
b00000000000000000000000000000000 -
b001 .
b00 &
b01 D
b1111111111111111111111111111111111111111111111111111111111111111 E
0(
b00000000000000000000000000000010 >
b00000000000000000000000000000001 )
b01 !
b00000000000000000000000000000001 ?
b01 "
b00000000000000000000000000000010 #
19
b11111111111111111111111111111111 $
b00000000000000000000000000000001 O
b001 :
b000 P
#536
0B
0C
09
b11111111111111111111111111111111 O
b00000000000000000000000000000001 >
#541
1B
b0000000000000000000000000000000000000000000000000000000000000001 Q
b00000000000000000000000000000001 <
b00000000000000000000000000000001 4
b010 .
b10 &
b00000000000000000000000000000001 K
b11111111111111111111111111111111 '
b0000000000000000000000000000000000000000000000000000000000000010 E
b10 L
b00000000000000000000000000000001 /
b10 M
b00000000000000000000000000000010 )
b01 0
b10 "
b01 @
b11111111111111111111111111111111 8
19
b010 :
b00000000000000000000000000000001 A
b010 P
b11111111111111111111111111111111 ;
#546
0B
09
#551
1B
b00000000000000000000000000000010 -
b00000000000000000000000000000010 <
b0000000000000000000000000000000000000000000000000000000000000111 Q
b00000000000000000000000000000010 4
b011 .
b10 J
b10 5
b10 D
b00000000000000000000000000000010 K
b00000000000000000000000000000001 '
b0000000000000000000000000000000000000000000000000000000000000110 E
b10 7
b00000000000000000000000000000010 /
b00000000000000000000000000000011 )
b10 0
b011 N
b10 U
b10 @
b00000000000000000000000000000001 8
19
b011 :
b00000000000000000000000000000111 A
b011 P
b00000000000000000000000000000001 ;
#556
0B
09
#561
1B
b0000000000000000000000000000000000000000000000000000000000000000 Q
b00000000000000000000000000000000 <
b00 D
b00000000000000000000000000000000 K
16
b0000000000000000000000000000000000000000000000000000000000000000 E
b00000000000000000000000000000111 '
1=
b00000000000000000000000000000000 )
b10 !
b10 T
b00 U
b00000000000000000000000000000111 8
1G
12
19
b00 +
b000 :
b00000000000000000000000000000000 A
b00000000000000000000000000000111 ;
#566
0B
09
#571
b00 !
1B
b00 T
b00000000000000000000000000000000 8
0G
02
19
06
b00000000000000000000000000000000 '
0=
1(
b00000000000000000000000000000000 ;
#576
0B
09
#581
1B
19
#586
0B
09
#591
1B
19
#596
0B
09
#601
1B
19
#606
0B
09
#611
1B
19
#616
0B
09
#621
1B
19
#626
0B
09
#631
1B
19
#636
0B
09
#641
1B
19
#646
0B
09
#651
1B
19
#656
0B
09
#661
1B
19
#666
0B
09
#671
1B
19
#676
0B
09
#681
1B
19
#686
b00000000000000000000000000000001 3
0B
b00000000000000000000000000000001 %
1C
b00000000000000000000000000000001 S
b00 L
b00000000000000000000000000000010 >
b01 T
b01 U
b00 @
b00000000000000000000000000000001 *
09
b00000000000000000000000000000010 H
b00000000000000000000000000000001 O
#691
b0000000000000000000000000000000000000000000000000000000000000001 Q
b00000000000000000000000000000001 <
b00000000000000000000000000000001 4
b01 J
b01 5
b00000000000000000000000000000001 K
b01 L
b01 7
b00000000000000000000000000000000 /
b01 M
b00 0
b000 N
b01 +
b00000000000000000000000000000001 A
1B
b00000000000000000000000000000000 -
b001 .
b00 &
b01 D
b0000000000000000000000000000000000000000000000000000000000000001 E
0(
b00000000000000000000000000000001 >
b00000000000000000000000000000001 )
b01 !
b00000000000000000000000000000010 ?
b01 "
b00000000000000000000000000000001 #
19
b00000000000000000000000000000001 $
b00000000000000000000000000000010 O
b001 :
b000 P
#696
0B
0C
09
b00000000000000000000000000000001 O
b00000000000000000000000000000010 >
#701
1B
b0000000000000000000000000000000000000000000000000000000000000101 Q
b00000000000000000000000000000010 <
b00000000000000000000000000000010 4
b010 .
b10 &
b00000000000000000000000000000010 K
b00000000000000000000000000000001 '
b0000000000000000000000000000000000000000000000000000000000000100 E
b10 L
b00000000000000000000000000000010 /
b10 M
b00000000000000000000000000000010 )
b01 0
b10 "
b01 @
b00000000000000000000000000000001 8
19
b010 :
b00000000000000000000000000000101 A
b010 P
b00000000000000000000000000000001 ;
#706
0B
09
#711
1B
b00000000000000000000000000000001 -
b00000000000000000000000000000001 <
b0000000000000000000000000000000000000000000000000000000000001000 Q
b00000000000000000000000000000001 4
b011 .
b10 J
b10 5
b10 D
b00000000000000000000000000000001 K
b00000000000000000000000000000101 '
b0000000000000000000000000000000000000000000000000000000000000011 E
b10 7
b00000000000000000000000000000001 /
b00000000000000000000000000000011 )
b10 0
b011 N
b10 U
b10 @
b00000000000000000000000000000101 8
19
b011 :
b00000000000000000000000000001000 A
b011 P
b00000000000000000000000000000101 ;
#716
0B
09
#721
1B
b0000000000000000000000000000000000000000000000000000000000000000 Q
b00000000000000000000000000000000 <
b00 D
b00000000000000000000000000000000 K
16
b0000000000000000000000000000000000000000000000000000000000000000 E
b00000000000000000000000000001000 '
1=
b00000000000000000000000000000000 )
b10 !
b10 T
b00 U
b00000000000000000000000000001000 8
1G
12
19
b00 +
b000 :
b00000000000000000000000000000000 A
b00000000000000000000000000001000 ;
#726
0B
09
#731
b00 !
1B
b00 T
b00000000000000000000000000000000 8
0G
02
19
06
b00000000000000000000000000000000 '
0=
1(
b00000000000000000000000000000000 ;
