tested/Rotation/simple.TestRotation2077595529/Rotation.vcd
$date
2021-08-16T14:27+0000
$end
$version
0.2
$end
$comment

$end
$timescale 1ns  $end
$scope module Rotation $end
 $var wire 2 ! stateReg $end
 $var wire 8 " _GEN_10 $end
 $var wire 2 # _GEN_2 $end
 $var wire 1 $ io_in_ready $end
 $var wire 8 % dataReg $end
 $var wire 4 & cntReg $end
 $var wire 1 ' io_out_ready $end
 $var wire 2 ( _GEN_5 $end
 $var wire 2 ) _GEN_8 $end
 $var wire 7 * lo $end
 $var wire 2 + _GEN_12 $end
 $var wire 8 , _GEN_7 $end
 $var wire 8 - io_out_bits $end
 $var wire 4 . _GEN_1 $end
 $var wire 4 / _GEN_4 $end
 $var wire 1 0 clock $end
 $var wire 1 1 io_in_valid $end
 $var wire 1 2 io_out_valid $end
 $var wire 4 3 _GEN_11 $end
 $var wire 1 4 hi $end
 $var wire 2 5 _GEN_6 $end
 $var wire 8 6 _GEN_0 $end
 $var wire 4 7 _GEN_9 $end
 $var wire 8 8 io_in_bits $end
 $var wire 1 9 reset $end
 $var wire 2 : _GEN_3 $end
$upscope $end
$enddefinitions $end
$dumpvars
04
b00 5
b0000 .
b00 !
0'
b0000 /
b00 (
b00000000 "
b00 )
b00000000 8
b0000 7
00
01
b0000000 *
b00 #
b00000000 ,
b00000000 -
09
b00 +
b00000000 %
b00 :
b0000 3
02
0$
b00000000 6
b0000 &
$end
#0
19
1$
b0001 /
#1
10
#6
00
#11
10
#16
00
#21
10
#26
00
#31
10
#36
00
#41
10
#46
b0001 3
00
b00001000 "
11
b0001 .
b00001000 8
b01 #
09
1'
b00001000 6
b01 +
#51
b0010 3
b00001000 -
b00001000 %
b0001 &
b01 5
b0010 7
b0010 /
b01 )
b01 !
10
b00000100 "
b0000100 *
0$
b01 :
b00000100 ,
#56
00
01
#61
b0011 3
10
b00000100 -
b00000100 %
b00000010 "
b0010 .
b0010 &
b0000010 *
b00000100 6
b0011 7
b0011 /
b00000010 ,
#66
00
#71
b0100 3
10
b00000010 -
b00000010 %
b00000001 "
b0011 .
b0011 &
b0000001 *
b00000010 6
b0100 7
b0100 /
b00000001 ,
#76
00
#81
b0101 3
10
b00000001 -
b00000001 %
14
b10000000 "
b0100 .
b0100 &
b0000000 *
b00000001 6
b0101 7
b0101 /
b10000000 ,
#86
00
#91
b0110 3
10
b10000000 -
b10000000 %
04
b01000000 "
b0101 .
b0101 &
b1000000 *
b10000000 6
b0110 7
b0110 /
b01000000 ,
#96
00
#101
b0111 3
10
b01000000 -
b01000000 %
b00100000 "
b0110 .
b0110 &
b0100000 *
b01000000 6
b0111 7
b0111 /
b00100000 ,
#106
00
#111
b1000 3
10
b00100000 -
b00100000 %
b00010000 "
b0111 .
b0111 &
b0010000 *
b00100000 6
b1000 7
b1000 /
b00010000 ,
#116
00
#121
10
b00010000 -
b00010000 %
b00001000 "
b1000 .
b1000 &
b0001000 *
b00010000 6
b10 +
b10 :
b00001000 ,
b10 )
#126
00
#131
b10 !
10
b00001000 -
b00001000 %
b00 5
12
b10 #
b0000100 *
b00001000 6
b00 +
b00 )
#136
00
#141
b00 !
10
b00 #
02
1$
#146
00
#151
10
#156
b0001 3
00
b00000001 "
11
b0001 .
b00000001 8
b01 #
b00000001 6
b01 +
#161
b0010 3
b00000001 -
b00000001 %
14
b0001 &
b01 5
b0010 7
b0010 /
b01 )
b01 !
10
b10000000 "
b0000000 *
0$
b01 :
b10000000 ,
#166
00
01
#171
b0011 3
10
b10000000 -
b10000000 %
04
b01000000 "
b0010 .
b0010 &
b1000000 *
b10000000 6
b0011 7
b0011 /
b01000000 ,
#176
00
#181
b0100 3
10
b01000000 -
b01000000 %
b00100000 "
b0011 .
b0011 &
b0100000 *
b01000000 6
b0100 7
b0100 /
b00100000 ,
#186
00
#191
b0101 3
10
b00100000 -
b00100000 %
b00010000 "
b0100 .
b0100 &
b0010000 *
b00100000 6
b0101 7
b0101 /
b00010000 ,
#196
00
#201
b0110 3
10
b00010000 -
b00010000 %
b00001000 "
b0101 .
b0101 &
b0001000 *
b00010000 6
b0110 7
b0110 /
b00001000 ,
#206
00
#211
b0111 3
10
b00001000 -
b00001000 %
b00000100 "
b0110 .
b0110 &
b0000100 *
b00001000 6
b0111 7
b0111 /
b00000100 ,
#216
00
#221
b1000 3
10
b00000100 -
b00000100 %
b00000010 "
b0111 .
b0111 &
b0000010 *
b00000100 6
b1000 7
b1000 /
b00000010 ,
#226
00
#231
10
b00000010 -
b00000010 %
b00000001 "
b1000 .
b1000 &
b0000001 *
b00000010 6
b10 +
b10 :
b00000001 ,
b10 )
#236
00
#241
b10 !
10
b00000001 -
b00000001 %
14
b00 5
12
b10 #
b0000000 *
b00000001 6
b00 +
b00 )
#246
00
#251
b00 !
10
b00 #
02
1$
#256
00
#261
10
#266
b0001 3
00
b00000110 "
11
b0001 .
b00000110 8
b01 #
b00000110 6
b01 +
#271
b0010 3
b00000110 -
b00000110 %
04
b0001 &
b01 5
b0010 7
b0010 /
b01 )
b01 !
10
b00000011 "
b0000011 *
0$
b01 :
b00000011 ,
#276
00
01
#281
b0011 3
10
b00000011 -
b00000011 %
14
b10000001 "
b0010 .
b0010 &
b0000001 *
b00000011 6
b0011 7
b0011 /
b10000001 ,
#286
00
#291
b0100 3
10
b10000001 -
b10000001 %
b11000000 "
b0011 .
b0011 &
b1000000 *
b10000001 6
b0100 7
b0100 /
b11000000 ,
#296
00
#301
b0101 3
10
b11000000 -
b11000000 %
04
b01100000 "
b0100 .
b0100 &
b1100000 *
b11000000 6
b0101 7
b0101 /
b01100000 ,
#306
00
#311
b0110 3
10
b01100000 -
b01100000 %
b00110000 "
b0101 .
b0101 &
b0110000 *
b01100000 6
b0110 7
b0110 /
b00110000 ,
#316
00
#321
b0111 3
10
b00110000 -
b00110000 %
b00011000 "
b0110 .
b0110 &
b0011000 *
b00110000 6
b0111 7
b0111 /
b00011000 ,
#326
00
#331
b1000 3
10
b00011000 -
b00011000 %
b00001100 "
b0111 .
b0111 &
b0001100 *
b00011000 6
b1000 7
b1000 /
b00001100 ,
#336
00
#341
10
b00001100 -
b00001100 %
b00000110 "
b1000 .
b1000 &
b0000110 *
b00001100 6
b10 +
b10 :
b00000110 ,
b10 )
#346
00
#351
b10 !
10
b00000110 -
b00000110 %
b00 5
12
b10 #
b0000011 *
b00000110 6
b00 +
b00 )
#356
00
#361
b00 !
10
b00 #
02
1$
