tested/DotProductDoubleSync/dotProduct.TestDotProductDoubleSync1800244521/DotProductDoubleSync.vcd
$date
2021-07-05T14:10+0000
$end
$version
0.2
$end
$comment

$end
$timescale 1ns  $end
$scope module DotProductDoubleSync $end
 $var wire 2 ! stateReg $end
 $var wire 2 " _GEN_16 $end
 $var wire 2 # _GEN_2 $end
 $var wire 2 $ _GEN_10 $end
 $var wire 1 & io_in_ready $end
 $var wire 2 ' cntReg $end
 $var wire 32 * _GEN_19 $end
 $var wire 1 + io_out_ready $end
 $var wire 32 , _GEN_13 $end
 $var wire 1 - _GEN_8 $end
 $var wire 1 . pe $end
 $var wire 32 / yReg $end
 $var wire 1 0 _GEN_12 $end
 $var wire 2 1 _GEN_15 $end
 $var wire 2 2 _GEN_7 $end
 $var wire 32 6 io_in_bits_y $end
 $var wire 32 9 io_out_bits $end
 $var wire 32 : _GEN_18 $end
 $var wire 32 ; _GEN_1 $end
 $var wire 2 < _GEN_4 $end
 $var wire 1 ? clock $end
 $var wire 1 @ io_in_valid $end
 $var wire 2 A _GEN_23 $end
 $var wire 1 C _GEN_17 $end
 $var wire 1 D io_out_valid $end
 $var wire 2 F _GEN_11 $end
 $var wire 32 G xReg $end
 $var wire 2 H _GEN_20 $end
 $var wire 32 I _GEN_14 $end
 $var wire 2 J _GEN_6 $end
 $var wire 32 K io_in_bits_x $end
 $var wire 32 L _GEN_0 $end
 $var wire 2 M _GEN_9 $end
 $var wire 1 N reset $end
 $var wire 2 P _GEN_3 $end
  $scope module pe $end
   $var wire 32 % io_out $end
   $var wire 32 ( xReg $end
   $var wire 32 ) io_y $end
   $var wire 1 3 io_reset $end
   $var wire 1 4 clock $end
   $var wire 32 5 accReg $end
   $var wire 1 7 resetReg $end
   $var wire 32 8 io_x $end
   $var wire 32 = _GEN_1 $end
   $var wire 32 > yReg $end
   $var wire 64 B _T $end
   $var wire 1 E reset $end
   $var wire 64 O _GEN_0 $end
  $upscope $end
$upscope $end
$enddefinitions $end
$dumpvars
0C
0&
b00 '
b00000000000000000000000000000000 =
b00000000000000000000000000000000 (
b00000000000000000000000000000000 >
b00 "
07
b00000000000000000000000000000000 8
b00 #
b00 A
b00000000000000000000000000000000 9
b0000000000000000000000000000000000000000000000000000000000000000 O
b00 $
0N
b00000000000000000000000000000000 :
b00 P
b00000000000000000000000000000000 I
03
b00 <
04
b00000000000000000000000000000000 5
b0000000000000000000000000000000000000000000000000000000000000000 B
b00000000000000000000000000000000 K
b00000000000000000000000000000000 6
0-
b00 !
b00000000000000000000000000000000 L
b00000000000000000000000000000000 /
0.
b00 M
0D
0E
00
b00 F
b00 1
b00000000000000000000000000000000 )
b00000000000000000000000000000000 G
b00 2
b00000000000000000000000000000000 *
b00 H
0?
0@
0+
b00000000000000000000000000000000 ,
b00 J
b00000000000000000000000000000000 %
b00000000000000000000000000000000 ;
$end
#0
1N
1&
1E
#1
1?
b01 <
b01 "
14
b01 2
b01 '
b01 $
b01 A
#6
0?
04
#11
1?
14
#16
0?
04
#21
1?
14
#26
0?
04
#31
1?
14
#36
0?
04
#41
1?
14
#46
04
b00000000000000000000000000001010 K
b00000000000000000000000000000101 6
0E
b00000000000000000000000000001010 L
0?
0N
1@
b01 #
b00000000000000000000000000000101 *
b01 H
1+
b00000000000000000000000000001010 :
b00000000000000000000000000000101 ;
#51
14
0&
b00000000000000000000000000000101 /
b01 M
b00000000000000000000000000000101 )
b01 !
1?
b01 F
b10 1
b00000000000000000000000000001010 8
b00000000000000000000000000001010 G
b10 H
b00000000000000000000000000000101 I
b00000000000000000000000000001010 ,
#56
0?
04
0@
#61
b0000000000000000000000000000000000000000000000000000000000110010 B
14
b00000000000000000000000000110010 =
b00000000000000000000000000001010 (
b00000000000000000000000000000101 >
b10 M
b00000000000000000000000000000000 )
b10 !
1?
b00 F
b10 "
b00 1
b00000000000000000000000000000000 8
b10 #
b10 $
b00 H
b0000000000000000000000000000000000000000000000000000000000110010 O
b00000000000000000000000000000000 I
b10 A
b00000000000000000000000000000000 ,
#66
0?
04
#71
b0000000000000000000000000000000000000000000000000000000000000000 B
b00000000000000000000000000110010 %
14
1&
b00000000000000000000000000110010 5
b10 '
b00000000000000000000000000000000 (
b00000000000000000000000000000000 >
b00 M
b00 !
1?
b00 #
b10 2
b00000000000000000000000000110010 9
b11 P
#76
0?
04
#81
1?
14
#86
0?
04
1@
b01 #
b11111111111111111111111111111111 *
b11111111111111111111111111111111 6
b01 H
b11111111111111111111111111111111 ;
#91
b01 !
1?
b01 F
b10 1
14
0&
b00000000000000000000000000001010 8
b10 H
b11111111111111111111111111111111 I
b11111111111111111111111111111111 /
b00000000000000000000000000001010 ,
b01 M
b11111111111111111111111111111111 )
#96
0?
04
0@
#101
b1111111111111111111111111111111111111111111111111111111111110110 B
14
b00000000000000000000000000101000 =
b00000000000000000000000000001010 (
b11111111111111111111111111111111 >
b10 M
b00000000000000000000000000000000 )
b10 !
1?
b11 F
b11 "
b11 1
b00000000000000000000000000000000 8
b10 #
b11 $
b11 H
b0000000000000000000000000000000000000000000000000000000000101000 O
b00000000000000000000000000000000 I
b11 A
b00000000000000000000000000000000 ,
#106
0?
04
#111
13
b0000000000000000000000000000000000000000000000000000000000000000 B
1-
b00000000000000000000000000101000 %
14
1C
b00000000000000000000000000101000 5
1D
b11 '
b00000000000000000000000000000000 (
b00000000000000000000000000000000 >
b00 M
b11 !
10
1?
b00 F
b01 "
b00 1
b11 #
b01 2
b00000000000000000000000000101000 9
b01 $
b00 H
b01 A
b00 P
#116
0?
04
#121
03
0-
14
0C
1&
0D
b01 '
b00000000000000000000000000000000 =
17
b00 !
00
1?
b00 #
b0000000000000000000000000000000000000000000000000000000000000000 O
#126
0?
04
#131
1?
b00000000000000000000000000000000 %
14
b00000000000000000000000000000000 5
b00000000000000000000000000000000 9
07
