tested/FastDotProductDecoupled/dotProduct.TestDotProductDecoupled1092090094/FastDotProductDecoupled.vcd
$date
2021-07-08T10:23+0000
$end
$version
0.2
$end
$comment

$end
$timescale 1ns  $end
$scope module DotProductDecoupled $end
 $var wire 32 ! io_in_bits_y_3 $end
 $var wire 32 # _GEN_37 $end
 $var wire 3 $ stateReg $end
 $var wire 32 % _GEN_22 $end
 $var wire 32 & _GEN_16 $end
 $var wire 32 ' _GEN_43 $end
 $var wire 32 ( _GEN_2 $end
 $var wire 1 ) _T $end
 $var wire 1 * io_in_ready $end
 $var wire 3 + cntReg $end
 $var wire 1 , _GEN_31 $end
 $var wire 3 - _GEN_25 $end
 $var wire 1 / io_out_ready $end
 $var wire 32 0 yRegs_1 $end
 $var wire 32 1 _GEN_5 $end
 $var wire 32 2 xRegs_2 $end
 $var wire 32 3 _GEN_13 $end
 $var wire 3 4 _GEN_8 $end
 $var wire 32 5 _GEN_42 $end
 $var wire 1 6 pe $end
 $var wire 3 7 _GEN_51 $end
 $var wire 3 9 _GEN_30 $end
 $var wire 32 : _GEN_39 $end
 $var wire 32 ; _GEN_45 $end
 $var wire 32 < _GEN_48 $end
 $var wire 3 = _GEN_33 $end
 $var wire 32 > io_in_bits_x_0 $end
 $var wire 32 ? _GEN_54 $end
 $var wire 32 @ _GEN_12 $end
 $var wire 32 A io_in_bits_y_2 $end
 $var wire 32 B _GEN_7 $end
 $var wire 32 C _GEN_15 $end
 $var wire 32 D io_in_bits_x_3 $end
 $var wire 32 G _GEN_36 $end
 $var wire 3 H _GEN_21 $end
 $var wire 32 J io_out_bits $end
 $var wire 32 K _GEN_1 $end
 $var wire 32 L yRegs_0 $end
 $var wire 32 M _GEN_4 $end
 $var wire 32 N xRegs_1 $end
 $var wire 1 P _GEN_41 $end
 $var wire 1 Q clock $end
 $var wire 1 R _GEN_35 $end
 $var wire 32 S io_in_bits_x_2 $end
 $var wire 1 T io_in_valid $end
 $var wire 32 U yRegs_3 $end
 $var wire 32 V io_in_bits_y_1 $end
 $var wire 3 W _GEN_50 $end
 $var wire 32 Y _GEN_44 $end
 $var wire 3 Z _GEN_38 $end
 $var wire 32 [ _GEN_17 $end
 $var wire 1 \ io_out_valid $end
 $var wire 32 ] xRegs_0 $end
 $var wire 32 ^ _GEN_32 $end
 $var wire 32 _ _GEN_47 $end
 $var wire 32 a _GEN_11 $end
 $var wire 32 b yRegs_2 $end
 $var wire 3 c _GEN_29 $end
 $var wire 32 d _GEN_6 $end
 $var wire 32 e xRegs_3 $end
 $var wire 32 f _GEN_0 $end
 $var wire 3 h _GEN_9 $end
 $var wire 1 k reset $end
 $var wire 32 l _GEN_3 $end
 $var wire 32 m _GEN_46 $end
 $var wire 32 n resReg $end
 $var wire 3 o _GEN_34 $end
 $var wire 3 p _GEN_40 $end
 $var wire 32 q _GEN_49 $end
 $var wire 32 r io_in_bits_x_1 $end
 $var wire 32 s io_in_bits_y_0 $end
  $scope module pe $end
   $var wire 1 " io_in_valid $end
   $var wire 32 . _GEN_2 $end
   $var wire 1 8 io_in_bits_reset $end
   $var wire 32 E accReg $end
   $var wire 1 F clock $end
   $var wire 32 I io_in_bits_y $end
   $var wire 64 O _GEN_1 $end
   $var wire 64 X _T $end
   $var wire 1 ` reset $end
   $var wire 32 g io_in_bits_x $end
   $var wire 32 i io_out_bits $end
   $var wire 64 j _GEN_0 $end
  $upscope $end
$upscope $end
$enddefinitions $end
$dumpvars
b00000000000000000000000000000000 n
b00000000000000000000000000000000 Y
b00000000000000000000000000000000 D
b00000000000000000000000000000000 <
b00000000000000000000000000000000 '
b00000000000000000000000000000000 [
b00000000000000000000000000000000 S
0R
b00000000000000000000000000000000 >
b00000000000000000000000000000000 !
b00000000000000000000000000000000 r
0T
b00000000000000000000000000000000 U
0"
b00000000000000000000000000000000 #
0k
b00000000000000000000000000000000 l
b00000000000000000000000000000000 :
b000 Z
b00000000000000000000000000000000 2
b000 =
b00000000000000000000000000000000 f
0P
b00000000000000000000000000000000 I
b00000000000000000000000000000000 K
b00000000000000000000000000000000 .
b000 9
b000 $
b00000000000000000000000000000000 b
b00000000000000000000000000000000 M
b00000000000000000000000000000000 E
b00000000000000000000000000000000 0
0/
b00000000000000000000000000000000 d
b000 o
b00000000000000000000000000000000 G
0F
0)
b00000000000000000000000000000000 s
b00000000000000000000000000000000 ^
b00000000000000000000000000000000 A
b000 7
b00000000000000000000000000000000 C
b000 c
b00000000000000000000000000000000 ;
b00000000000000000000000000000000 &
b00000000000000000000000000000000 (
b000 H
b000 +
b00000000000000000000000000000000 q
b00000000000000000000000000000000 ?
b0000000000000000000000000000000000000000000000000000000000000000 j
06
b000 -
b00000000000000000000000000000000 V
b00000000000000000000000000000000 N
08
b0000000000000000000000000000000000000000000000000000000000000000 O
b00000000000000000000000000000000 m
b00000000000000000000000000000000 e
b000 p
b00000000000000000000000000000000 3
b00000000000000000000000000000000 g
0Q
b00000000000000000000000000000000 J
b00000000000000000000000000000000 5
b00000000000000000000000000000000 i
0`
b00000000000000000000000000000000 a
b00000000000000000000000000000000 L
b000 W
b00000000000000000000000000000000 1
b000 4
0\
b00000000000000000000000000000000 ]
b000 h
b00000000000000000000000000000000 @
0*
b00000000000000000000000000000000 _
b00000000000000000000000000000000 B
0,
b0000000000000000000000000000000000000000000000000000000000000000 X
b00000000000000000000000000000000 %
$end
#0
1`
1k
1*
b001 H
#1
1Q
1F
#6
0Q
0F
#11
1Q
1F
#16
0Q
0F
#21
1Q
1F
#26
0Q
0F
#31
1Q
1F
#36
0Q
0F
#41
1Q
1F
#46
b00000000000000000000000000001010 f
0Q
b00000000000000000000000000000001 <
b00000000000000000000000000001010 5
b001 h
b00000000000000000000000000000001 S
b00000000000000000000000000001010 K
b001 7
1/
b00000000000000000000000000000101 M
0F
b00000000000000000000000000000101 1
b00000000000000000000000000000001 d
b00000000000000000000000000000001 A
b00000000000000000000000000000101 _
b00000000000000000000000000000011 B
b100 -
0`
b00000000000000000000000000000001 Y
b00000000000000000000000000000010 D
b00000000000000000000000000001010 '
b00000000000000000000000000000001 (
b00000000000000000000000000001010 >
b00000000000000000000000000000011 q
b00000000000000000000000000000011 !
1T
b00000000000000000000000000001010 r
b00000000000000000000000000000101 s
0k
b00000000000000000000000000000101 V
b00000000000000000000000000000010 l
b00000000000000000000000000000101 m
b00000000000000000000000000000010 ;
#51
b00000000000000000000000000001010 3
1Q
b00000000000000000000000000001010 g
b00000000000000000000000000001010 a
b00000000000000000000000000000101 L
b010 7
b0000000000000000000000000000000000000000000000000000000000110010 j
b00000000000000000000000000000001 b
b00000000000000000000000000000101 0
b001 c
b00000000000000000000000000001010 N
1F
b00000000000000000000000000001010 G
b00000000000000000000000000000001 2
b00000000000000000000000000000010 e
0*
b00000000000000000000000000001010 ]
b00000000000000000000000000000101 I
b0000000000000000000000000000000000000000000000000000000000110010 X
b00000000000000000000000000000101 C
b00000000000000000000000000110010 .
b00000000000000000000000000000101 &
b001 o
b010 Z
b00000000000000000000000000000101 [
1)
1"
b00000000000000000000000000000011 U
b00000000000000000000000000001010 @
b00000000000000000000000000000101 #
b001 9
b001 $
b0000000000000000000000000000000000000000000000000000000000110010 O
#56
0T
0Q
0F
#61
1Q
b00000000000000000000000000110010 %
b0000000000000000000000000000000000000000000000000000000000000000 X
b00000000000000000000000000000000 g
b010 h
b001 Z
b00000000000000000000000000110010 E
b00000000000000000000000000110010 i
b001 =
b001 p
b001 7
0)
b010 c
b00000000000000000000000000110010 ?
0"
1F
b00000000000000000000000000000000 #
b00000000000000000000000000000000 G
b010 9
b010 $
b001 W
b00000000000000000000000000110010 ^
b00000000000000000000000000000000 I
b00000000000000000000000000110010 :
#66
0Q
0F
#71
1Q
b001 4
b00000000000000000000000000001010 g
b0000000000000000000000000000000000000000000000000000000000110010 X
b00000000000000000000000001100100 .
b00000000000000000000000000110010 J
b001 h
b010 Z
b010 7
b0000000000000000000000000000000000000000000000000000000001100100 j
1)
b001 c
1"
1F
b00000000000000000000000000000101 #
b00000000000000000000000000001010 G
b001 9
b001 $
b001 +
b0000000000000000000000000000000000000000000000000000000001100100 O
b00000000000000000000000000000101 I
b00000000000000000000000000110010 n
#76
0Q
0F
#81
1Q
b00000000000000000000000001100100 %
b0000000000000000000000000000000000000000000000000000000000000000 X
b00000000000000000000000000000000 g
b010 h
b001 Z
b00000000000000000000000001100100 E
b00000000000000000000000001100100 i
b010 =
b010 p
b001 7
0)
b010 c
b00000000000000000000000001100100 ?
0"
1F
b00000000000000000000000000000000 #
b00000000000000000000000000000000 G
b010 9
b010 $
b010 W
b00000000000000000000000001100100 ^
b00000000000000000000000000000000 I
b00000000000000000000000001100100 :
#86
0Q
0F
#91
b00000000000000000000000000000001 3
1Q
b010 4
b00000000000000000000000000000001 g
b0000000000000000000000000000000000000000000000000000000000000001 X
b00000000000000000000000001100101 .
b00000000000000000000000001100100 J
b00000000000000000000000000000001 &
b001 h
b010 Z
b010 7
b00000000000000000000000000000001 [
b0000000000000000000000000000000000000000000000000000000001100101 j
1)
b001 c
1"
1F
b00000000000000000000000000000001 @
b00000000000000000000000000000001 #
b00000000000000000000000000000001 G
b001 9
b001 $
b010 +
b0000000000000000000000000000000000000000000000000000000001100101 O
b00000000000000000000000000000001 I
b00000000000000000000000001100100 n
#96
0Q
0F
#101
1Q
b00000000000000000000000001100101 %
b0000000000000000000000000000000000000000000000000000000000000000 X
b00000000000000000000000000000000 g
b010 h
b001 Z
b00000000000000000000000001100101 E
b00000000000000000000000001100101 i
b011 =
b011 p
b001 7
0)
b010 c
b00000000000000000000000001100101 ?
0"
1F
b00000000000000000000000000000000 #
b00000000000000000000000000000000 G
b010 9
b010 $
b011 W
b00000000000000000000000001100101 ^
b00000000000000000000000000000000 I
b00000000000000000000000001100101 :
#106
0Q
0F
#111
b00000000000000000000000000000010 3
1Q
b011 4
b00000000000000000000000000000010 g
b0000000000000000000000000000000000000000000000000000000000000110 X
b00000000000000000000000001101011 .
b00000000000000000000000001100101 J
b00000000000000000000000000000101 &
b001 h
b010 Z
b010 7
b00000000000000000000000000000011 [
b0000000000000000000000000000000000000000000000000000000001101011 j
1)
b001 c
1"
1F
b00000000000000000000000000001010 @
b00000000000000000000000000000011 #
b00000000000000000000000000000010 G
b001 9
b011 H
b001 $
b011 +
b0000000000000000000000000000000000000000000000000000000001101011 O
b00000000000000000000000000000011 I
b00000000000000000000000001100101 n
#116
0Q
0F
#121
1Q
b00000000000000000000000001101011 %
b0000000000000000000000000000000000000000000000000000000000000000 X
b00000000000000000000000000000000 g
b010 h
b011 o
b011 Z
b00000000000000000000000001101011 E
b00000000000000000000000001101011 i
b100 =
b100 p
b011 7
0)
b010 c
b00000000000000000000000001101011 ?
0"
1F
b00000000000000000000000000000000 #
b00000000000000000000000000000000 G
b010 9
b010 $
b100 W
b00000000000000000000000001101011 ^
b00000000000000000000000000000000 I
b00000000000000000000000001101011 :
#126
0Q
0F
#131
b00000000000000000000000000001010 3
1Q
b100 4
b00000000000000000000000001101011 J
b011 h
b100 o
b100 Z
b100 7
b00000000000000000000000000000101 [
1\
b011 c
1F
b100 9
b001 H
b011 $
b100 +
b00000000000000000000000001101011 n
#136
0Q
0F
#141
1Q
1R
b00000000000000000000000000000000 .
b100 h
b000 o
b000 Z
b000 7
b0000000000000000000000000000000000000000000000000000000000000000 j
0\
b000 c
1"
1F
18
b000 9
b100 $
b0000000000000000000000000000000000000000000000000000000000000000 O
1,
1P
#146
0Q
0F
#151
1Q
b00000000000000000000000000000000 %
0"
1F
0R
08
b000 h
1*
b000 $
b00000000000000000000000000000000 E
b00000000000000000000000000000000 i
0,
0P
#156
0Q
0F
#161
1Q
1F
#166
0Q
0F
#171
1Q
1F
#176
0Q
0F
#181
1Q
1F
#186
0Q
0F
#191
1Q
1F
#196
0Q
0F
#201
1Q
1F
#206
0Q
0F
#211
1Q
1F
#216
0Q
0F
#221
1Q
1F
#226
0Q
0F
#231
1Q
1F
#236
0Q
0F
#241
1Q
1F
#246
0Q
0F
#251
1Q
1F
#256
0Q
0F
#261
1Q
1F
#266
0Q
0F
#271
1Q
1F
#276
0Q
0F
#281
1Q
1F
#286
0Q
0F
#291
1Q
1F
#296
0Q
0F
#301
1Q
1F
#306
0Q
0F
#311
1Q
1F
#316
0Q
0F
#321
1Q
1F
#326
0Q
0F
#331
1Q
1F
#336
0Q
0F
#341
1Q
1F
#346
0Q
0F
#351
1Q
1F
#356
b00000000000000000000000000000101 B
0Q
b00000000000000000000000000000101 <
b000 4
b00000000000000000000000000001010 Y
b00000000000000000000000000001010 D
b00000000000000000000000000001010 S
b001 h
b00000000000000000000000000001010 (
b001 7
b00000000000000000000000000000101 q
b11111111111111111111111111111111 M
b00000000000000000000000000000101 !
1T
0F
b11111111111111111111111111111111 1
b00000000000000000000000000000101 d
b11111111111111111111111111111111 s
b11111111111111111111111111111111 V
b00000000000000000000000000001010 l
b000 W
b11111111111111111111111111111111 m
b00000000000000000000000000000101 A
b11111111111111111111111111111111 _
b00000000000000000000000000001010 ;
#361
1Q
b00000000000000000000000000001010 g
b11111111111111111111111111111111 L
b010 7
b1111111111111111111111111111111111111111111111111111111111110110 j
b00000000000000000000000000000101 b
b11111111111111111111111111111111 0
b001 c
1F
b00000000000000000000000000001010 G
b00000000000000000000000000001010 2
b00000000000000000000000000001010 e
0*
b000 +
b11111111111111111111111111111111 I
b1111111111111111111111111111111111111111111111111111111111110110 X
b11111111111111111111111111111111 C
b11111111111111111111111111110110 .
b11111111111111111111111111111111 &
b001 o
b010 Z
b000 =
b000 p
b11111111111111111111111111111111 [
1)
1"
b00000000000000000000000000000101 U
b11111111111111111111111111111111 #
b001 9
b001 $
b1111111111111111111111111111111111111111111111111111111111110110 O
#366
0T
0Q
0F
#371
1Q
b11111111111111111111111111110110 %
b0000000000000000000000000000000000000000000000000000000000000000 X
b00000000000000000000000000000000 g
b010 h
b001 Z
b11111111111111111111111111110110 E
b11111111111111111111111111110110 i
b001 =
b001 p
b001 7
0)
b010 c
b11111111111111111111111111110110 ?
0"
1F
b00000000000000000000000000000000 #
b00000000000000000000000000000000 G
b010 9
b010 $
b001 W
b11111111111111111111111111110110 ^
b00000000000000000000000000000000 I
b11111111111111111111111111110110 :
#376
0Q
0F
#381
1Q
b001 4
b00000000000000000000000000001010 g
b1111111111111111111111111111111111111111111111111111111111110110 X
b11111111111111111111111111101100 .
b11111111111111111111111111110110 J
b001 h
b010 Z
b010 7
b1111111111111111111111111111111111111111111111111111111111101100 j
1)
b001 c
1"
1F
b11111111111111111111111111111111 #
b00000000000000000000000000001010 G
b001 9
b001 $
b001 +
b1111111111111111111111111111111111111111111111111111111111101100 O
b11111111111111111111111111111111 I
b11111111111111111111111111110110 n
#386
0Q
0F
#391
1Q
b11111111111111111111111111101100 %
b0000000000000000000000000000000000000000000000000000000000000000 X
b00000000000000000000000000000000 g
b010 h
b001 Z
b11111111111111111111111111101100 E
b11111111111111111111111111101100 i
b010 =
b010 p
b001 7
0)
b010 c
b11111111111111111111111111101100 ?
0"
1F
b00000000000000000000000000000000 #
b00000000000000000000000000000000 G
b010 9
b010 $
b010 W
b11111111111111111111111111101100 ^
b00000000000000000000000000000000 I
b11111111111111111111111111101100 :
#396
0Q
0F
#401
1Q
b010 4
b00000000000000000000000000001010 g
b0000000000000000000000000000000000000000000000000000000000110010 X
b00000000000000000000000000011110 .
b11111111111111111111111111101100 J
b00000000000000000000000000000101 &
b001 h
b010 Z
b010 7
b00000000000000000000000000000101 [
b0000000000000000000000000000000000000000000000000000000000011110 j
1)
b001 c
1"
1F
b00000000000000000000000000000101 #
b00000000000000000000000000001010 G
b001 9
b001 $
b010 +
b0000000000000000000000000000000000000000000000000000000000011110 O
b00000000000000000000000000000101 I
b11111111111111111111111111101100 n
#406
0Q
0F
#411
1Q
b00000000000000000000000000011110 %
b0000000000000000000000000000000000000000000000000000000000000000 X
b00000000000000000000000000000000 g
b010 h
b001 Z
b00000000000000000000000000011110 E
b00000000000000000000000000011110 i
b011 =
b011 p
b001 7
0)
b010 c
b00000000000000000000000000011110 ?
0"
1F
b00000000000000000000000000000000 #
b00000000000000000000000000000000 G
b010 9
b010 $
b011 W
b00000000000000000000000000011110 ^
b00000000000000000000000000000000 I
b00000000000000000000000000011110 :
#416
0Q
0F
#421
1Q
b011 4
b00000000000000000000000000001010 g
b0000000000000000000000000000000000000000000000000000000000110010 X
b00000000000000000000000001010000 .
b00000000000000000000000000011110 J
b11111111111111111111111111111111 &
b001 h
b010 Z
b010 7
b0000000000000000000000000000000000000000000000000000000001010000 j
1)
b001 c
1"
1F
b00000000000000000000000000000101 #
b00000000000000000000000000001010 G
b001 9
b011 H
b001 $
b011 +
b0000000000000000000000000000000000000000000000000000000001010000 O
b00000000000000000000000000000101 I
b00000000000000000000000000011110 n
#426
0Q
0F
#431
1Q
b00000000000000000000000001010000 %
b0000000000000000000000000000000000000000000000000000000000000000 X
b00000000000000000000000000000000 g
b010 h
b011 o
b011 Z
b00000000000000000000000001010000 E
b00000000000000000000000001010000 i
b100 =
b100 p
b011 7
0)
b010 c
b00000000000000000000000001010000 ?
0"
1F
b00000000000000000000000000000000 #
b00000000000000000000000000000000 G
b010 9
b010 $
b100 W
b00000000000000000000000001010000 ^
b00000000000000000000000000000000 I
b00000000000000000000000001010000 :
#436
0Q
0F
#441
1Q
b100 4
b00000000000000000000000001010000 J
b011 h
b100 o
b100 Z
b100 7
b11111111111111111111111111111111 [
1\
b011 c
1F
b100 9
b001 H
b011 $
b100 +
b00000000000000000000000001010000 n
#446
0Q
0F
#451
1Q
1R
b00000000000000000000000000000000 .
b100 h
b000 o
b000 Z
b000 7
b0000000000000000000000000000000000000000000000000000000000000000 j
0\
b000 c
1"
1F
18
b000 9
b100 $
b0000000000000000000000000000000000000000000000000000000000000000 O
1,
1P
#456
0Q
0F
#461
1Q
b00000000000000000000000000000000 %
0"
1F
0R
08
b000 h
1*
b000 $
b00000000000000000000000000000000 E
b00000000000000000000000000000000 i
0,
0P
