tested/FastDotProductDecoupled/dotProduct.TestDotProductDecoupled1092090094/FastDotProductDecoupled.vcd
$date
2021-07-08T13:49+0000
$end
$version
0.2
$end
$comment

$end
$timescale 1ns  $end
$scope module DotProductDecoupled $end
 $var wire 32 ! io_in_bits_y_3 $end
 $var wire 3 # _GEN_37 $end
 $var wire 3 $ stateReg $end
 $var wire 32 % _GEN_16 $end
 $var wire 32 & _GEN_43 $end
 $var wire 32 ' _GEN_2 $end
 $var wire 1 ( _T $end
 $var wire 1 ) io_in_ready $end
 $var wire 3 * cntReg $end
 $var wire 3 + _GEN_31 $end
 $var wire 1 - io_out_ready $end
 $var wire 32 . yRegs_1 $end
 $var wire 32 / _GEN_5 $end
 $var wire 32 0 xRegs_2 $end
 $var wire 32 1 _GEN_13 $end
 $var wire 3 2 _GEN_8 $end
 $var wire 32 3 _GEN_42 $end
 $var wire 1 4 pe $end
 $var wire 3 6 _GEN_24 $end
 $var wire 1 7 _GEN_30 $end
 $var wire 32 8 _GEN_39 $end
 $var wire 32 9 _GEN_45 $end
 $var wire 3 : _GEN_48 $end
 $var wire 1 ; _GEN_33 $end
 $var wire 32 < io_in_bits_x_0 $end
 $var wire 32 = _GEN_12 $end
 $var wire 32 > io_in_bits_y_2 $end
 $var wire 32 ? _GEN_7 $end
 $var wire 32 @ _GEN_15 $end
 $var wire 32 A io_in_bits_x_3 $end
 $var wire 3 D _GEN_36 $end
 $var wire 3 E _GEN_21 $end
 $var wire 32 G io_out_bits $end
 $var wire 32 H _GEN_1 $end
 $var wire 32 I yRegs_0 $end
 $var wire 32 J _GEN_4 $end
 $var wire 32 K xRegs_1 $end
 $var wire 32 M _GEN_41 $end
 $var wire 1 N clock $end
 $var wire 32 O _GEN_35 $end
 $var wire 32 P io_in_bits_x_2 $end
 $var wire 1 Q io_in_valid $end
 $var wire 32 R yRegs_3 $end
 $var wire 32 S io_in_bits_y_1 $end
 $var wire 32 U _GEN_44 $end
 $var wire 1 V _GEN_38 $end
 $var wire 32 W _GEN_17 $end
 $var wire 1 X io_out_valid $end
 $var wire 32 Y xRegs_0 $end
 $var wire 3 Z _GEN_32 $end
 $var wire 3 [ _GEN_47 $end
 $var wire 32 ] _GEN_11 $end
 $var wire 32 ^ yRegs_2 $end
 $var wire 3 _ _GEN_29 $end
 $var wire 32 ` _GEN_6 $end
 $var wire 32 a xRegs_3 $end
 $var wire 32 b _GEN_0 $end
 $var wire 3 d _GEN_9 $end
 $var wire 1 g reset $end
 $var wire 32 h _GEN_3 $end
 $var wire 32 i _GEN_46 $end
 $var wire 32 j _GEN_34 $end
 $var wire 3 k _GEN_28 $end
 $var wire 32 l _GEN_40 $end
 $var wire 32 m io_in_bits_x_1 $end
 $var wire 32 n io_in_bits_y_0 $end
  $scope module pe $end
   $var wire 1 " io_in_valid $end
   $var wire 32 , _GEN_2 $end
   $var wire 1 5 io_in_bits_reset $end
   $var wire 32 B accReg $end
   $var wire 1 C clock $end
   $var wire 32 F io_in_bits_y $end
   $var wire 64 L _GEN_1 $end
   $var wire 64 T _T $end
   $var wire 1 \ reset $end
   $var wire 32 c io_in_bits_x $end
   $var wire 32 e io_out_bits $end
   $var wire 64 f _GEN_0 $end
  $upscope $end
$upscope $end
$enddefinitions $end
$dumpvars
b00000000000000000000000000000000 n
0X
0C
b000 d
b00000000000000000000000000000000 Y
b00000000000000000000000000000000 <
0;
b00000000000000000000000000000000 '
b000 2
b000 *
b00000000000000000000000000000000 S
b00000000000000000000000000000000 >
b00000000000000000000000000000000 !
b0000000000000000000000000000000000000000000000000000000000000000 L
b00000000000000000000000000000000 j
b00000000000000000000000000000000 U
07
0"
b00000000000000000000000000000000 8
b00000000000000000000000000000000 l
0V
0N
b00000000000000000000000000000000 O
b000 Z
b000 E
b00000000000000000000000000000000 I
b00000000000000000000000000000000 h
0g
b00000000000000000000000000000000 `
b00000000000000000000000000000000 K
b000 k
05
b00000000000000000000000000000000 .
0-
b000 $
b00000000000000000000000000000000 b
b00000000000000000000000000000000 M
b00000000000000000000000000000000 0
b00000000000000000000000000000000 G
0)
b00000000000000000000000000000000 ^
b00000000000000000000000000000000 A
b00000000000000000000000000000000 ,
b00000000000000000000000000000000 &
b00000000000000000000000000000000 =
b000 +
b00000000000000000000000000000000 ?
b000 _
b00000000000000000000000000000000 9
b000 D
b00000000000000000000000000000000 m
b00000000000000000000000000000000 e
b00000000000000000000000000000000 P
b000 [
b0000000000000000000000000000000000000000000000000000000000000000 f
b00000000000000000000000000000000 3
0Q
b00000000000000000000000000000000 R
b00000000000000000000000000000000 J
04
b000 #
b00000000000000000000000000000000 i
b00000000000000000000000000000000 a
b00000000000000000000000000000000 /
b000 :
b00000000000000000000000000000000 c
b00000000000000000000000000000000 F
b00000000000000000000000000000000 1
0(
b0000000000000000000000000000000000000000000000000000000000000000 T
0\
b00000000000000000000000000000000 ]
b00000000000000000000000000000000 H
b00000000000000000000000000000000 @
b000 6
b00000000000000000000000000000000 W
b00000000000000000000000000000000 B
b00000000000000000000000000000000 %
$end
#0
1g
b001 E
1)
1\
#1
1N
1C
#6
0N
0C
#11
1N
1C
#16
0N
0C
#21
1N
1C
#26
0N
0C
#31
1N
1C
#36
0N
0C
#41
1N
1C
#46
b00000000000000000000000000000010 3
1Q
b00000000000000000000000000001010 <
0g
b00000000000000000000000000000101 J
b00000000000000000000000000000010 h
b00000000000000000000000000000101 S
b100 6
b00000000000000000000000000000011 i
b00000000000000000000000000000101 /
b00000000000000000000000000001010 b
b00000000000000000000000000000001 M
0N
b001 d
b00000000000000000000000000001010 H
b00000000000000000000000000000010 A
1-
b00000000000000000000000000000001 `
0C
b00000000000000000000000000000101 &
b00000000000000000000000000000001 '
b00000000000000000000000000000001 >
0\
b00000000000000000000000000000011 !
b00000000000000000000000000000011 ?
b00000000000000000000000000000101 U
b00000000000000000000000000001010 8
b00000000000000000000000000000001 9
b00000000000000000000000000001010 l
b001 :
b00000000000000000000000000001010 m
b00000000000000000000000000000001 P
b00000000000000000000000000000101 n
#51
b0000000000000000000000000000000000000000000000000000000000110010 f
b00000000000000000000000000000011 R
b00000000000000000000000000001010 K
b00000000000000000000000000000010 a
b0000000000000000000000000000000000000000000000000000000000110010 L
b00000000000000000000000000001010 j
b00000000000000000000000000000001 0
b00000000000000000000000000001010 c
1N
b00000000000000000000000000000101 F
b00000000000000000000000000001010 1
b00000000000000000000000000001010 ]
b00000000000000000000000000000001 ^
b00000000000000000000000000000101 I
b00000000000000000000000000110010 ,
b001 _
b00000000000000000000000000000101 %
1C
b00000000000000000000000000000101 .
b00000000000000000000000000001010 Y
b010 D
b001 Z
b00000000000000000000000000001010 =
1(
0)
b0000000000000000000000000000000000000000000000000000000000110010 T
1"
b00000000000000000000000000000101 @
b001 k
b001 $
b00000000000000000000000000000101 W
b00000000000000000000000000000101 O
b010 :
#56
0Q
0N
0C
#61
b00000000000000000000000000110010 B
1C
b001 D
0(
b001 [
b00000000000000000000000000000000 j
b0000000000000000000000000000000000000000000000000000000000000000 T
b00000000000000000000000000000000 c
1N
0"
b00000000000000000000000000000000 F
b010 d
b010 k
b001 #
b00000000000000000000000000110010 e
b00000000000000000000000000110010 G
b010 $
b001 +
b001 :
b00000000000000000000000000000000 O
b010 _
#66
0N
0C
#71
b0000000000000000000000000000000000000000000000000000000001100100 f
1C
b010 D
1(
b0000000000000000000000000000000000000000000000000000000001100100 L
b00000000000000000000000000001010 j
b0000000000000000000000000000000000000000000000000000000000110010 T
b00000000000000000000000000001010 c
1N
1"
b00000000000000000000000000000101 F
b001 d
b001 k
b001 2
b001 *
b001 $
b00000000000000000000000000000101 O
b010 :
b00000000000000000000000001100100 ,
b001 _
#76
0N
0C
#81
b00000000000000000000000001100100 B
1C
b001 D
0(
b010 [
b00000000000000000000000000000000 j
b0000000000000000000000000000000000000000000000000000000000000000 T
b00000000000000000000000000000000 c
1N
0"
b00000000000000000000000000000000 F
b010 d
b010 k
b010 #
b00000000000000000000000001100100 e
b00000000000000000000000001100100 G
b010 $
b010 +
b001 :
b00000000000000000000000000000000 O
b010 _
#86
0N
0C
#91
b0000000000000000000000000000000000000000000000000000000001100101 f
b00000000000000000000000000000001 %
1C
b010 D
b00000000000000000000000000000001 =
1(
b0000000000000000000000000000000000000000000000000000000001100101 L
b00000000000000000000000000000001 j
b0000000000000000000000000000000000000000000000000000000000000001 T
b00000000000000000000000000000001 c
1N
1"
b00000000000000000000000000000001 1
b001 d
b00000000000000000000000000000001 F
b001 k
b010 2
b010 *
b001 $
b00000000000000000000000000000001 W
b00000000000000000000000000000001 O
b010 :
b00000000000000000000000001100101 ,
b001 _
#96
0N
0C
#101
b00000000000000000000000001100101 B
1C
b001 D
0(
b011 [
b00000000000000000000000000000000 j
b0000000000000000000000000000000000000000000000000000000000000000 T
b00000000000000000000000000000000 c
1N
0"
b00000000000000000000000000000000 F
b010 d
b010 k
b011 #
b00000000000000000000000001100101 e
b00000000000000000000000001100101 G
b010 $
b011 +
b001 :
b00000000000000000000000000000000 O
b010 _
#106
0N
0C
#111
b0000000000000000000000000000000000000000000000000000000001101011 f
b00000000000000000000000000000101 %
1C
b010 D
b011 E
b00000000000000000000000000001010 =
1(
b0000000000000000000000000000000000000000000000000000000001101011 L
b00000000000000000000000000000010 j
b0000000000000000000000000000000000000000000000000000000000000110 T
b00000000000000000000000000000010 c
1N
1"
b00000000000000000000000000000010 1
b001 d
b00000000000000000000000000000011 F
b001 k
b011 2
b011 *
b001 $
b00000000000000000000000000000011 W
b00000000000000000000000000000011 O
b010 :
b00000000000000000000000001101011 ,
b001 _
#116
0N
0C
#121
b00000000000000000000000001101011 B
1C
b011 D
b011 Z
0(
b100 [
b00000000000000000000000000000000 j
b0000000000000000000000000000000000000000000000000000000000000000 T
b00000000000000000000000000000000 c
1N
0"
b00000000000000000000000000000000 F
b010 d
b010 k
b100 #
b00000000000000000000000001101011 e
b00000000000000000000000001101011 G
b010 $
b100 +
b011 :
b00000000000000000000000000000000 O
b010 _
#126
0N
0C
#131
1X
1C
b100 D
b100 Z
b001 E
1N
b00000000000000000000000000001010 1
b011 d
b011 k
b100 2
b100 *
b011 $
b00000000000000000000000000000101 W
b100 :
b100 _
#136
0N
0C
#141
b0000000000000000000000000000000000000000000000000000000000000000 f
0X
1C
15
b000 D
b000 Z
b0000000000000000000000000000000000000000000000000000000000000000 L
17
1N
1"
b100 d
b000 k
1V
b100 $
b000 :
b00000000000000000000000000000000 ,
b000 _
1;
#146
0N
0C
#151
b00000000000000000000000000000000 B
1N
0"
1C
b000 d
05
0V
b00000000000000000000000000000000 e
b00000000000000000000000000000000 G
b000 $
07
1)
0;
#156
b00000000000000000000000000001010 3
1Q
b00000000000000000000000000000101 `
0C
b11111111111111111111111111111111 J
b11111111111111111111111111111111 &
b00000000000000000000000000001010 h
b11111111111111111111111111111111 S
b00000000000000000000000000001010 '
b00000000000000000000000000000101 i
b000 [
b11111111111111111111111111111111 /
b00000000000000000000000000000101 >
b00000000000000000000000000001010 M
b00000000000000000000000000000101 !
b00000000000000000000000000000101 ?
0N
b11111111111111111111111111111111 U
b001 d
b000 2
b00000000000000000000000000000101 9
b001 :
b00000000000000000000000000001010 A
b00000000000000000000000000001010 P
b11111111111111111111111111111111 n
#161
b1111111111111111111111111111111111111111111111111111111111110110 f
b00000000000000000000000000000101 R
b00000000000000000000000000001010 a
b1111111111111111111111111111111111111111111111111111111111110110 L
b00000000000000000000000000001010 j
b00000000000000000000000000001010 0
b00000000000000000000000000001010 c
1N
b11111111111111111111111111111111 F
b000 *
b000 +
b00000000000000000000000000000101 ^
b11111111111111111111111111111111 I
b11111111111111111111111111110110 ,
b001 _
b11111111111111111111111111111111 %
1C
b11111111111111111111111111111111 .
b010 D
b001 Z
1(
0)
b1111111111111111111111111111111111111111111111111111111111110110 T
1"
b11111111111111111111111111111111 @
b001 k
b000 #
b001 $
b11111111111111111111111111111111 W
b11111111111111111111111111111111 O
b010 :
#166
0Q
0N
0C
#171
b11111111111111111111111111110110 B
1C
b001 D
0(
b001 [
b00000000000000000000000000000000 j
b0000000000000000000000000000000000000000000000000000000000000000 T
b00000000000000000000000000000000 c
1N
0"
b00000000000000000000000000000000 F
b010 d
b010 k
b001 #
b11111111111111111111111111110110 e
b11111111111111111111111111110110 G
b010 $
b001 +
b001 :
b00000000000000000000000000000000 O
b010 _
#176
0N
0C
#181
b1111111111111111111111111111111111111111111111111111111111101100 f
1C
b010 D
1(
b1111111111111111111111111111111111111111111111111111111111101100 L
b00000000000000000000000000001010 j
b1111111111111111111111111111111111111111111111111111111111110110 T
b00000000000000000000000000001010 c
1N
1"
b11111111111111111111111111111111 F
b001 d
b001 k
b001 2
b001 *
b001 $
b11111111111111111111111111111111 O
b010 :
b11111111111111111111111111101100 ,
b001 _
#186
0N
0C
#191
b11111111111111111111111111101100 B
1C
b001 D
0(
b010 [
b00000000000000000000000000000000 j
b0000000000000000000000000000000000000000000000000000000000000000 T
b00000000000000000000000000000000 c
1N
0"
b00000000000000000000000000000000 F
b010 d
b010 k
b010 #
b11111111111111111111111111101100 e
b11111111111111111111111111101100 G
b010 $
b010 +
b001 :
b00000000000000000000000000000000 O
b010 _
#196
0N
0C
#201
b0000000000000000000000000000000000000000000000000000000000011110 f
b00000000000000000000000000000101 %
1C
b010 D
1(
b0000000000000000000000000000000000000000000000000000000000011110 L
b00000000000000000000000000001010 j
b0000000000000000000000000000000000000000000000000000000000110010 T
b00000000000000000000000000001010 c
1N
1"
b00000000000000000000000000000101 F
b001 d
b001 k
b010 2
b010 *
b001 $
b00000000000000000000000000000101 W
b00000000000000000000000000000101 O
b010 :
b00000000000000000000000000011110 ,
b001 _
#206
0N
0C
#211
b00000000000000000000000000011110 B
1C
b001 D
0(
b011 [
b00000000000000000000000000000000 j
b0000000000000000000000000000000000000000000000000000000000000000 T
b00000000000000000000000000000000 c
1N
0"
b00000000000000000000000000000000 F
b010 d
b010 k
b011 #
b00000000000000000000000000011110 e
b00000000000000000000000000011110 G
b010 $
b011 +
b001 :
b00000000000000000000000000000000 O
b010 _
#216
0N
0C
#221
b0000000000000000000000000000000000000000000000000000000001010000 f
b11111111111111111111111111111111 %
1C
b010 D
b011 E
1(
b0000000000000000000000000000000000000000000000000000000001010000 L
b00000000000000000000000000001010 j
b0000000000000000000000000000000000000000000000000000000000110010 T
b00000000000000000000000000001010 c
1N
1"
b00000000000000000000000000000101 F
b001 d
b001 k
b011 2
b011 *
b001 $
b00000000000000000000000000000101 O
b010 :
b00000000000000000000000001010000 ,
b001 _
#226
0N
0C
#231
b00000000000000000000000001010000 B
1C
b011 D
b011 Z
0(
b100 [
b00000000000000000000000000000000 j
b0000000000000000000000000000000000000000000000000000000000000000 T
b00000000000000000000000000000000 c
1N
0"
b00000000000000000000000000000000 F
b010 d
b010 k
b100 #
b00000000000000000000000001010000 e
b00000000000000000000000001010000 G
b010 $
b100 +
b011 :
b00000000000000000000000000000000 O
b010 _
#236
0N
0C
#241
1X
1C
b100 D
b100 Z
b001 E
1N
b011 d
b011 k
b100 2
b100 *
b011 $
b11111111111111111111111111111111 W
b100 :
b100 _
#246
0N
0C
#251
b0000000000000000000000000000000000000000000000000000000000000000 f
0X
1C
15
b000 D
b000 Z
b0000000000000000000000000000000000000000000000000000000000000000 L
17
1N
1"
b100 d
b000 k
1V
b100 $
b000 :
b00000000000000000000000000000000 ,
b000 _
1;
#256
0N
0C
#261
b00000000000000000000000000000000 B
1N
0"
1C
b000 d
05
0V
b00000000000000000000000000000000 e
b00000000000000000000000000000000 G
b000 $
07
1)
0;
