tested/WatermanFSM/waterman.TestWatermanFSM606682069/WatermanFSM.vcd
$date
2021-07-26T10:34+0000
$end
$version
0.2
$end
$comment

$end
$timescale 1ns  $end
$scope module WatermanFSM $end
 $var wire 32 ! _GEN_118 $end
 $var wire 2 " TReg_0 $end
 $var wire 32 # _GEN_186 $end
 $var wire 32 $ _GEN_103 $end
 $var wire 1 % _GEN_37 $end
 $var wire 4 & _GEN_202 $end
 $var wire 32 ' _GEN_192 $end
 $var wire 2 ( _GEN_171 $end
 $var wire 2 ) stateReg $end
 $var wire 32 + _GEN_22 $end
 $var wire 32 , resultingColumnsReg_5 $end
 $var wire 32 - _GEN_16 $end
 $var wire 32 . _GEN_43 $end
 $var wire 32 / _GEN_124 $end
 $var wire 32 0 _GEN_93 $end
 $var wire 2 1 _GEN_87 $end
 $var wire 32 2 columnsReg_7 $end
 $var wire 4 3 _GEN_106 $end
 $var wire 2 4 SReg_2 $end
 $var wire 2 5 _GEN_2 $end
 $var wire 2 6 _GEN_10 $end
 $var wire 32 7 _GEN_195 $end
 $var wire 32 9 _GEN_153 $end
 $var wire 32 : _GEN_180 $end
 $var wire 32 ; _GEN_189 $end
 $var wire 1 < io_in_ready $end
 $var wire 2 = _GEN_174 $end
 $var wire 2 > _GEN_168 $end
 $var wire 32 ? _GEN_31 $end
 $var wire 32 A _GEN_25 $end
 $var wire 32 B _GEN_19 $end
 $var wire 1 C io_out_ready $end
 $var wire 32 D rowsReg_2 $end
 $var wire 32 E resultingColumnsReg_2 $end
 $var wire 2 F _GEN_69 $end
 $var wire 3 G io_out_bits_x $end
 $var wire 32 H _GEN_96 $end
 $var wire 2 I SReg_5 $end
 $var wire 2 K _GEN_5 $end
 $var wire 2 L io_in_bits_S_2 $end
 $var wire 32 M _GEN_162 $end
 $var wire 32 N _GEN_156 $end
 $var wire 2 O _GEN_60 $end
 $var wire 32 P _GEN_75 $end
 $var wire 32 Q _GEN_183 $end
 $var wire 2 R _GEN_177 $end
 $var wire 32 S _GEN_81 $end
 $var wire 32 T columnsReg_1 $end
 $var wire 32 U _GEN_135 $end
 $var wire 2 V io_in_bits_T_1 $end
 $var wire 32 W _GEN_13 $end
 $var wire 32 X _GEN_117 $end
 $var wire 4 Y _GEN_90 $end
 $var wire 32 Z columnsReg_4 $end
 $var wire 2 [ _GEN_144 $end
 $var wire 32 \ _GEN_57 $end
 $var wire 32 ] rowsReg_5 $end
 $var wire 2 ^ io_in_bits_T_4 $end
 $var wire 32 _ _GEN_123 $end
 $var wire 2 ` _GEN_8 $end
 $var wire 32 a _GEN_150 $end
 $var wire 32 b _GEN_84 $end
 $var wire 1 c _GEN_138 $end
 $var wire 32 d _GEN_42 $end
 $var wire 32 e _GEN_165 $end
 $var wire 32 f _GEN_99 $end
 $var wire 32 g _GEN_78 $end
 $var wire 4 h _GEN_159 $end
 $var wire 1 i pe $end
 $var wire 2 j io_in_bits_S_5 $end
 $var wire 2 k _GEN_63 $end
 $var wire 32 l _GEN_51 $end
 $var wire 4 m _GEN_105 $end
 $var wire 32 n _GEN_72 $end
 $var wire 2 o _GEN_66 $end
 $var wire 32 p _GEN_30 $end
 $var wire 32 q _GEN_24 $end
 $var wire 32 r _GEN_39 $end
 $var wire 32 s _GEN_147 $end
 $var wire 32 t _GEN_111 $end
 $var wire 1 u _GEN_45 $end
 $var wire 1 v _GEN_210 $end
 $var wire 32 w _GEN_132 $end
 $var wire 32 x _GEN_126 $end
 $var wire 2 y TReg_2 $end
 $var wire 2 { _GEN_114 $end
 $var wire 2 } TReg_5 $end
 $var wire 32 ~ _GEN_182 $end
 $var wire 32 "! _GEN_27 $end
 $var wire 32 "" _GEN_197 $end
 $var wire 4 "$ cntRowReg $end
 $var wire 32 "% _GEN_48 $end
 $var wire 32 "& _GEN_120 $end
 $var wire 4 "' _GEN_129 $end
 $var wire 32 "( resultingColumnsReg_1 $end
 $var wire 32 ") _GEN_33 $end
 $var wire 1 "* _GEN_228 $end
 $var wire 32 ", _GEN_54 $end
 $var wire 1 "- _GEN_213 $end
 $var wire 32 ". _GEN_108 $end
 $var wire 2 "/ _GEN_12 $end
 $var wire 32 "0 _GEN_185 $end
 $var wire 32 "1 columnsReg_3 $end
 $var wire 32 "2 _GEN_102 $end
 $var wire 32 "3 _GEN_98 $end
 $var wire 2 "4 _GEN_7 $end
 $var wire 32 "5 _GEN_15 $end
 $var wire 4 "6 _GEN_201 $end
 $var wire 2 "7 _GEN_170 $end
 $var wire 32 "9 _GEN_164 $end
 $var wire 32 ": _GEN_191 $end
 $var wire 32 "; resultingColumnsReg_4 $end
 $var wire 2 "< _GEN_179 $end
 $var wire 2 "= _GEN_36 $end
 $var wire 32 "> _GEN_21 $end
 $var wire 32 "@ _GEN_92 $end
 $var wire 4 "A _GEN_86 $end
 $var wire 2 "B SReg_1 $end
 $var wire 2 "C _GEN_167 $end
 $var wire 1 "D _GEN_71 $end
 $var wire 32 "E _GEN_194 $end
 $var wire 32 "F _GEN_152 $end
 $var wire 32 "G _GEN_188 $end
 $var wire 32 "H columnsReg_6 $end
 $var wire 32 "I _GEN_146 $end
 $var wire 2 "J _GEN_1 $end
 $var wire 2 "L _GEN_173 $end
 $var wire 32 "M _GEN_18 $end
 $var wire 1 "N _GEN_227 $end
 $var wire 1 "P _GEN_140 $end
 $var wire 32 "Q _GEN_155 $end
 $var wire 32 "R _GEN_149 $end
 $var wire 2 "S io_in_bits_S_1 $end
 $var wire 32 "T columnsReg_0 $end
 $var wire 2 "U SReg_4 $end
 $var wire 32 "V rowsReg_1 $end
 $var wire 2 "W _GEN_128 $end
 $var wire 32 "X _GEN_74 $end
 $var wire 32 "Y _GEN_95 $end
 $var wire 4 "Z _GEN_89 $end
 $var wire 2 "[ io_in_bits_T_0 $end
 $var wire 2 "\ _GEN_4 $end
 $var wire 32 "] _GEN_53 $end
 $var wire 32 "^ _GEN_161 $end
 $var wire 2 "_ _GEN_176 $end
 $var wire 32 "` _GEN_80 $end
 $var wire 32 "a _GEN_134 $end
 $var wire 2 "b _GEN_68 $end
 $var wire 1 "c _GEN_221 $end
 $var wire 32 "d _GEN_56 $end
 $var wire 32 "e _GEN_101 $end
 $var wire 32 "f _GEN_83 $end
 $var wire 32 "g _GEN_41 $end
 $var wire 32 "h _GEN_77 $end
 $var wire 32 "i rowsReg_4 $end
 $var wire 32 "j _GEN_122 $end
 $var wire 1 "k clock $end
 $var wire 4 "l _GEN_35 $end
 $var wire 4 "m _GEN_158 $end
 $var wire 2 "n _GEN_62 $end
 $var wire 32 "o _GEN_116 $end
 $var wire 2 "p io_in_bits_T_3 $end
 $var wire 1 "q _GEN_215 $end
 $var wire 32 "r _GEN_209 $end
 $var wire 32 "t _GEN_137 $end
 $var wire 32 "u _GEN_200 $end
 $var wire 1 "v io_in_valid $end
 $var wire 32 "w _GEN_143 $end
 $var wire 2 "x io_in_bits_S_4 $end
 $var wire 2 "z TReg_1 $end
 $var wire 32 "{ _GEN_187 $end
 $var wire 32 "| _GEN_50 $end
 $var wire 1 "} _GEN_65 $end
 $var wire 32 #! _GEN_23 $end
 $var wire 4 #" cntColumnReg $end
 $var wire 32 ## _GEN_125 $end
 $var wire 1 #$ _GEN_44 $end
 $var wire 32 #% _GEN_38 $end
 $var wire 2 #& _GEN_203 $end
 $var wire 32 #' _GEN_193 $end
 $var wire 32 #( _GEN_110 $end
 $var wire 1 #) _GEN_59 $end
 $var wire 32 #* _GEN_119 $end
 $var wire 2 #+ _GEN_104 $end
 $var wire 32 #, _GEN_131 $end
 $var wire 32 #- _GEN_17 $end
 $var wire 1 #. io_out_valid $end
 $var wire 32 #/ _GEN_94 $end
 $var wire 32 #0 _GEN_113 $end
 $var wire 32 #1 _GEN_107 $end
 $var wire 1 #2 _GEN_212 $end
 $var wire 32 #3 _GEN_26 $end
 $var wire 32 #4 _GEN_181 $end
 $var wire 2 #5 _GEN_175 $end
 $var wire 2 #6 _GEN_169 $end
 $var wire 32 #7 _GEN_32 $end
 $var wire 32 #8 _GEN_196 $end
 $var wire 2 #9 TReg_4 $end
 $var wire 32 #: resultingColumnsReg_0 $end
 $var wire 32 #; _GEN_47 $end
 $var wire 2 #< _GEN_11 $end
 $var wire 2 #= SReg_3 $end
 $var wire 32 #? _GEN_82 $end
 $var wire 2 #@ SReg_6 $end
 $var wire 32 #A _GEN_190 $end
 $var wire 32 #B _GEN_76 $end
 $var wire 32 #C rowsReg_3 $end
 $var wire 32 #D _GEN_199 $end
 $var wire 32 #E _GEN_157 $end
 $var wire 32 #F _GEN_20 $end
 $var wire 32 #G _GEN_184 $end
 $var wire 32 #H columnsReg_2 $end
 $var wire 2 #I _GEN_178 $end
 $var wire 32 #J resultingColumnsReg_3 $end
 $var wire 2 #K io_in_bits_T_2 $end
 $var wire 32 #L _GEN_163 $end
 $var wire 32 #M _GEN_29 $end
 $var wire 32 #N _GEN_97 $end
 $var wire 2 #O _GEN_6 $end
 $var wire 3 #P io_out_bits_y $end
 $var wire 32 #Q _GEN_14 $end
 $var wire 32 #R resultingColumnsReg_6 $end
 $var wire 2 #S _GEN_0 $end
 $var wire 2 #T io_in_bits_S_6 $end
 $var wire 32 #U io_out_bits_score $end
 $var wire 32 #V _GEN_145 $end
 $var wire 32 #W _GEN_91 $end
 $var wire 2 #X SReg_0 $end
 $var wire 32 #Y _GEN_79 $end
 $var wire 32 #Z _GEN_151 $end
 $var wire 1 #[ _GEN_64 $end
 $var wire 2 #\ _GEN_70 $end
 $var wire 2 #] io_in_bits_T_5 $end
 $var wire 2 #^ _GEN_9 $end
 $var wire 1 #_ _GEN_58 $end
 $var wire 2 #` _GEN_172 $end
 $var wire 32 #a _GEN_166 $end
 $var wire 4 #b _GEN_85 $end
 $var wire 32 #c columnsReg_5 $end
 $var wire 4 #d _GEN_130 $end
 $var wire 1 #e _GEN_139 $end
 $var wire 2 #f _GEN_67 $end
 $var wire 2 #g TReg_3 $end
 $var wire 32 #h _GEN_133 $end
 $var wire 1 #i _GEN_52 $end
 $var wire 32 #j rowsReg_0 $end
 $var wire 32 #k _GEN_127 $end
 $var wire 1 #l reset $end
 $var wire 32 #m _GEN_154 $end
 $var wire 32 #o _GEN_112 $end
 $var wire 2 #p _GEN_3 $end
 $var wire 32 #q _GEN_73 $end
 $var wire 2 #r _GEN_88 $end
 $var wire 1 #s _GEN_211 $end
 $var wire 32 #t _GEN_46 $end
 $var wire 32 #u _GEN_160 $end
 $var wire 32 #v _GEN_148 $end
 $var wire 2 #w io_in_bits_S_0 $end
 $var wire 32 #x _GEN_100 $end
 $var wire 4 #y _GEN_34 $end
 $var wire 32 #z resReg $end
 $var wire 2 #{ io_in_bits_S_3 $end
 $var wire 2 #| _GEN_61 $end
 $var wire 32 #} _GEN_115 $end
 $var wire 32 $! _GEN_28 $end
 $var wire 32 $" _GEN_136 $end
 $var wire 32 $# _GEN_40 $end
 $var wire 32 $$ _GEN_49 $end
 $var wire 32 $% _GEN_198 $end
 $var wire 32 $& _GEN_121 $end
 $var wire 1 $' _GEN_229 $end
 $var wire 1 $( _GEN_214 $end
 $var wire 32 $) _GEN_55 $end
 $var wire 32 $* _GEN_109 $end
  $scope module pe.substituteElements $end
  $upscope $end
  $scope module pe $end
   $var wire 32 * diag $end
   $var wire 32 8 io_out $end
   $var wire 32 @ left $end
   $var wire 2 J io_columnElement $end
   $var wire 32 z max $end
   $var wire 32 | io_left $end
   $var wire 32 "# io_upper $end
   $var wire 2 "+ io_rowElement $end
   $var wire 1 "K substituteElements $end
   $var wire 32 "s io_diagonal $end
   $var wire 32 "y upper $end
   $var wire 33 "~ _T $end
   $var wire 32 #n diagUpper $end
   $var wire 32 #~ diagLeft $end
    $scope module substituteElements $end
     $var wire 32 "8 io_out $end
     $var wire 2 "? io_first $end
     $var wire 2 "O io_second $end
     $var wire 1 #> _T $end
    $upscope $end
  $upscope $end
$upscope $end
$enddefinitions $end
$dumpvars
b000 G
0"c
b00 [
b00000000000000000000000000000000 #}
b00000000000000000000000000000000 #h
b00 >
b00 )
b00000000000000000000000000000000 "j
b00000000000000000000000000000000 r
b00000000000000000000000000000000 "M
0"P
b00000000000000000000000000000000 "#
b00000000000000000000000000000000 "8
b00 #T
0"v
b00000000000000000000000000000000 "I
b00000000000000000000000000000000 #*
b00000000000000000000000000000000 Q
b00 "=
b00000000000000000000000000000000 w
b00 j
b00000000000000000000000000000000 b
b00000000000000000000000000000000 E
b00000000000000000000000000000000 0
b00000000000000000000000000000000 #o
b00000000000000000000000000000000 "y
b00000000000000000000000000000000 #Z
b00000000000000000000000000000000 "G
b00000000000000000000000000000000 #(
b00 {
b00000000000000000000000000000000 s
0#2
b00 ^
b00 I
b00000000000000000000000000000000 #k
b00000000000000000000000000000000 "u
b00000000000000000000000000000000 #V
b00000000000000000000000000000000 $
b00000000000000000000000000000000 A
b00000000000000000000000000000000 "X
b00000000000000000000000000000000 "&
b00 #|
b00 "L
b00 "/
b00000000000000000000000000000000 q
b00000000000000000000000000000000 T
b00000000000000000000000000000000 ?
b00 #p
b00 "z
b00 "+
0#s
0"}
0"K
b00000000000000000000000000000000 e
b00000000000000000000000000000000 P
0#$
b00000000000000000000000000000000 #z
b0000 3
b00000000000000000000000000000000 "g
b00000000000000000000000000000000 #H
b00000000000000000000000000000000 $)
b00000000000000000000000000000000 "5
b00 "[
b00 #<
b00000000000000000000000000000000 #v
0"*
b00 L
b00000000000000000000000000000000 /
b00000000000000000000000000000000 #D
b00000000000000000000000000000000 $%
b00000000000000000000000000000000 "1
b0000 "m
b00000000000000000000000000000000 #j
b00000000000000000000000000000000 #8
b00000000000000000000000000000000 t
b00000000000000000000000000000000 _
b00000000000000000000000000000000 "%
b00 J
b00000000000000000000000000000000 B
b00000000000000000000000000000000 #W
b00000000000000000000000000000000 -
b00 #^
0"k
b00000000000000000000000000000000 #4
b00000000000000000000000000000000 p
0"N
b00000000000000000000000000000000 S
b00000000000000000000000000000000 "!
b00000000000000000000000000000000 !
b00 "\
b00 #=
b00 #\
0"-
b00000000000000000000000000000000 2
0#_
b00000000000000000000000000000000 "f
b00000000000000000000000000000000 #G
b00000000000000000000000000000000 "Q
b00 #9
b00000000000000000000000000000000 #u
b00 K
b00 6
b00000000000000000000000000000000 "w
b00000000000000000000000000000000 #C
b00000000000000000000000000000000 $$
b00000000000000000000000000000000 .
0#>
b00000000000000000000000000000000 "E
b00000000000000000000000000000000 "0
b00000000000000000000000000000000 M
0#[
b00000000000000000000000000000000 "(
b00000000000000000000000000000000 "^
b00000000000000000000000000000000 #?
b00000000000000000000000000000000 ",
b00000000000000000000000000000000 ,
b00 #]
b00 "J
b00 #+
0#.
0<
b00000000000000000000000000000000 #R
b00 =
b00 (
b00000000000000000000000000000000 "i
b00000000000000000000000000000000 "T
b00000000000000000000000000000000 #J
b00000000000000000000000000000000 ""
b0000 #y
b00 k
b00 V
b00000000000000000000000000000000 #x
b00000000000000000000000000000000 #c
b00000000000000000000000000000000 N
b00000000000000000000000000000000 #N
b0000 m
b00000000000000000000000000000000 "e
b00000000000000000000000000000000 #1
b00000000000000000000000000000000 #F
b00000000000000000000000000000000 "3
b00 "n
b00 #O
b0000 "Z
b00 "<
b00000000000000000000000000000000 ~
0"q
b00000000000000000000000000000000 a
b00 #S
b00 #K
b00 "U
b00 #6
b00000000000000000000000000000000 z
b00000000000000000000000000000000 ]
b00000000000000000000000000000000 H
b00000000000000000000000000000000 @
b00000000000000000000000000000000 +
b00000000000000000000000000000000 "t
b00000000000000000000000000000000 #U
b00000000000000000000000000000000 $!
b00000000000000000000000000000000 ##
b00 #{
b00 #I
b00000000000000000000000000000000 n
0C
b00000000000000000000000000000000 #n
b00000000000000000000000000000000 '
b00000000000000000000000000000000 #Q
b00000000000000000000000000000000 ">
b00 #w
b00000000000000000000000000000000 "d
b00000000000000000000000000000000 #E
b00000000000000000000000000000000 l
b00000000000000000000000000000000 $&
b00000000000000000000000000000000 "2
b00000000000000000000000000000000 :
b00 "C
b0000 "'
b0000 h
b00000000000000000000000000000000 "`
b00000000000000000000000000000000 #A
b00000000000000000000000000000000 $"
b00000000000000000000000000000000 ".
b00 "7
b0000 "l
b00 y
b00000000000000000000000000000000 #q
0#l
b00000000000000000000000000000000 "s
b0000 "6
b00000000000000000000000000000000 ;
0%
b00000000000000000000000000000000 "o
0v
b00000000000000000000000000000000 "R
b00000000000000000000000000000000 #3
b00000000000000000000000000000000 Z
b00 "x
b00000000000000000000000000000000 #a
b00000000000000000000000000000000 #L
b00 "
0$(
b00000000000000000000000000000000 #/
b00000000000000000000000000000000 "9
b00000000000000000000000000000000 9
b00 "W
b00 "B
b00000000000000000000000000000000 |
b00 R
b00000000000000000000000000000000 #t
b00 5
b00000000000000000000000000000000 "a
b00000000000000000000000000000000 #-
b00000000000000000000000000000000 #B
b00000000000000000000000000000000 $#
b00000000000000000000000000000000 #%
0#i
b0000 "A
b0000 #"
b0000 "$
b00 F
b00 1
b00000000000000000000000000000000 "r
b00000000000000000000000000000000 "]
b00000000000000000000000000000000 "H
b00000000000000000000000000000000 "@
b00000000000000000000000000000000 #!
b00 "4
0u
b0000 Y
b00000000000000000000000000000000 D
b00 #`
b00 #X
b00 "b
b00 #&
0$'
0i
b00000000000000000000000000000000 U
0#)
b00000000000000000000000000000000 8
b00000000000000000000000000000000 #
b00000000000000000000000000000000 #M
b00000000000000000000000000000000 #0
b00000000000000000000000000000000 ":
b00000000000000000000000000000000 f
0"D
b00000000000000000000000000000000 "h
b00 4
b00000000000000000000000000000000 $*
b00000000000000000000000000000000 #,
b00 #g
b00 #5
b00 "?
0c
b00000000000000000000000000000000 d
b00000000000000000000000000000000 \
b00 O
b00000000000000000000000000000000 "{
b00000000000000000000000000000000 *
b0000 #d
b00 }
b00000000000000000000000000000000 ";
b00000000000000000000000000000000 X
b00 `
b0000 &
b00000000000000000000000000000000 #m
b00000000000000000000000000000000 #;
b0000 #b
b00000000000000000000000000000000 #~
b000 #P
b00000000000000000000000000000000 7
b00000000000000000000000000000000 "V
b00000000000000000000000000000000 #7
b00 #r
b00 "_
b00 #@
b00000000000000000000000000000000 "|
b00 o
b00000000000000000000000000000000 g
b00 #f
b00 "p
b00 "S
b00000000000000000000000000000000 #Y
b00000000000000000000000000000000 x
b00000000000000000000000000000000 "F
b00000000000000000000000000000000 #'
b00000000000000000000000000000000 ")
b000000000000000000000000000000000 "~
b00 "O
0#e
b00000000000000000000000000000000 W
b00000000000000000000000000000000 "Y
b00000000000000000000000000000000 #:
$end
#0
b01 #r
1<
1#2
1#l
b0001 "Z
b000000000000000000000000000000001 "~
b00000000000000000000000000000001 #n
b01 1
b11111111111111111111111111111110 @
b00000000000000000000000000000001 8
b00000000000000000000000000000001 z
b11111111111111111111111111111110 "y
b00000000000000000000000000000001 *
b00000000000000000000000000000001 #~
b00000000000000000000000000000001 "8
1"N
b0001 #b
1#>
#1
1"k
#6
0"k
#11
1"k
#16
0"k
#21
1"k
#26
0"k
#31
1"k
#36
0"k
#41
1"k
#46
b10 "_
b11 R
b10 5
0#l
1"v
b11 6
b10 L
b11 "<
b01 "=
b11 "p
b01 "S
b01 #5
b11 "7
b10 #K
b10 #6
0"k
b01 `
1C
1v
b11 #]
b11 #{
b01 #+
b10 #^
b01 "J
b01 >
b11 "/
b01 #&
b01 V
b11 #p
b0001 m
#51
1u
0<
1%
1#s
b10 4
b01 "W
0v
0#2
b01 "B
b11 }
b11 [
b01 )
b00000000000000000000000000000001 "w
b11 #g
b10 y
b11 #&
b01 {
1"k
b01 "z
b11 #=
b00000000000000000000000000000001 "r
#56
0"v
0"k
#61
b00000000000000000000000000000001 #U
b00000000000000000000000000000001 #V
b00000000000000000000000000000001 #W
b0001 "'
b11 "=
1"q
b0001 "6
b00000000000000000000000000000001 #}
b00000000000000000000000000000001 "j
1#.
b11 {
1"k
b0001 "m
0u
0%
b00000000000000000000000000000001 "3
1$(
b00000000000000000000000000000001 #z
1#2
1"-
b01 [
b11 )
b01 #&
b00000000000000000000000000000001 "E
b00000000000000000000000000000001 #Y
b00000000000000000000000000000001 "F
b00000000000000000000000000000001 "G
1"*
b00000000000000000000000000000001 n
#66
0"k
#71
0#>
b00000000000000000000000000000000 "r
b0001 #"
b00000000000000000000000000000001 #j
b00000000000000000000000000000001 ",
b01 J
b00000000000000000000000000000001 #:
b0010 "Z
b11111111111111111111111111111111 #n
b01 "=
b01 #f
b00000000000000000000000000000001 ">
0"q
b01 F
b00000000000000000000000000000001 "!
b001 G
b11111111111111111111111111111111 z
b11111111111111111111111111111111 #~
1#i
b11111111111111111111111111111111 *
0#.
b01 {
1"k
b11111111111111111111111111111111 "8
b0010 #b
b00000000000000000000000000000001 |
b00000000000000000000000000000001 "d
b01 "O
b0001 #y
0$(
0#2
b00000000000000000000000000000001 $)
b01 o
0"-
b11 [
b111111111111111111111111111111111 "~
b01 )
b00000000000000000000000000000001 \
b00000000000000000000000000000000 "w
b01 "b
b11 #&
b11111111111111111111111111111111 @
b00000000000000000000000000000000 8
b0010 m
b00000000000000000000000000000001 "]
1#)
0"*
b00000000000000000000000000000001 #q
b00000000000000000000000000000001 "@
b01 #\
#76
0"k
#81
b0010 "m
b00000000000000000000000000000000 #U
b00000000000000000000000000000000 "3
1$(
b00000000000000000000000000000000 #z
1#2
1"-
b01 [
b0010 "'
b11 )
b11 "=
1"q
b0010 "6
b01 #&
b00000000000000000000000000000000 #Y
b00000000000000000000000000000000 "j
b00000000000000000000000000000000 "F
0#i
1#.
b11 {
1"k
b00000000000000000000000000000000 "G
1"*
0#)
b00000000000000000000000000000000 #q
b00000000000000000000000000000000 "@
#86
0"k
#91
b0010 #"
b00000000000000000000000000000000 #j
b00000000000000000000000000000000 ",
b10 J
b0011 "Z
b01 "=
b10 #f
b00000000000000000000000000000000 ">
0"q
b10 F
b010 G
1#i
0#.
b01 {
1"k
b0011 #b
b00000000000000000000000000000000 |
b00000000000000000000000000000000 "d
b10 "O
b0010 #y
0$(
0#2
b00000000000000000000000000000000 $)
b00 o
0"-
b11 [
b01 )
b00000000000000000000000000000000 \
b10 "b
b11 #&
b11111111111111111111111111111110 @
b0011 m
b00000000000000000000000000000000 "]
1#)
0"*
b10 #\
#96
0"k
#101
b0011 "m
1$(
1#2
1"-
b01 [
b0011 "'
b11 )
b11 "=
1"q
b0011 "6
b01 #&
0#i
1#.
b11 {
1"k
1"*
0#)
#106
0"k
#111
b0011 #"
b0011 #y
0$(
0#2
b11 J
0"-
b11 [
b0100 "Z
b01 )
b01 "=
b00 #f
b11 "b
0"q
b11 F
b11 #&
b011 G
1#i
0#.
b01 {
1"k
b0100 m
b0100 #b
1#)
0"*
b11 #\
b11 "O
#116
0"k
#121
b0100 "m
1$(
1#2
1"-
b01 [
b0100 "'
b11 )
b11 "=
1"q
b0100 "6
b01 #&
0#i
1#.
b11 {
1"k
1"*
0#)
#126
0"k
#131
b0100 #"
b00 J
b0101 "Z
b00000000000000000000000000000001 #n
b01 "=
0"q
b00 F
b100 G
b00000000000000000000000000000001 z
b00000000000000000000000000000001 #~
1#i
b00000000000000000000000000000001 *
0#.
b01 {
1"k
b00000000000000000000000000000001 "8
b0101 #b
b00 "O
b0100 #y
0$(
0#2
0"-
b11 [
b000000000000000000000000000000001 "~
b01 )
b00000000000000000000000000000001 "w
b00 "b
b11 #&
b00000000000000000000000000000001 8
b0101 m
0"*
1#)
b00 #\
1#>
b00000000000000000000000000000001 "r
#136
0"k
#141
b00000000000000000000000000000001 #U
b00000000000000000000000000000001 "Y
b0101 "'
b00000000000000000000000000000001 "R
b11 "=
1"q
b0101 "6
b00000000000000000000000000000001 "j
0#i
1#.
b11 {
1"k
b0101 "m
b00000000000000000000000000000001 "3
1$(
b00000000000000000000000000000001 #z
1#2
b00000000000000000000000000000001 #*
1"-
b01 [
b11 )
b00000000000000000000000000000001 #B
b01 #&
b00000000000000000000000000000001 #Y
b00000000000000000000000000000001 $%
b00000000000000000000000000000001 "F
b00000000000000000000000000000001 "G
1"*
0#)
#146
0"k
#151
b0101 #"
b00000000000000000000000000000001 #j
b00000000000000000000000000000001 ",
b00000000000000000000000000000001 ";
b0110 "Z
b01 "=
b00000000000000000000000000000001 ">
0"q
b101 G
1#i
0#.
b01 {
1"k
b00000000000000000000000000000001 H
b0110 #b
b00000000000000000000000000000001 |
b00000000000000000000000000000001 "d
b0101 #y
0$(
0#2
b00000000000000000000000000000001 $)
b00000000000000000000000000000001 "h
0"-
b11 [
b01 )
b00000000000000000000000000000001 \
b00000000000000000000000000000001 ?
b11 #&
b11111111111111111111111111111111 @
b0110 m
b00000000000000000000000000000001 "]
1#)
0"*
#156
0"k
#161
b0110 "m
1$(
1#2
b00000000000000000000000000000001 "&
b00000000000000000000000000000001 a
1"-
b01 [
b0110 "'
b11 )
b11 "=
1"q
b0110 "6
b01 #&
b00000000000000000000000000000001 #D
0#i
1#.
b11 {
1"k
1"*
0#)
#166
0"k
#171
b0001 3
b10 #r
b0110 #"
b0001 "A
b00000000000000000000000000000001 g
b0000 "Z
b01 "=
0"q
b10 1
b110 G
1#i
0#.
b01 {
1"k
b00000000000000000000000000000001 #7
b0000 #b
b00000000000000000000000000000001 ,
b00000000000000000000000000000001 #N
b0110 #y
0$(
0#2
b0001 Y
b10 #+
0"-
b11 [
b01 )
b11 #&
b0000 m
0"*
1#)
#176
0"k
#181
b0000 "m
1$'
b0001 #d
b10 "W
1$(
1#2
b0001 &
b00000000000000000000000000000001 "u
b0001 h
1"-
b10 [
b0000 "'
b11 )
b11 "=
1"q
b0000 "6
b10 #&
b00000000000000000000000000000001 #Z
0#i
1#.
b11 {
1"k
1"*
0#)
b00000000000000000000000000000001 $&
#186
0"k
#191
b01 #r
b00000000000000000000000000000001 f
b00000000000000000000000000000001 "t
b01 "W
b01 "n
b11111111111111111111111111111111 #n
b00000000000000000000000000000001 #4
b000 G
b11111111111111111111111111111111 *
0#.
b01 {
b11111111111111111111111111111111 "8
b0001 #b
b0001 "l
b00000000000000000000000000000000 "d
b00000000000000000000000000000001 #0
b0000 #y
0$(
b00000000000000000000000000000001 $"
b00000000000000000000000000000001 #,
b00000000000000000000000000000001 "`
b00000000000000000000000000000000 \
b00000000000000000000000000000001 #u
b01 #&
b00000000000000000000000000000001 "0
b01 k
b00000000000000000000000000000001 #o
b0001 m
0"*
b00000000000000000000000000000001 "{
b0000 #"
b00000000000000000000000000000000 ",
b0001 "$
b001 #P
b0001 "Z
b10 "=
1c
0"q
b00000000000000000000000000000001 #R
b01 1
b01 "?
b11111111111111111111111111111111 z
b00000000000000000000000000000001 e
b11111111111111111111111111111111 #~
1#i
b00000000000000000000000000000001 #a
1"k
b00000000000000000000000000000001 "9
b00000000000000000000000000000000 |
b00000000000000000000000000000001 t
0$'
1"P
b00000000000000000000000000000001 #1
b00000000000000000000000000000000 $)
b01 #+
b01 #|
b01 [
b111111111111111111111111111111111 "~
b10 )
b00000000000000000000000000000001 U
b11111111111111111111111111111110 @
b00000000000000000000000000000000 8
b00000000000000000000000000000001 #
b00000000000000000000000000000001 ")
b01 O
0#>
1#)
b01 "+
#196
0"k
#201
b01 "=
b00000000000000000000000000000001 #Q
0c
b00000000000000000000000000000001 d
b00000000000000000000000000000001 2
0#i
b00000000000000000000000000000001 "M
1"k
b00000000000000000000000000000001 "#
b00000000000000000000000000000001 #c
b00000000000000000000000000000001 B
b00000000000000000000000000000001 #F
0"P
b00000000000000000000000000000001 .
0#2
b00000000000000000000000000000001 "g
0"-
b11 [
b01 )
b00000000000000000000000000000001 $#
b00000000000000000000000000000001 T
b00000000000000000000000000000001 #%
b00000000000000000000000000000001 r
b00000000000000000000000000000000 "w
b11 #&
b11111111111111111111111111111111 "y
b00000000000000000000000000000000 "r
0#)
b00000000000000000000000000000001 "H
#206
0"k
#211
b0001 "m
b00000000000000000000000000000000 f
b00000000000000000000000000000000 #U
1$(
b00000000000000000000000000000000 #z
1#2
b00000000000000000000000000000000 #V
b00000000000000000000000000000000 #W
1"-
b01 [
b0001 "'
b00000000000000000000000000000000 "`
b11 )
b11 "=
1"q
b0001 "6
b01 #&
b00000000000000000000000000000000 #}
b00000000000000000000000000000000 "E
1#.
b11 {
1"k
1"*
b00000000000000000000000000000000 n
#216
0"k
#221
b00000000000000000000000000000010 "r
b0001 #"
b01 J
b00000000000000000000000000000001 "%
b00000000000000000000000000000000 #:
b0010 "Z
b00000000000000000000000000000001 #;
b00000000000000000000000000000010 #n
b01 "=
b01 #f
0"q
b01 F
b00000000000000000000000000000000 "!
b00000000000000000000000000000000 d
b001 G
b00000000000000000000000000000010 z
b00000000000000000000000000000010 #~
1#i
b00000000000000000000000000000010 *
0#.
b01 {
1"k
b00000000000000000000000000000000 "#
b00000000000000000000000000000001 "8
b0010 #b
b01 "O
b0001 #y
b00000000000000000000000000000000 .
0$(
0#2
b00000000000000000000000000000001 "|
b00000000000000000000000000000000 "g
b01 o
0"-
b11 [
b00000000000000000000000000000001 #t
b000000000000000000000000000000010 "~
b01 )
b00000000000000000000000000000000 $#
b00000000000000000000000000000000 #%
b00000000000000000000000000000000 r
b00000000000000000000000000000001 $$
b01 "b
b00000000000000000000000000000010 "w
b11 #&
b00000000000000000000000000000010 8
b11111111111111111111111111111110 "y
b00000000000000000000000000000001 l
b0010 m
b00000000000000000000000000000000 "]
1#)
0"*
b01 #\
1#>
b00000000000000000000000000000001 "s
#226
0"k
