tested/md4Pipelined/md4.TestMD4Pipelined484164083/md4Pipelined.vcd
$date
2021-07-20T20:01+0000
$end
$version
0.2
$end
$comment

$end
$timescale 1ns  $end
$scope module md4Pipelined $end
 $var wire 1 8 io_in_ready $end
 $var wire 32 N io_in_bits_D0 $end
 $var wire 1 x changeInput $end
 $var wire 128 "# io_hash_bits $end
 $var wire 32 "& io_in_bits_A0 $end
 $var wire 1 "^ io_hash_ready $end
 $var wire 32 "_ io_in_bits_C0 $end
 $var wire 512 "h io_in_bits_X $end
 $var wire 1 "u clock $end
 $var wire 1 #) io_in_valid $end
 $var wire 1 #c changeOutput $end
 $var wire 1 #f PEs_0_0 $end
 $var wire 1 #y reset $end
 $var wire 32 $5 io_in_bits_B0 $end
 $var wire 1 $7 io_hash_valid $end
  $scope module changeInput.changeWordOrder_1 $end
  $upscope $end
  $scope module changeInput.changeWordOrder_10 $end
  $upscope $end
  $scope module changeInput.changeWordOrder_8 $end
  $upscope $end
  $scope module changeInput.changeWordOrder_2 $end
  $upscope $end
  $scope module changeInput.changeWordOrder_11 $end
  $upscope $end
  $scope module changeInput.changeWordOrder_9 $end
  $upscope $end
  $scope module changeInput.changeWordOrder_18 $end
  $upscope $end
  $scope module changeInput.changeWordOrder_12 $end
  $upscope $end
  $scope module changeOutput.changeWordOrder_3 $end
  $upscope $end
  $scope module changeInput.changeWordOrder_19 $end
  $upscope $end
  $scope module changeOutput $end
   $var wire 1 $ changeWordOrder $end
   $var wire 128 C io_out_bits $end
   $var wire 64 W lo $end
   $var wire 32 "! PEs_2_out $end
   $var wire 1 "1 changeWordOrder_3 $end
   $var wire 32 "B PEs_3_out $end
   $var wire 1 "i changeWordOrder_2 $end
   $var wire 32 #6 PEs_0_out $end
   $var wire 64 #< hi $end
   $var wire 1 #w changeWordOrder_1 $end
   $var wire 32 $0 PEs_1_out $end
    $scope module changeWordOrder_3 $end
     $var wire 16 ! lo $end
     $var wire 8 a byte2 $end
     $var wire 32 "P io_out $end
     $var wire 16 "n hi $end
     $var wire 8 "o byte1 $end
     $var wire 8 #i byte3 $end
     $var wire 32 #s io_in $end
     $var wire 8 $< byte0 $end
    $upscope $end
    $scope module changeWordOrder_1 $end
     $var wire 16 % lo $end
     $var wire 8 K byte1 $end
     $var wire 32 "R io_in $end
     $var wire 8 "a byte0 $end
     $var wire 16 "l hi $end
     $var wire 8 "s byte3 $end
     $var wire 8 #Y byte2 $end
     $var wire 32 $. io_out $end
    $upscope $end
    $scope module changeWordOrder_2 $end
     $var wire 16 + hi $end
     $var wire 32 , io_in $end
     $var wire 8 [ byte0 $end
     $var wire 8 c byte3 $end
     $var wire 16 "d lo $end
     $var wire 8 "p byte2 $end
     $var wire 32 #Q io_out $end
     $var wire 8 $1 byte1 $end
    $upscope $end
    $scope module changeWordOrder $end
     $var wire 16 6 lo $end
     $var wire 32 L io_out $end
     $var wire 8 { byte2 $end
     $var wire 8 "W byte1 $end
     $var wire 16 #* hi $end
     $var wire 32 #J io_in $end
     $var wire 8 #q byte0 $end
     $var wire 8 #x byte3 $end
    $upscope $end
  $upscope $end
  $scope module changeInput.changeWordOrder_3 $end
  $upscope $end
  $scope module changeInput.changeWordOrder $end
  $upscope $end
  $scope module changeInput.changeWordOrder_4 $end
  $upscope $end
  $scope module changeInput.changeWordOrder_13 $end
  $upscope $end
  $scope module changeOutput.changeWordOrder $end
  $upscope $end
  $scope module PEs_0_0 $end
   $var wire 1 / full_0 $end
   $var wire 1 S clock $end
   $var wire 1 T _T $end
   $var wire 1 g io_in_ready $end
   $var wire 1 w _GEN_40 $end
   $var wire 1 "G _GEN_19 $end
   $var wire 1 "V reset $end
   $var wire 1 "X _GEN_60 $end
   $var wire 1 #: full_1 $end
   $var wire 1 #@ io_in_valid $end
   $var wire 1 #K _GEN_21 $end
   $var wire 1 #o _GEN_68 $end
   $var wire 1 #{ _GEN_20 $end
   $var wire 1 $$ tail $end
   $var wire 1 $' _GEN_41 $end
  $upscope $end
  $scope module changeInput.changeWordOrder_5 $end
  $upscope $end
  $scope module changeInput.changeWordOrder_14 $end
  $upscope $end
  $scope module changeInput.changeWordOrder_6 $end
  $upscope $end
  $scope module changeInput.changeWordOrder_15 $end
  $upscope $end
  $scope module changeInput.changeWordOrder_16 $end
  $upscope $end
  $scope module changeOutput.changeWordOrder_1 $end
  $upscope $end
  $scope module changeInput.changeWordOrder_17 $end
  $upscope $end
  $scope module changeOutput.changeWordOrder_2 $end
  $upscope $end
  $scope module changeInput $end
   $var wire 32 " _GEN_27 $end
   $var wire 1 & _GEN_12 $end
   $var wire 1 ' changeWordOrder_13 $end
   $var wire 32 ) _GEN_33 $end
   $var wire 1 * changeWordOrder_4 $end
   $var wire 32 > _GEN_21 $end
   $var wire 1 ? changeWordOrder_7 $end
   $var wire 32 A _GEN_15 $end
   $var wire 1 M changeWordOrder $end
   $var wire 512 U input_X $end
   $var wire 32 X data_1_D0 $end
   $var wire 32 ] io_in_bits_C0 $end
   $var wire 1 _ changeWordOrder_12 $end
   $var wire 32 b _GEN_32 $end
   $var wire 512 j io_in_bits_X $end
   $var wire 32 o _GEN_14 $end
   $var wire 1 p changeWordOrder_15 $end
   $var wire 1 q _T $end
   $var wire 32 "" _GEN_20 $end
   $var wire 1 "( _GEN_41 $end
   $var wire 512 ") _GEN_35 $end
   $var wire 32 "* data_1_A0 $end
   $var wire 1 "+ changeWordOrder_6 $end
   $var wire 32 ". _GEN_29 $end
   $var wire 1 "/ _GEN_44 $end
   $var wire 1 "2 _GEN_38 $end
   $var wire 1 "3 reset $end
   $var wire 512 "4 _GEN_23 $end
   $var wire 1 ": changeWordOrder_9 $end
   $var wire 1 "< io_out_valid $end
   $var wire 1 "= io_in_valid $end
   $var wire 1 "? changeWordOrder_18 $end
   $var wire 32 "@ _GEN_17 $end
   $var wire 1 "C full_1 $end
   $var wire 1 "H _GEN_11 $end
   $var wire 1 "J changeWordOrder_3 $end
   $var wire 32 "O _GEN_26 $end
   $var wire 32 "\ data_1_C0 $end
   $var wire 32 "] data_0_B0 $end
   $var wire 1 "b changeWordOrder_17 $end
   $var wire 1 "e _GEN_43 $end
   $var wire 32 "j io_in_bits_B0 $end
   $var wire 1 "~ tail $end
   $var wire 1 #! _GEN_25 $end
   $var wire 1 #& changeWordOrder_2 $end
   $var wire 1 #' changeWordOrder_11 $end
   $var wire 32 #, _GEN_31 $end
   $var wire 1 #- _GEN_40 $end
   $var wire 1 #. changeWordOrder_5 $end
   $var wire 1 #0 _GEN_13 $end
   $var wire 32 #3 _GEN_28 $end
   $var wire 32 #; data_0_D0 $end
   $var wire 512 #= _GEN_34 $end
   $var wire 1 #? changeWordOrder_14 $end
   $var wire 512 #C _GEN_22 $end
   $var wire 32 #D _GEN_16 $end
   $var wire 1 #H changeWordOrder_8 $end
   $var wire 512 #R data_1_X $end
   $var wire 32 #W data_0_A0 $end
   $var wire 32 #[ _GEN_19 $end
   $var wire 1 #d full_0 $end
   $var wire 32 #h io_in_bits_A0 $end
   $var wire 1 #j clock $end
   $var wire 1 #m io_out_ready $end
   $var wire 1 #p io_in_ready $end
   $var wire 32 #| io_in_bits_D0 $end
   $var wire 1 #} changeWordOrder_16 $end
   $var wire 1 $" _GEN_36 $end
   $var wire 1 $% _GEN_42 $end
   $var wire 1 $) changeWordOrder_10 $end
   $var wire 32 $* _GEN_18 $end
   $var wire 1 $+ changeWordOrder_19 $end
   $var wire 1 $/ _GEN_39 $end
   $var wire 32 $2 data_0_C0 $end
   $var wire 1 $6 head $end
   $var wire 1 $8 changeWordOrder_1 $end
   $var wire 32 $9 _GEN_30 $end
   $var wire 32 $: data_1_B0 $end
   $var wire 512 $; data_0_X $end
   $var wire 1 $= _GEN_24 $end
    $scope module changeWordOrder_11 $end
     $var wire 8 # byte0 $end
     $var wire 16 : lo $end
     $var wire 8 v byte2 $end
     $var wire 16 #" hi $end
     $var wire 8 #7 byte1 $end
     $var wire 32 #V io_out $end
     $var wire 32 #z io_in $end
     $var wire 8 $# byte3 $end
    $upscope $end
    $scope module changeWordOrder_3 $end
     $var wire 32 ( io_out $end
     $var wire 16 } hi $end
     $var wire 8 "6 byte2 $end
     $var wire 8 #L byte1 $end
     $var wire 32 #\ io_in $end
     $var wire 16 #a lo $end
     $var wire 8 #~ byte0 $end
     $var wire 8 $- byte3 $end
    $upscope $end
    $scope module changeWordOrder_6 $end
     $var wire 8 - byte3 $end
     $var wire 8 Q byte0 $end
     $var wire 32 m io_out $end
     $var wire 16 "$ lo $end
     $var wire 8 "M byte2 $end
     $var wire 8 #X byte1 $end
     $var wire 16 #Z hi $end
     $var wire 32 #l io_in $end
    $upscope $end
    $scope module changeWordOrder_7 $end
     $var wire 8 . byte2 $end
     $var wire 32 5 io_out $end
     $var wire 16 "% hi $end
     $var wire 8 "Q byte1 $end
     $var wire 32 #4 io_in $end
     $var wire 8 #` byte0 $end
     $var wire 16 #b lo $end
     $var wire 8 #t byte3 $end
    $upscope $end
    $scope module changeWordOrder_17 $end
     $var wire 32 0 io_in $end
     $var wire 16 I lo $end
     $var wire 8 V byte0 $end
     $var wire 8 e byte3 $end
     $var wire 32 "Z io_out $end
     $var wire 16 "t hi $end
     $var wire 8 "} byte2 $end
     $var wire 8 #P byte1 $end
    $upscope $end
    $scope module changeWordOrder_10 $end
     $var wire 8 1 byte1 $end
     $var wire 32 2 io_in $end
     $var wire 16 9 hi $end
     $var wire 32 O io_out $end
     $var wire 8 k byte0 $end
     $var wire 8 u byte3 $end
     $var wire 16 "v lo $end
     $var wire 8 #8 byte2 $end
    $upscope $end
    $scope module changeWordOrder_13 $end
     $var wire 16 3 lo $end
     $var wire 8 G byte1 $end
     $var wire 32 J io_in $end
     $var wire 8 "0 byte3 $end
     $var wire 32 "L io_out $end
     $var wire 8 "T byte0 $end
     $var wire 16 "w hi $end
     $var wire 8 #B byte2 $end
    $upscope $end
    $scope module changeWordOrder_19 $end
     $var wire 16 4 lo $end
     $var wire 8 h byte1 $end
     $var wire 32 "Y io_in $end
     $var wire 16 "z hi $end
     $var wire 8 #( byte0 $end
     $var wire 8 #9 byte3 $end
     $var wire 8 #n byte2 $end
     $var wire 32 $& io_out $end
    $upscope $end
    $scope module changeWordOrder_9 $end
     $var wire 32 7 io_in $end
     $var wire 8 f byte0 $end
     $var wire 16 | hi $end
     $var wire 8 ~ byte3 $end
     $var wire 8 "[ byte2 $end
     $var wire 32 "f io_out $end
     $var wire 16 #T lo $end
     $var wire 8 #k byte1 $end
    $upscope $end
    $scope module changeWordOrder_12 $end
     $var wire 8 ; byte2 $end
     $var wire 16 B hi $end
     $var wire 8 ", byte1 $end
     $var wire 32 "m io_in $end
     $var wire 32 ## io_out $end
     $var wire 16 #$ lo $end
     $var wire 8 #> byte0 $end
     $var wire 8 #A byte3 $end
    $upscope $end
    $scope module changeWordOrder_14 $end
     $var wire 16 < hi $end
     $var wire 8 D byte0 $end
     $var wire 8 P byte3 $end
     $var wire 32 l io_out $end
     $var wire 8 "; byte2 $end
     $var wire 16 "y lo $end
     $var wire 8 #I byte1 $end
     $var wire 32 $4 io_in $end
    $upscope $end
    $scope module changeWordOrder_18 $end
     $var wire 32 = io_out $end
     $var wire 16 @ hi $end
     $var wire 8 ^ byte2 $end
     $var wire 16 "r lo $end
     $var wire 8 "x byte1 $end
     $var wire 32 #5 io_in $end
     $var wire 8 #g byte3 $end
     $var wire 8 $, byte0 $end
    $upscope $end
    $scope module changeWordOrder $end
     $var wire 32 E io_out $end
     $var wire 32 d io_in $end
     $var wire 8 "7 byte0 $end
     $var wire 16 "> hi $end
     $var wire 8 "I byte3 $end
     $var wire 8 #] byte2 $end
     $var wire 16 #u lo $end
     $var wire 8 $3 byte1 $end
    $upscope $end
    $scope module changeWordOrder_15 $end
     $var wire 16 F lo $end
     $var wire 8 Z byte2 $end
     $var wire 8 "k byte1 $end
     $var wire 16 "| hi $end
     $var wire 32 #+ io_in $end
     $var wire 8 #G byte0 $end
     $var wire 8 #_ byte3 $end
     $var wire 32 #r io_out $end
    $upscope $end
    $scope module changeWordOrder_16 $end
     $var wire 16 H hi $end
     $var wire 8 R byte1 $end
     $var wire 8 "F byte3 $end
     $var wire 32 "N io_in $end
     $var wire 8 "c byte0 $end
     $var wire 16 "q lo $end
     $var wire 32 #/ io_out $end
     $var wire 8 #^ byte2 $end
    $upscope $end
    $scope module changeWordOrder_2 $end
     $var wire 32 Y io_in $end
     $var wire 32 ` io_out $end
     $var wire 16 s lo $end
     $var wire 8 "' byte0 $end
     $var wire 8 "8 byte3 $end
     $var wire 8 "` byte2 $end
     $var wire 16 #U hi $end
     $var wire 8 $( byte1 $end
    $upscope $end
    $scope module changeWordOrder_5 $end
     $var wire 32 \ io_in $end
     $var wire 16 r hi $end
     $var wire 8 "A byte0 $end
     $var wire 8 "D byte3 $end
     $var wire 32 "S io_out $end
     $var wire 8 #M byte2 $end
     $var wire 16 #O lo $end
     $var wire 8 $? byte1 $end
    $upscope $end
    $scope module changeWordOrder_8 $end
     $var wire 8 i byte1 $end
     $var wire 32 n io_in $end
     $var wire 16 z lo $end
     $var wire 8 "K byte0 $end
     $var wire 8 "U byte3 $end
     $var wire 32 #E io_out $end
     $var wire 16 #e hi $end
     $var wire 8 #v byte2 $end
    $upscope $end
    $scope module changeWordOrder_1 $end
     $var wire 16 t hi $end
     $var wire 8 y byte1 $end
     $var wire 32 "9 io_in $end
     $var wire 32 "E io_out $end
     $var wire 8 "g byte3 $end
     $var wire 8 #1 byte0 $end
     $var wire 16 #S lo $end
     $var wire 8 $! byte2 $end
    $upscope $end
    $scope module changeWordOrder_4 $end
     $var wire 16 "- lo $end
     $var wire 8 "5 byte1 $end
     $var wire 32 "{ io_in $end
     $var wire 8 #% byte3 $end
     $var wire 32 #2 io_out $end
     $var wire 8 #F byte0 $end
     $var wire 16 #N hi $end
     $var wire 8 $> byte2 $end
    $upscope $end
  $upscope $end
  $scope module changeInput.changeWordOrder_7 $end
  $upscope $end
$upscope $end
$enddefinitions $end
$dumpvars
b00000000000000000000000000000000000000000000000000000000000000000000000000000000000000000000000000000000000000000000000000000000000000000000000000000000000000000000000000000000000000000000000000000000000000000000000000000000000000000000000000000000000000000000000000000000000000000000000000000000000000000000000000000000000000000000000000000000000000000000000000000000000000000000000000000000000000000000000000000000000000000000000000000000000000000000000000000000000000000000000000000000000000000000000000000000 #C
b0000000000000000 t
0$%
b0000000000000000 B
0"1
b00000000000000000000000000000000 #h
0#c
b00000000000000000000000000000000 "j
b00000000000000000000000000000000 #6
b00000000 #k
b00000000 #9
b00000000 ";
0$8
b00000000000000000000000000000000000000000000000000000000000000000000000000000000000000000000000000000000000000000000000000000000000000000000000000000000000000000000000000000000000000000000000000000000000000000000000000000000000000000000000000000000000000000000000000000000000000000000000000000000000000000000000000000000000000000000000000000000000000000000000000000000000000000000000000000000000000000000000000000000000000000000000000000000000000000000000000000000000000000000000000000000000000000000000000000000 j
b0000000000000000 @
b00000000 #g
b00000000000000000000000000000000000000000000000000000000000000000000000000000000000000000000000000000000000000000000000000000000000000000000000000000000000000000000000000000000000000000000000000000000000000000000000000000000000000000000000000000000000000000000000000000000000000000000000000000000000000000000000000000000000000000000000000000000000000000000000000000000000000000000000000000000000000000000000000000000000000000000000000000000000000000000000000000000000000000000000000000000000000000000000000000000 #R
b00000000 "T
b00000000 "7
b00000000000000000000000000000000 b
0#!
b00000000000000000000000000000000 E
b00000000000000000000000000000000 0
b0000000000000000 4
0/
b0000000000000000 #a
b00000000000000000000000000000000 "\
b00000000000000000000000000000000 "*
b00000000 P
b00000000 ;
b00000000000000000000000000000000 #s
0"<
b00000000000000000000000000000000 A
b00000000000000000000000000000000 #V
b0000000000000000 "|
b00000000000000000000000000000000 "&
b00000000 ~
b0000000000000000 "-
b00000000 a
b00000000 #v
b00000000 #n
b00000000 "x
b00000000 #Y
b00000000 "[
b00000000 "F
0#w
0p
0#0
0"2
b00000000 #M
b00000000 "W
b00000000 #8
b00000000000000000000000000000000 m
0$"
0"C
b00000000000000000000000000000000 #z
b0000000000000000 "n
b0000000000000000 #O
b00000000 [
0"?
b0000000000000000 3
b00000000000000000000000000000000 #D
b00000000 #G
b00000000 $(
0?
0#m
0"=
b00000000000000000000000000000000 #W
b00000000 #X
b0000000000000000 |
b00000000000000000000000000000000 "S
b00000000000000000000000000000000 #4
b00000000000000000000000000000000 "!
b00000000000000000000000000000000 >
b0000000000000000 "y
b0000000000000000 #Z
b00000000 #i
b00000000 {
b00000000 ^
b00000000 #7
0#@
b00000000000000000000000000000000 2
0"~
b00000000000000000000000000000000 "f
b00000000000000000000000000000000 #2
b0000000000000000 #N
b0000000000000000 r
b0000000000000000 #$
b0000000000000000 !
b00000000 Z
b00000000 "5
b00000000000000000000000000000000000000000000000000000000000000000000000000000000000000000000000000000000000000000000000000000000000000000000000000000000000000000000000000000000000000000000000000000000000000000000000000000000000000000000000000000000000000000000000000000000000000000000000000000000000000000000000000000000000000000000000000000000000000000000000000000000000000000000000000000000000000000000000000000000000000000000000000000000000000000000000000000000000000000000000000000000000000000000000000000000 #=
0#p
b00000000000000000000000000000000 $9
b00000000000000000000000000000000 "E
b0000000000000000 <
0"+
b00000000 #x
b00000000 $<
b00000000 #F
0#:
b00000000000000000000000000000000 ,
b00000000 #t
b00000000 i
b00000000 "a
b00000000 #B
b00000000 $#
b00000000 "D
b00000000 #%
b00000000 "'
b00000000000000000000000000000000 o
0#.
b00000000000000000000000000000000 =
0'
b00000000000000000000000000000000 #J
b00000000000000000000000000000000 #5
b00000000000000000000000000000000 ""
b00000000 "U
0$=
0M
08
b00000000000000000000000000000000 N
b00000000000000000000000000000000 "m
0#{
b0000000000000000 "t
b0000000000000000 #U
b00000000000000000000000000000000 "P
b0000000000000000 "%
b00000000 "p
b00000000 #I
b00000000000000000000000000000000000000000000000000000000000000000000000000000000000000000000000000000000000000000000000000000000000000000000000000000000000000000000000000000000000000000000000000000000000000000000000000000000000000000000000000000000000000000000000000000000000000000000000000000000000000000000000000000000000000000000000000000000000000000000000000000000000000000000000000000000000000000000000000000000000000000000000000000000000000000000000000000000000000000000000000000000000000000000000000000000 ")
0#o
b00000000 "6
0"G
b00000000000000000000000000000000 L
0$/
0"X
b00000000000000000000000000000000 ]
b00000000000000000000000000000000 #r
0*
b00000000000000000000000000000000 "_
b00000000000000000000000000000000 "B
b00000000000000000000000000000000 ##
b0000000000000000 #*
b00000000 h
b00000000 K
b00000000 .
b00000000000000000000000000000000 n
b00000000000000000000000000000000 Y
b0000000000000000 H
0#-
b0000000000000000 +
0&
b00000000000000000000000000000000 #Q
b00000000000000000000000000000000 $2
b0000000000000000 "w
b0000000000000000 #u
b00000000 y
b00000000 G
b00000000 #q
b00000000 "s
b00000000 "A
b00000000000000000000000000000000 #E
b00000000000000000000000000000000 $&
b00000000000000000000000000000000 l
0#H
0$)
0"J
b00000000000000000000000000000000 O
b00000000 "o
b00000000 #P
b00000000 $1
0g
0#'
b00000000000000000000000000000000 `
b0000000000000000 :
b00000000000000000000000000000000 ".
b0000000000000000 %
b0000000000000000 "q
b00000000 "c
b00000000 k
b00000000 V
0x
0":
b00000000 #1
b00000000000000000000000000000000 $5
b00000000 R
b0000000000000000000000000000000000000000000000000000000000000000 W
b00000000 #_
0#}
b0000000000000000000000000000000000000000000000000000000000000000 #<
b0000000000000000 "v
0#K
b00000000000000000000000000000000 "R
b00000000000000000000000000000000 #3
b0000000000000000 I
b00000000000000000000000000000000 (
b00000000 e
0#y
0#d
b0000000000000000 "r
b0000000000000000 #S
b00000000000000000000000000000000 "N
b00000000000000000000000000000000 #/
b00000000000000000000000000000000 "9
b00000000 v
b00000000 "Q
b00000000 D
0#&
b0000000000000000 9
b00000000000000000000000000000000 J
0"(
b00000000000000000000000000000000 "L
b0000000000000000 ">
b00000000 "M
b00000000 "0
0w
b00000000 #
0"V
b00000000000000000000000000000000 #[
b0000000000000000 #b
0"u
0$7
b00000000000000000000000000000000 "]
b0000000000000000 "d
b00000000000000000000000000000000 $4
b00000000000000000000000000000000 "@
b00000000000000000000000000000000 )
b00000000 f
b00000000 "}
b00000000000000000000000000000000000000000000000000000000000000000000000000000000000000000000000000000000000000000000000000000000000000000000000000000000000000000000000000000000000000000000000000000000000000000000000000000000000000000000000000000000000000000000000000000000000000000000000000000000000000000000000000000000000000000000000000000000000000000000000000000000000000000000000000000000000000000000000000000000000000000000000000000000000000000000000000000000000000000000000000000000000000000000000000000000 "h
b00000000 #^
b00000000 $?
b00000000 "`
b00000000 "K
b00000000 #A
b0000000000000000 z
0$+
0"i
b00000000000000000000000000000000000000000000000000000000000000000000000000000000000000000000000000000000000000000000000000000000000000000000000000000000000000000000000000000000000000000000000000000000000000000000000000000000000000000000000000000000000000000000000000000000000000000000000000000000000000000000000000000000000000000000000000000000000000000000000000000000000000000000000000000000000000000000000000000000000000000000000000000000000000000000000000000000000000000000000000000000000000000000000000000000 $;
b00000000 $3
b00000000 #(
0q
0"e
0$'
0T
0"H
0"3
0#)
b00000000000000000000000000000000 $.
b0000000000000000 #T
b00000000000000000000000000000000 "O
b0000000000000000 #"
b00000000 u
b0000000000000000 "$
b00000000000000000000000000000000000000000000000000000000000000000000000000000000000000000000000000000000000000000000000000000000000000000000000000000000000000000000000000000000000000000000000000000000000000000000000000000000000000000000000000000000000000000000000000000000000000000000000000000000000000000000000000000000000000000000000000000000000000000000000000000000000000000000000000000000000000000000000000000000000000000000000000000000000000000000000000000000000000000000000000000000000000000000000000000000 U
0"/
b00000000000000000000000000000000 $*
b0000000000000000 #e
b00000000000000000000000000000000 #,
b00000000000000000000000000000000000000000000000000000000000000000000000000000000000000000000000000000000000000000000000000000000 "#
b00000000 #~
b00000000 "k
b00000000 #L
b00000000 $-
0#j
0$6
b0000000000000000 }
b00000000000000000000000000000000 d
b00000000000000000000000000000000 \
b0000000000000000 6
b00000000000000000000000000000000 "{
b00000000000000000000000000000000 #\
b00000000 #]
b00000000 "g
b00000000 $>
b00000000 $!
0#f
0_
b00000000000000000000000000000000 X
b00000000000000000000000000000000 "Z
b00000000000000000000000000000000 #;
b00000000 c
b00000000 1
0S
b00000000000000000000000000000000000000000000000000000000000000000000000000000000000000000000000000000000000000000000000000000000 C
b00000000 #>
b00000000000000000000000000000000 7
b00000000000000000000000000000000 "
b0000000000000000 "z
b00000000 -
b0000000000000000 s
0"b
0$$
b00000000000000000000000000000000 #+
b00000000000000000000000000000000 #|
b00000000000000000000000000000000 5
b00000000 #`
b00000000 $,
b00000000000000000000000000000000 $:
b00000000 "8
0"^
0#?
b0000000000000000 "l
b00000000 "I
b00000000000000000000000000000000000000000000000000000000000000000000000000000000000000000000000000000000000000000000000000000000000000000000000000000000000000000000000000000000000000000000000000000000000000000000000000000000000000000000000000000000000000000000000000000000000000000000000000000000000000000000000000000000000000000000000000000000000000000000000000000000000000000000000000000000000000000000000000000000000000000000000000000000000000000000000000000000000000000000000000000000000000000000000000000000 "4
b00000000 Q
b00000000 ",
b0000000000000000 F
b00000000000000000000000000000000 #l
0$
b00000000000000000000000000000000 $0
b00000000000000000000000000000000 "Y
$end
#0
1"/
1#y
1g
1"3
18
1&
1#o
1#{
1#p
1"V
1#m
#1
1#j
1"u
1S
#6
0#j
0"u
0S
#11
1#j
1"u
1S
#16
0#j
0"u
0S
#21
1#j
1"u
1S
#26
0#j
0"u
0S
#31
1#j
1"u
1S
#36
0#j
0"u
0S
#41
1#j
1"u
1S
#46
0#j
0#y
0"3
0"u
0S
0"V
#51
1#j
1"u
1S
#56
0#j
0"u
0S
#61
1#j
1"u
1S
#66
0#j
0"u
0S
#71
1#j
1"u
1S
#76
0#j
0"u
0S
#81
1#j
1"u
1S
#86
0#j
0"u
0S
#91
1#j
1"u
1S
#96
0#j
0"u
0S
#101
1#j
1"u
1S
#106
0#j
0"u
0S
#111
1#j
1"u
1S
#116
0#j
0"u
0S
#121
1#j
1"u
1S
#126
0#j
0"u
0S
#131
1#j
1"u
1S
#136
0#j
0"u
0S
#141
1#j
1"u
1S
#146
1"^
0#j
0"u
0S
b00000000000000000000000000010001 "&
b00000000000000000000000000000000000000000000000000000000000000000000000000000000000000000000000000000000000000000000000000000000000000000000000000000000000000000000000000000000000000000000000000000000000000000000000000000000000000000000000000000000000000000000000000000000000000000000000000000000000000000000000000000000000000000000000000000000000000000000000000000000000000000000000000000000000000000000000000000000000000000000000000000000000000000000000000000000000000000000000000000000000000000000000000010001 "h
b00000000000000000000000000010001 $*
1$"
b00000000000000000000000000000000000000000000000000000000000000000000000000000000000000000000000000000000000000000000000000000000000000000000000000000000000000000000000000000000000000000000000000000000000000000000000000000000000000000000000000000000000000000000000000000000000000000000000000000000000000000000000000000000000000000000000000000000000000000000000000000000000000000000000000000000000000000000000000000000000000000000000000000000000000000000000000000000000000000000000000000000000000000000000000010001 j
b00000000000000000000000000010001 b
1"=
b00000000000000000000000000010001 $9
b00000000000000000000000000000000000000000000000000000000000000000000000000000000000000000000000000000000000000000000000000000000000000000000000000000000000000000000000000000000000000000000000000000000000000000000000000000000000000000000000000000000000000000000000000000000000000000000000000000000000000000000000000000000000000000000000000000000000000000000000000000000000000000000000000000000000000000000000000000000000000000000000000000000000000000000000000000000000000000000000000000000000000000000000000010001 #C
b00000000000000000000000000010001 #h
1"(
b00000000000000000000000000010001 "j
b00000000000000000000000000010001 ""
b00000000000000000000000000000000000000000000000000000000000000000000000000000000000000000000000000000000000000000000000000000000000000000000000000000000000000000000000000000000000000000000000000000000000000000000000000000000000000000000000000000000000000000000000000000000000000000000000000000000000000000000000000000000000000000000000000000000000000000000000000000000000000000000000000000000000000000000000000000000000000000000000000000000000000000000000000000000000000000000000000000000000000000000000000010001 #=
1#)
1$=
b00000000000000000000000000010001 $5
#151
1#j
b0001000100000000 "t
1#@
1"u
1S
1"X
b00000000000000000000000000010001 #W
1"<
b00010001000000000000000000000000 "Z
b00000000000000000000000000010001 0
b0001000100000000 ">
b00000000000000000000000000010001 d
b00010001 "7
b0001000100000000 H
b00000000000000000000000000010001 "N
b00010001000000000000000000000000 #/
1#0
1"2
1"e
1#d
1w
b00000000000000000000000000000000000000000000000000000000000000000000000000000000000000000000000000000000000000000000000000000000000000000000000000000000000000000000000000000000000000000000000000000000000000000000000000000000000000000000000000000000000000000000000000000000000000000000000000000000000000000000000000000000000000000000000000000000000000000000000000000000000000000000000000000000000000000000000000000000000000000000000000000000000000000000000000000000000000000000000000000000000000000000000000010001 "4
b00010001000000000000000000000000 E
0$"
b00000000000000000000000000010001 #,
1"~
b00000000000000000000000000010001 >
b00000000000000000000000000010001 )
1#-
0"/
b00000000000000000000000000000000000000000000000000000000000000000000000000000000000000000000000000000000000000000000000000000000000000000000000000000000000000000000000000000000000000000000000000000000000000000000000000000000000000000000000000000000000000000000000000000000000000000000000000000000000000000000000000000000000000000000000000000000000000000000000000000000000000000000000000000000000000000000000000000000000000000000000000000000000000000000000000000000000000000000000000000000000000000000000000010001 U
1$%
b00010001 "c
0"(
b00010001 V
b00000000000000000000000000000000000000000000000000000000000000000000000000000000000000000000000000000000000000000000000000000000000000000000000000000000000000000000000000000000000000000000000000000000000000000000000000000000000000000000000000000000000000000000000000000000000000000000000000000000000000000000000000000000000000000000000000000000000000000000000000000000000000000000000000000000000000000000000000000000000000000000000000000000000000000000000000000000000000000000000000000000000000000000000000010001 $;
b00000000000000000000000000000000000000000000000000000000000000000000000000000000000000000000000000000000000000000000000000000000000000000000000000000000000000000000000000000000000000000000000000000000000000000000000000000000000000000000000000000000000000000000000000000000000000000000000000000000000000000000000000000000000000000000000000000000000000000000000000000000000000000000000000000000000000000000000000000000000000000000000000000000000000000000000000000000000000000000000000000000000000000000000000010001 ")
b00000000000000000000000000010001 #[
b00000000000000000000000000010001 "]
1#!
#156
0#j
0"u
b00000000000000000000000000010010 #h
0S
b00000000000000000000000000010010 "&
b00000000000000000000000000010010 >
b00000000000000000000000000010010 )
#161
1#j
1$6
1"u
1S
1"C
0"X
1/
b00000000000000000000000000010010 b
b00000000000000000000000000000000000000000000000000000000000000000000000000000000000000000000000000000000000000000000000000000000000000000000000000000000000000000000000000000000000000000000000000000000000000000000000000000000000000000000000000000000000000000000000000000000000000000000000000000000000000000000000000000000000000000000000000000000000000000000000000000000000000000000000000000000000000000000000000000000000000000000000000000000000000000000000000000000000000000000000000000000000000000000000000010001 #R
1#K
b00000000000000000000000000010010 ""
b0001001000000000 H
b00000000000000000000000000010010 "N
b00010010000000000000000000000000 #/
1$/
1$'
0"e
0#d
1$"
0"~
0#-
1"/
1$$
b00000000000000000000000000010001 $:
0$%
b00010010 "c
1"(
0#o
b00000000000000000000000000010010 "*
#166
0#j
0"u
b00000000000000000000000000010011 #h
0S
b00000000000000000000000000010011 ""
b00000000000000000000000000010011 "&
b00000000000000000000000000010011 b
#171
0$/
1#j
0$6
1#d
0g
1"u
1S
0"C
b00000000000000000000000000010011 #W
1#:
0#m
0$"
1"~
b00000000000000000000000000010011 >
b00000000000000000000000000010011 )
1#-
1T
0"/
0$$
1$%
b00010011 "c
1#o
b0001001100000000 H
1"G
b00000000000000000000000000010011 "N
b00010011000000000000000000000000 #/
#176
0#j
0"u
b00000000000000000000000000010100 #h
0S
b00000000000000000000000000010100 "&
b00000000000000000000000000010100 >
b00000000000000000000000000010100 )
#181
1#j
1"/
1"u
08
1S
1"C
b00000000000000000000000000010100 ""
0#p
b00000000000000000000000000010100 "*
0"~
1"H
1q
#186
0#j
0"u
b00000000000000000000000000010101 #h
0S
b00000000000000000000000000010101 ""
b00000000000000000000000000010101 "&
#191
1#j
1"u
1S
#196
0#j
0"u
b00000000000000000000000000010110 #h
0S
b00000000000000000000000000010110 ""
b00000000000000000000000000010110 "&
