tested/Computing/simple.TestComputing417611169/Computing.vcd
$date
2021-08-16T15:27+0000
$end
$version
0.2
$end
$comment

$end
$timescale 1ns  $end
$scope module Computing $end
 $var wire 2 ! stateReg $end
 $var wire 32 " _GEN_16 $end
 $var wire 4 # _GEN_2 $end
 $var wire 2 $ _GEN_10 $end
 $var wire 1 % io_in_ready $end
 $var wire 4 & cntReg $end
 $var wire 1 ' io_out_ready $end
 $var wire 32 ( io_out_bits_x $end
 $var wire 4 ) _GEN_5 $end
 $var wire 35 * _GEN_13 $end
 $var wire 36 + _GEN_8 $end
 $var wire 32 , yReg $end
 $var wire 36 - _GEN_12 $end
 $var wire 2 . _GEN_15 $end
 $var wire 2 / _GEN_7 $end
 $var wire 32 0 io_in_bits_y $end
 $var wire 32 1 _GEN_1 $end
 $var wire 2 2 _GEN_4 $end
 $var wire 1 3 clock $end
 $var wire 1 4 io_in_valid $end
 $var wire 32 5 _GEN_17 $end
 $var wire 1 6 io_out_valid $end
 $var wire 4 7 _GEN_11 $end
 $var wire 32 8 xReg $end
 $var wire 4 9 _GEN_14 $end
 $var wire 32 : io_out_bits_y $end
 $var wire 2 ; _GEN_6 $end
 $var wire 32 < _GEN_0 $end
 $var wire 32 = io_in_bits_x $end
 $var wire 35 > _GEN_9 $end
 $var wire 1 ? reset $end
 $var wire 2 @ _GEN_3 $end
$upscope $end
$enddefinitions $end
$dumpvars
0%
b00 .
b000000000000000000000000000000000000 +
b00000000000000000000000000000000 <
b00000000000000000000000000000000 =
0'
b00000000000000000000000000000000 (
b00000000000000000000000000000000000 >
b0000 )
b00000000000000000000000000000000000 *
b0000 7
06
b00000000000000000000000000000000 "
b0000 #
b00 @
b00000000000000000000000000000000 8
b0000 9
b00 $
b00000000000000000000000000000000 :
b00 ;
03
04
b00000000000000000000000000000000 5
b00 !
b00 /
b00000000000000000000000000000000 0
b00000000000000000000000000000000 1
b000000000000000000000000000000000000 -
b00 2
0?
b00000000000000000000000000000000 ,
b0000 &
$end
#0
1?
1%
b0001 )
#1
13
#6
03
#11
13
#16
03
#21
13
#26
03
#31
13
#36
03
#41
13
#46
03
b000000000000000000000000000000001010 -
b00000000000000000000000000001010 <
14
b01 .
b00000000000000000000000000000101 5
1'
b00000000000000000000000000001010 =
b00000000000000000000000000000101 0
0?
b00000000000000000000000000001010 "
b00000000000000000000000000000101 1
b01 @
b0001 #
b00000000000000000000000000000000101 *
b0001 9
#51
13
b000000000000000000000000000001000001 -
0%
b0001 &
b00000000000000000000000000010100 5
b00000000000000000000000000001010 (
b0010 7
b01 /
b00000000000000000000000000000010100 >
b0010 )
b01 !
b00000000000000000000000001000001 "
b00000000000000000000000000001010 8
b01 2
b00000000000000000000000000000010100 *
b0010 9
b01 $
b000000000000000000000000000001000001 +
b00000000000000000000000000000101 :
b00000000000000000000000000000101 ,
#56
03
04
#61
13
b000000000000000000000000000110000001 -
b00000000000000000000000001000001 <
b0010 &
b00000000000000000000000010011011 5
b00000000000000000000000001000001 (
b0011 7
b00000000000000000000000000010011011 >
b0011 )
b00000000000000000000000110000001 "
b00000000000000000000000000010100 1
b00000000000000000000000001000001 8
b0010 #
b00000000000000000000000000010011011 *
b0011 9
b000000000000000000000000000110000001 +
b00000000000000000000000000010100 :
b00000000000000000000000000010100 ,
#66
03
#71
13
b000000000000000000000000100101010110 -
b00000000000000000000000110000001 <
b0011 &
b00000000000000000000001101001101 5
b00000000000000000000000110000001 (
b0100 7
b00000000000000000000000001101001101 >
b0100 )
b00000000000000000000100101010110 "
b00000000000000000000000010011011 1
b00000000000000000000000110000001 8
b0011 #
b00000000000000000000000001101001101 *
b0100 9
b000000000000000000000000100101010110 +
b00000000000000000000000010011011 :
b00000000000000000000000010011011 ,
#76
03
#81
13
b000000000000000000000011100010010101 -
b00000000000000000000100101010110 <
b0100 &
b00000000000000000001010101101000 5
b00000000000000000000100101010110 (
b0101 7
b00000000000000000000001010101101000 >
b0101 )
b00000000000000000011100010010101 "
b00000000000000000000001101001101 1
b00000000000000000000100101010110 8
b0100 #
b00000000000000000000001010101101000 *
b0101 9
b000000000000000000000011100010010101 +
b00000000000000000000001101001101 :
b00000000000000000000001101001101 ,
#86
03
#91
13
b000000000000000000010101101100100001 -
b00000000000000000011100010010101 <
b0101 &
b00000000000000000111111011101111 5
b00000000000000000011100010010101 (
b0110 7
b00000000000000000000111111011101111 >
b0110 )
b00000000000000010101101100100001 "
b00000000000000000001010101101000 1
b00000000000000000011100010010101 8
b0101 #
b00000000000000000000111111011101111 *
b0110 9
b000000000000000000010101101100100001 +
b00000000000000000001010101101000 :
b00000000000000000001010101101000 ,
#96
03
#101
13
b000000000000000010000100010001110010 -
b00000000000000010101101100100001 <
b0110 &
b00000000000000110001001110000101 5
b00000000000000010101101100100001 (
b0111 7
b00000000000000000110001001110000101 >
b0111 )
b00000000000010000100010001110010 "
b00000000000000000111111011101111 1
b00000000000000010101101100100001 8
b0110 #
b00000000000000000110001001110000101 *
b0111 9
b000000000000000010000100010001110010 +
b00000000000000000111111011101111 :
b00000000000000000111111011101111 ,
#106
03
#111
13
b000000000000001100101001000011001001 -
b00000000000010000100010001110010 <
b0111 &
b00000000000100101010011001001100 5
b00000000000010000100010001110010 (
b1000 7
b00000000000000100101010011001001100 >
b1000 )
b00000000001100101001000011001001 "
b00000000000000110001001110000101 1
b00000000000010000100010001110010 8
b0111 #
b00000000000000100101010011001001100 *
b1000 9
b000000000000001100101001000011001001 +
b00000000000000110001001110000101 :
b00000000000000110001001110000101 ,
#116
03
#121
13
b000000000001001101001100011011010001 -
b00000000001100101001000011001001 <
b10 .
b1000 &
b00000000011100100110010111000011 5
b00000000001100101001000011001001 (
b00000000000011100100110010111000011 >
b00000001001101001100011011010001 "
b00000000000100101010011001001100 1
b00000000001100101001000011001001 8
b1000 #
b10 2
b00000000000011100100110010111000011 *
b10 $
b000000000001001101001100011011010001 +
b00000000000100101010011001001100 :
b00000000000100101010011001001100 ,
#126
03
#131
13
b10 !
b00000001001101001100011011010001 <
b00000000011100100110010111000011 1
b10 @
b00 .
b00000001001101001100011011010001 8
16
b00 $
b00000000011100100110010111000011 :
b00000001001101001100011011010001 (
b00 /
b00000000011100100110010111000011 ,
#136
03
#141
13
b00 !
1%
b00 @
06
#146
03
#151
13
#156
03
#161
13
#166
03
#171
13
#176
03
#181
13
#186
03
#191
13
#196
03
#201
13
#206
03
b000000000000000000000000000000000001 -
b00000000000000000000000000000001 <
14
b01 .
b00000000000000000000000000000000 5
b00000000000000000000000000000001 =
b00000000000000000000000000000000 0
b00000000000000000000000000000001 "
b00000000000000000000000000000000 1
b01 @
b0001 #
b00000000000000000000000000000000000 *
b0001 9
#211
13
b000000000000000000000000000000000101 -
0%
b0001 &
b00000000000000000000000000000011 5
b00000000000000000000000000000001 (
b0010 7
b01 /
b00000000000000000000000000000000011 >
b0010 )
b01 !
b00000000000000000000000000000101 "
b00000000000000000000000000000001 8
b01 2
b00000000000000000000000000000000011 *
b0010 9
b01 $
b000000000000000000000000000000000101 +
b00000000000000000000000000000000 :
b00000000000000000000000000000000 ,
#216
03
04
#221
13
b000000000000000000000000000000100010 -
b00000000000000000000000000000101 <
b0010 &
b00000000000000000000000000001001 5
b00000000000000000000000000000101 (
b0011 7
b00000000000000000000000000000001001 >
b0011 )
b00000000000000000000000000100010 "
b00000000000000000000000000000011 1
b00000000000000000000000000000101 8
b0010 #
b00000000000000000000000000000001001 *
b0011 9
b000000000000000000000000000000100010 +
b00000000000000000000000000000011 :
b00000000000000000000000000000011 ,
#226
03
#231
13
b000000000000000000000000000011000101 -
b00000000000000000000000000100010 <
b0011 &
b00000000000000000000000001010100 5
b00000000000000000000000000100010 (
b0100 7
b00000000000000000000000000001010100 >
b0100 )
b00000000000000000000000011000101 "
b00000000000000000000000000001001 1
b00000000000000000000000000100010 8
b0011 #
b00000000000000000000000000001010100 *
b0100 9
b000000000000000000000000000011000101 +
b00000000000000000000000000001001 :
b00000000000000000000000000001001 ,
#236
03
#241
13
b000000000000000000000000010011010101 -
b00000000000000000000000011000101 <
b0100 &
b00000000000000000000000110100111 5
b00000000000000000000000011000101 (
b0101 7
b00000000000000000000000000110100111 >
b0101 )
b00000000000000000000010011010101 "
b00000000000000000000000001010100 1
b00000000000000000000000011000101 8
b0100 #
b00000000000000000000000000110100111 *
b0101 9
b000000000000000000000000010011010101 +
b00000000000000000000000001010100 :
b00000000000000000000000001010100 ,
#246
03
#251
13
b000000000000000000000001110100011110 -
b00000000000000000000010011010101 <
b0101 &
b00000000000000000000101100110001 5
b00000000000000000000010011010101 (
b0110 7
b00000000000000000000000101100110001 >
b0110 )
b00000000000000000001110100011110 "
b00000000000000000000000110100111 1
b00000000000000000000010011010101 8
b0101 #
b00000000000000000000000101100110001 *
b0110 9
b000000000000000000000001110100011110 +
b00000000000000000000000110100111 :
b00000000000000000000000110100111 ,
#256
03
#261
13
b000000000000000000001011001100101001 -
b00000000000000000001110100011110 <
b0110 &
b00000000000000000100000011111000 5
b00000000000000000001110100011110 (
b0111 7
b00000000000000000000100000011111000 >
b0111 )
b00000000000000001011001100101001 "
b00000000000000000000101100110001 1
b00000000000000000001110100011110 8
b0110 #
b00000000000000000000100000011111000 *
b0111 9
b000000000000000000001011001100101001 +
b00000000000000000000101100110001 :
b00000000000000000000101100110001 ,
#266
03
#271
13
b000000000000000001000100001010110101 -
b00000000000000001011001100101001 <
b0111 &
b00000000000000011001011110001011 5
b00000000000000001011001100101001 (
b1000 7
b00000000000000000011001011110001011 >
b1000 )
b00000000000001000100001010110101 "
b00000000000000000100000011111000 1
b00000000000000001011001100101001 8
b0111 #
b00000000000000000011001011110001011 *
b1000 9
b000000000000000001000100001010110101 +
b00000000000000000100000011111000 :
b00000000000000000100000011111000 ,
#276
03
#281
13
b000000000000000110100001010000101010 -
b00000000000001000100001010110101 <
b10 .
b1000 &
b00000000000010011001100100001001 5
b00000000000001000100001010110101 (
b00000000000000010011001100100001001 >
b00000000000110100001010000101010 "
b00000000000000011001011110001011 1
b00000000000001000100001010110101 8
b1000 #
b10 2
b00000000000000010011001100100001001 *
b10 $
b000000000000000110100001010000101010 +
b00000000000000011001011110001011 :
b00000000000000011001011110001011 ,
#286
03
#291
13
b10 !
b00000000000110100001010000101010 <
b00000000000010011001100100001001 1
b10 @
b00 .
b00000000000110100001010000101010 8
16
b00 $
b00000000000010011001100100001001 :
b00000000000110100001010000101010 (
b00 /
b00000000000010011001100100001001 ,
#296
03
#301
13
b00 !
1%
b00 @
06
#306
03
#311
13
#316
03
b000000000000000000000000000000000000 -
b00000000000000000000000000000000 <
14
b01 .
b00000000000000000000000000000001 5
b00000000000000000000000000000000 =
b00000000000000000000000000000001 0
b00000000000000000000000000000000 "
b00000000000000000000000000000001 1
b01 @
b0001 #
b00000000000000000000000000000000001 *
b0001 9
#321
13
b000000000000000000000000000000000011 -
0%
b0001 &
b11111111111111111111111111111110 5
b00000000000000000000000000000000 (
b0010 7
b01 /
b11111111111111111111111111111111110 >
b0010 )
b01 !
b00000000000000000000000000000011 "
b00000000000000000000000000000000 8
b01 2
b11111111111111111111111111111111110 *
b0010 9
b01 $
b000000000000000000000000000000000011 +
b00000000000000000000000000000001 :
b00000000000000000000000000000001 ,
#326
03
04
#331
13
b000000000000000000000000000000001001 -
b00000000000000000000000000000011 <
b0010 &
b00000000000000000000000000001101 5
b00000000000000000000000000000011 (
b0011 7
b00000000000000000000000000000001101 >
b0011 )
b00000000000000000000000000001001 "
b11111111111111111111111111111110 1
b00000000000000000000000000000011 8
b0010 #
b00000000000000000000000000000001101 *
b0011 9
b000000000000000000000000000000001001 +
b11111111111111111111111111111110 :
b11111111111111111111111111111110 ,
#336
03
#341
13
b000000000000000000000000000001010100 -
b00000000000000000000000000001001 <
b0011 &
b00000000000000000000000000000001 5
b00000000000000000000000000001001 (
b0100 7
b00000000000000000000000000000000001 >
b0100 )
b00000000000000000000000001010100 "
b00000000000000000000000000001101 1
b00000000000000000000000000001001 8
b0011 #
b00000000000000000000000000000000001 *
b0100 9
b000000000000000000000000000001010100 +
b00000000000000000000000000001101 :
b00000000000000000000000000001101 ,
#346
03
#351
13
b000000000000000000000000000110100111 -
b00000000000000000000000001010100 <
b0100 &
b00000000000000000000000011111010 5
b00000000000000000000000001010100 (
b0101 7
b00000000000000000000000000011111010 >
b0101 )
b00000000000000000000000110100111 "
b00000000000000000000000000000001 1
b00000000000000000000000001010100 8
b0100 #
b00000000000000000000000000011111010 *
b0101 9
b000000000000000000000000000110100111 +
b00000000000000000000000000000001 :
b00000000000000000000000000000001 ,
#356
03
#361
13
b000000000000000000000000101100110001 -
b00000000000000000000000110100111 <
b0101 &
b00000000000000000000001100000001 5
b00000000000000000000000110100111 (
b0110 7
b00000000000000000000000001100000001 >
b0110 )
b00000000000000000000101100110001 "
b00000000000000000000000011111010 1
b00000000000000000000000110100111 8
b0101 #
b00000000000000000000000001100000001 *
b0110 9
b000000000000000000000000101100110001 +
b00000000000000000000000011111010 :
b00000000000000000000000011111010 ,
#366
03
#371
13
b000000000000000000000100000011111000 -
b00000000000000000000101100110001 <
b0110 &
b00000000000000000001101110010001 5
b00000000000000000000101100110001 (
b0111 7
b00000000000000000000001101110010001 >
b0111 )
b00000000000000000100000011111000 "
b00000000000000000000001100000001 1
b00000000000000000000101100110001 8
b0110 #
b00000000000000000000001101110010001 *
b0111 9
b000000000000000000000100000011111000 +
b00000000000000000000001100000001 :
b00000000000000000000001100000001 ,
#376
03
#381
13
b000000000000000000011001011110001011 -
b00000000000000000100000011111000 <
b0111 &
b00000000000000001000101111000110 5
b00000000000000000100000011111000 (
b1000 7
b00000000000000000001000101111000110 >
b1000 )
b00000000000000011001011110001011 "
b00000000000000000001101110010001 1
b00000000000000000100000011111000 8
b0111 #
b00000000000000000001000101111000110 *
b1000 9
b000000000000000000011001011110001011 +
b00000000000000000001101110010001 :
b00000000000000000001101110010001 ,
#386
03
#391
13
b000000000000000010011001100100001001 -
b00000000000000011001011110001011 <
b10 .
b1000 &
b00000000000000111010111100010101 5
b00000000000000011001011110001011 (
b00000000000000000111010111100010101 >
b00000000000010011001100100001001 "
b00000000000000001000101111000110 1
b00000000000000011001011110001011 8
b1000 #
b10 2
b00000000000000000111010111100010101 *
b10 $
b000000000000000010011001100100001001 +
b00000000000000001000101111000110 :
b00000000000000001000101111000110 ,
#396
03
#401
13
b10 !
b00000000000010011001100100001001 <
b00000000000000111010111100010101 1
b10 @
b00 .
b00000000000010011001100100001001 8
16
b00 $
b00000000000000111010111100010101 :
b00000000000010011001100100001001 (
b00 /
b00000000000000111010111100010101 ,
#406
03
#411
13
b00 !
1%
b00 @
06
