tested/Test/Test99713622/Test.vcd
$date
2021-08-23T20:14+0000
$end
$version
0.2
$end
$comment

$end
$timescale 1ns  $end
$scope module Test $end
 $var wire 1 ! _T $end
 $var wire 1 " io_B $end
 $var wire 32 # io_out1 $end
 $var wire 1 $ io_output_valid $end
 $var wire 1 % io_A $end
 $var wire 1 & clock $end
 $var wire 32 ' io_data $end
 $var wire 1 ( io_input_ready $end
 $var wire 1 ) reset $end
 $var wire 1 * io_out2 $end
$upscope $end
$enddefinitions $end
$dumpvars
0%
0"
b00000000000000000000000000000000 #
0)
0&
b00000000000000000000000000000000 '
0*
0$
0!
0(
$end
#0
1)
#1
1&
#6
0&
#11
1&
#16
0&
#21
1&
#26
0&
#31
1&
#36
0&
#41
1&
#46
0&
0)
#51
1&
#56
0&
#61
1&
#66
0&
#71
1&
#76
0&
#81
1&
#86
0&
#91
1&
#96
0&
#101
1&
#106
0&
#111
1&
#116
0&
#121
1&
#126
0&
#131
1&
#136
0&
#141
1&
#146
0&
#151
1&
#156
0&
#161
1&
#166
0&
#171
1&
#176
0&
#181
1&
#186
0&
#191
1&
#196
1!
0&
b00000000000000000000000000001111 #
b00000000000000000000000000001111 '
1$
1(
#201
1&
#206
0!
0&
b00000000000000000000000000000000 #
b00000000000000000000000000000000 '
0$
0(
#211
1&
#216
0&
#221
1&
#226
0&
#231
1&
#236
0&
#241
1&
#246
0&
#251
1&
#256
0&
#261
1&
#266
0&
#271
1&
#276
0&
#281
1&
#286
0&
#291
1&
#296
0&
#301
1&
#306
0&
#311
1&
#316
0&
#321
1&
#326
0&
#331
1&
#336
0&
#341
1&
#346
0&
#351
1&
#356
1%
0&
#361
1&
#366
0%
0&
#371
1&
#376
0&
#381
1&
#386
1"
0&
#391
1&
#396
0"
0&
