tested/Computing/simple.TestComputing1506453487/Computing.vcd
$date
2021-07-07T16:41+0000
$end
$version
0.2
$end
$comment

$end
$timescale 1ns  $end
$scope module Computing $end
 $var wire 2 ! stateReg $end
 $var wire 32 " _GEN_16 $end
 $var wire 2 # _GEN_2 $end
 $var wire 2 $ _GEN_10 $end
 $var wire 1 % io_in_ready $end
 $var wire 2 & cntReg $end
 $var wire 1 ' io_out_ready $end
 $var wire 32 ( io_out_bits_x $end
 $var wire 2 ) _GEN_5 $end
 $var wire 35 * _GEN_13 $end
 $var wire 36 + _GEN_8 $end
 $var wire 32 , yReg $end
 $var wire 36 - _GEN_12 $end
 $var wire 2 . _GEN_15 $end
 $var wire 2 / _GEN_7 $end
 $var wire 32 0 io_in_bits_y $end
 $var wire 32 1 _GEN_1 $end
 $var wire 2 2 _GEN_4 $end
 $var wire 1 3 clock $end
 $var wire 1 4 io_in_valid $end
 $var wire 32 5 _GEN_17 $end
 $var wire 1 6 io_out_valid $end
 $var wire 2 7 _GEN_11 $end
 $var wire 32 8 xReg $end
 $var wire 2 9 _GEN_14 $end
 $var wire 32 : io_out_bits_y $end
 $var wire 2 ; _GEN_6 $end
 $var wire 32 < _GEN_0 $end
 $var wire 32 = io_in_bits_x $end
 $var wire 35 > _GEN_9 $end
 $var wire 1 ? reset $end
 $var wire 2 @ _GEN_3 $end
$upscope $end
$enddefinitions $end
$dumpvars
0%
b00 .
b00 &
b000000000000000000000000000000000000 +
b00000000000000000000000000000000 <
b00000000000000000000000000000000 =
0'
b00000000000000000000000000000000 (
b00000000000000000000000000000000000 >
b00000000000000000000000000000000000 *
b00 )
06
b00000000000000000000000000000000 "
b00 @
b00000000000000000000000000000000 8
b00 #
b00 9
b00 $
b00000000000000000000000000000000 :
b00 ;
03
04
b00000000000000000000000000000000 5
b00 !
b00 7
b00 /
b00000000000000000000000000000000 0
b00000000000000000000000000000000 1
b000000000000000000000000000000000000 -
b00 2
0?
b00000000000000000000000000000000 ,
$end
#0
1?
1%
b01 )
#1
13
#6
03
#11
13
#16
03
#21
13
#26
03
#31
13
#36
03
#41
13
#46
03
b000000000000000000000000000000001010 -
b00000000000000000000000000001010 <
14
b01 .
b00000000000000000000000000000101 5
1'
b00000000000000000000000000001010 =
b00000000000000000000000000000101 0
0?
b00000000000000000000000000001010 "
b00000000000000000000000000000101 1
b01 @
b01 #
b00000000000000000000000000000000101 *
b01 9
#51
13
b000000000000000000000000000001000001 -
0%
b01 &
b00000000000000000000000000010100 5
b00000000000000000000000000001010 (
b10 7
b01 /
b00000000000000000000000000000010100 >
b10 )
b01 !
b00000000000000000000000001000001 "
b00000000000000000000000000001010 8
b01 2
b00000000000000000000000000000010100 *
b10 9
b01 $
b000000000000000000000000000001000001 +
b00000000000000000000000000000101 :
b00000000000000000000000000000101 ,
#56
03
04
#61
13
b000000000000000000000000000110000001 -
b00000000000000000000000001000001 <
b10 .
b10 &
b00000000000000000000000010011011 5
b00000000000000000000000001000001 (
b00000000000000000000000000010011011 >
b00000000000000000000000110000001 "
b00000000000000000000000000010100 1
b00000000000000000000000001000001 8
b10 #
b10 2
b00000000000000000000000000010011011 *
b10 $
b000000000000000000000000000110000001 +
b00000000000000000000000000010100 :
b00000000000000000000000000010100 ,
#66
03
#71
13
b10 !
b00000000000000000000000110000001 <
b00000000000000000000000010011011 1
b10 @
b00 .
b00000000000000000000000110000001 8
16
b00 $
b00000000000000000000000010011011 :
b00000000000000000000000110000001 (
b00 /
b00000000000000000000000010011011 ,
#76
03
#81
13
b00 !
1%
b00 @
06
#86
03
#91
13
#96
03
#101
13
#106
03
#111
13
#116
03
#121
13
#126
03
#131
13
#136
03
#141
13
#146
03
#151
13
#156
03
b000000000000000000000000000000000001 -
b00000000000000000000000000000001 <
14
b01 .
b00000000000000000000000000000000 5
b00000000000000000000000000000001 =
b00000000000000000000000000000000 0
b00000000000000000000000000000001 "
b00000000000000000000000000000000 1
b01 @
b01 #
b00000000000000000000000000000000000 *
b01 9
#161
13
b000000000000000000000000000000000101 -
0%
b01 &
b00000000000000000000000000000011 5
b00000000000000000000000000000001 (
b01 /
b00000000000000000000000000000000011 >
b01 !
b00000000000000000000000000000101 "
b00000000000000000000000000000001 8
b01 2
b00000000000000000000000000000000011 *
b10 9
b01 $
b000000000000000000000000000000000101 +
b00000000000000000000000000000000 :
b00000000000000000000000000000000 ,
#166
03
04
#171
13
b000000000000000000000000000000100010 -
b00000000000000000000000000000101 <
b10 .
b10 &
b00000000000000000000000000001001 5
b00000000000000000000000000000101 (
b00000000000000000000000000000001001 >
b00000000000000000000000000100010 "
b00000000000000000000000000000011 1
b00000000000000000000000000000101 8
b10 #
b10 2
b00000000000000000000000000000001001 *
b10 $
b000000000000000000000000000000100010 +
b00000000000000000000000000000011 :
b00000000000000000000000000000011 ,
#176
03
#181
13
b10 !
b00000000000000000000000000100010 <
b00000000000000000000000000001001 1
b10 @
b00 .
b00000000000000000000000000100010 8
16
b00 $
b00000000000000000000000000001001 :
b00000000000000000000000000100010 (
b00 /
b00000000000000000000000000001001 ,
#186
03
#191
13
b00 !
1%
b00 @
06
#196
03
#201
13
#206
03
#211
13
#216
03
#221
13
#226
03
#231
13
#236
03
#241
13
#246
03
#251
13
#256
03
#261
13
#266
03
b000000000000000000000000000000000000 -
b00000000000000000000000000000000 <
14
b01 .
b00000000000000000000000000000001 5
b00000000000000000000000000000000 =
b00000000000000000000000000000001 0
b00000000000000000000000000000000 "
b00000000000000000000000000000001 1
b01 @
b01 #
b00000000000000000000000000000000001 *
b01 9
#271
13
b000000000000000000000000000000000011 -
0%
b01 &
b11111111111111111111111111111110 5
b00000000000000000000000000000000 (
b01 /
b11111111111111111111111111111111110 >
b01 !
b00000000000000000000000000000011 "
b00000000000000000000000000000000 8
b01 2
b11111111111111111111111111111111110 *
b10 9
b01 $
b000000000000000000000000000000000011 +
b00000000000000000000000000000001 :
b00000000000000000000000000000001 ,
#276
03
04
#281
13
b000000000000000000000000000000001001 -
b00000000000000000000000000000011 <
b10 .
b10 &
b00000000000000000000000000001101 5
b00000000000000000000000000000011 (
b00000000000000000000000000000001101 >
b00000000000000000000000000001001 "
b11111111111111111111111111111110 1
b00000000000000000000000000000011 8
b10 #
b10 2
b00000000000000000000000000000001101 *
b10 $
b000000000000000000000000000000001001 +
b11111111111111111111111111111110 :
b11111111111111111111111111111110 ,
#286
03
#291
13
b10 !
b00000000000000000000000000001001 <
b00000000000000000000000000001101 1
b10 @
b00 .
b00000000000000000000000000001001 8
16
b00 $
b00000000000000000000000000001101 :
b00000000000000000000000000001001 (
b00 /
b00000000000000000000000000001101 ,
#296
03
#301
13
b00 !
1%
b00 @
06
