tested/Multiplier/MultiplierTest1837288098/Multiplier.vcd
$date
2021-07-05T09:02+0000
$end
$version
0.2
$end
$comment

$end
$timescale 1ns  $end
$scope module Multiplier $end
 $var wire 2 ! stateReg $end
 $var wire 2 " _GEN_22 $end
 $var wire 2 # xMul $end
 $var wire 4 $ resMul $end
 $var wire 2 % _GEN_16 $end
 $var wire 2 & _GEN_2 $end
 $var wire 2 ' _GEN_10 $end
 $var wire 1 ( io_in_ready $end
 $var wire 11 ) _GEN_31 $end
 $var wire 11 * _GEN_25 $end
 $var wire 2 + _GEN_19 $end
 $var wire 1 , io_out_ready $end
 $var wire 2 - _GEN_5 $end
 $var wire 8 . _GEN_13 $end
 $var wire 8 / _GEN_8 $end
 $var wire 2 0 multStageReg $end
 $var wire 2 1 y1 $end
 $var wire 2 2 _GEN_24 $end
 $var wire 2 3 _GEN_27 $end
 $var wire 8 4 _GEN_33 $end
 $var wire 2 5 _GEN_12 $end
 $var wire 2 6 _GEN_15 $end
 $var wire 2 7 _GEN_7 $end
 $var wire 2 8 _GEN_21 $end
 $var wire 4 9 io_in_bits_y $end
 $var wire 8 : io_out_bits $end
 $var wire 11 ; _GEN_18 $end
 $var wire 2 < _GEN_1 $end
 $var wire 2 = _GEN_4 $end
 $var wire 2 > yMul $end
 $var wire 1 ? clock $end
 $var wire 2 @ x1 $end
 $var wire 1 A io_in_valid $end
 $var wire 2 B _GEN_23 $end
 $var wire 2 C y0 $end
 $var wire 1 D io_out_valid $end
 $var wire 2 E _GEN_17 $end
 $var wire 2 F _GEN_26 $end
 $var wire 2 G _GEN_32 $end
 $var wire 2 H _GEN_11 $end
 $var wire 2 I _GEN_20 $end
 $var wire 2 J _GEN_14 $end
 $var wire 2 K _GEN_6 $end
 $var wire 4 L io_in_bits_x $end
 $var wire 2 M _GEN_0 $end
 $var wire 2 N _GEN_9 $end
 $var wire 1 O reset $end
 $var wire 8 P _GEN_3 $end
 $var wire 8 Q resReg $end
 $var wire 6 R _GEN_34 $end
 $var wire 2 S _GEN_28 $end
 $var wire 2 T x0 $end
$upscope $end
$enddefinitions $end
$dumpvars
b00000000 .
b00 &
b00000000 /
b00 '
b00 E
b00000000000 ;
b00 =
b00 >
b00 T
b00 "
b00 @
b0000 9
b00 #
b0000 $
b00 %
0O
b000000 R
b00 <
b00 5
b00 S
b00 K
b00 6
b0000 L
b00 !
b00 7
b00 M
0D
b00 8
b00 0
b00 N
b00 F
b00 1
0(
b00000000 :
b00 G
b00 2
b00000000 P
b00 H
b00 3
b00000000 Q
b00000000000 )
b00 +
0?
b00000000 4
b00000000000 *
b00 I
b00 J
0A
0,
b00 B
b00 -
b00 C
$end
#0
1O
b01 +
1(
#1
1?
#6
0?
#11
1?
#16
0?
#21
1?
#26
0?
#31
1?
#36
0?
#41
1?
#46
b11 %
b10 C
b01 S
b01 E
b1111 L
b01 M
b11 T
0?
b01 1
b11 @
b0110 9
0O
1A
1,
#51
b01 3
b11 B
b01 -
b00110000 4
b001100 R
b01 '
b01 6
0(
b01 >
b00000110000 )
b01 !
1?
b01 "
b01 F
b01 G
b01 2
b11 #
b00000110000 *
b0011 $
b01 I
b00000110000 ;
#56
0?
0A
#61
b00110000 Q
b00111100 .
b10 J
b01 5
b01 =
b00110000 /
b00000111100 )
b01 0
1?
b01 N
b10 F
b10 G
b00000111100 *
b11 H
b10 +
b00110000 :
b00110000 P
b00000111100 ;
#66
0?
#71
b00111100 Q
b01100000 4
b011000 R
b01010100 .
b11 J
b10 5
b11 K
b10 E
b10 =
b10 7
b01010100 /
b10 >
b00001010100 )
b10 0
1?
b11 N
b11 F
b11 G
b10 2
b00001010100 *
b0110 $
b11 +
b00111100 :
b00111100 P
b00001010100 ;
#76
0?
#81
b10 3
b01010100 Q
b11 <
b10 -
b01011010 .
b10 &
b00 J
b10 S
b10 '
b10 6
b00 =
b01011010 /
b00001011010 )
b11 0
1?
b00 N
b00 F
b00 G
b00001011010 *
b00 +
b01010100 :
b10 I
b01011010 P
b00001011010 ;
#86
0?
#91
b00 3
b00 B
b01011010 Q
b00 <
b00000000 4
b000000 R
b00 &
b00 5
1D
b00 S
b00 K
b01 E
b00 7
b00 >
b10 M
b10 !
b00 0
1?
b00 "
b00 #
b00 2
b00 H
b0000 $
b01 +
b01011010 :
b00000000000 ;
#96
0?
#101
b00 !
1?
b00 -
0D
b00 '
b00 6
1(
b00 I
b00 M
#106
0?
#111
1?
#116
0?
#121
1?
#126
0?
#131
1?
#136
0?
#141
1?
#146
0?
#151
1?
#156
0?
b00 1
b00 C
b01 S
b0000 9
b00 E
1A
b01 M
#161
b01 3
b11 B
b01 -
b01 '
b01 6
0(
b00000000000 )
b01 !
1?
b01 "
b01 F
b01 G
b11 #
b00000000000 *
b01 I
#166
0?
0A
#171
b00000000 Q
b00000000 .
b10 J
b01 =
b00000000 /
b01 0
1?
b01 N
b10 F
b10 G
b11 H
b10 +
b00000000 :
b00000000 P
#176
0?
#181
b10 0
1?
b11 N
b11 F
b11 J
b11 G
b11 K
b10 =
b11 +
#186
0?
#191
b10 3
b10 -
b11 <
b00 J
b10 S
b10 '
b10 6
b00 =
b11 0
1?
b00 N
b00 F
b00 G
b00 +
b10 I
#196
0?
#201
b00 3
b00 B
b00 <
1D
b00 S
b00 K
b10 M
b10 !
b00 0
1?
b00 "
b00 #
b00 H
b01 +
#206
0?
#211
b00 !
1?
b00 -
0D
b00 '
b00 6
1(
b00 I
b00 M
#216
0?
#221
1?
#226
0?
#231
1?
#236
0?
#241
1?
#246
0?
#251
1?
#256
0?
#261
1?
#266
b00 T
0?
b00 %
b11 1
b11 C
b00 @
b01 S
b1111 9
b11 E
b0000 L
1A
b01 M
#271
b01 !
b01 3
1?
b01 -
b01 "
b01 F
b01 G
b11 2
b01 '
b01 6
0(
b01 I
b11 >
#276
0?
0A
#281
b01 0
1?
b01 N
b10 F
b10 J
b11 5
b10 G
b01 =
b10 +
#286
0?
#291
b10 0
1?
b11 N
b11 F
b11 J
b11 G
b10 =
b11 +
b11 7
#296
0?
#301
b10 3
b10 -
b11 &
b00 J
b10 S
b10 '
b10 6
b00 =
b11 0
1?
b00 N
b00 F
b00 G
b00 +
b10 I
#306
0?
#311
b00 3
b00 &
b00 5
1D
b00 S
b00 7
b00 >
b10 M
b10 !
b00 0
1?
b00 "
b00 2
b01 +
#316
0?
#321
b00 !
1?
b00 -
0D
b00 '
b00 6
1(
b00 I
b00 M
#326
0?
#331
1?
#336
0?
#341
1?
#346
0?
#351
1?
#356
0?
#361
1?
#366
0?
#371
1?
#376
b10 T
0?
b00 1
b01 C
b01 S
b0001 9
b00 E
b0010 L
1A
b01 M
#381
b01 !
b01 3
1?
b01 -
b01 "
b01 F
b01 G
b01 '
b01 6
0(
b01 I
#386
0?
0A
#391
b01 0
1?
b01 N
b10 B
b10 %
b10 F
b10 J
b10 G
b10 #
b10 H
b01 =
b10 +
#396
0?
#401
b00 B
b00 %
b11 J
b01 5
b01 E
b10 =
b01 7
b01 >
b10 0
1?
b11 N
b11 F
b11 G
b01 2
b00 #
b00 H
b11 +
#406
0?
#411
b10 3
b10 <
b00100000 4
b001000 R
b00 J
b10 S
b10 K
b10 6
b00000010 /
b11 0
b00 N
b00 F
b00 G
b00000000010 *
b10 H
b00 +
b10 I
b10 B
b10 -
b10 %
b00000010 .
b01 &
b10 '
b00 =
b00000000010 )
1?
b10 #
b0010 $
b00000010 P
b00000000010 ;
#416
0?
#421
b00 3
b00 B
b00000010 Q
b00 <
b00 %
b00000000 4
b000000 R
b00 &
b00 5
1D
b00 S
b00 K
b00 E
b00 7
b00 >
b10 M
b10 !
b00 0
1?
b00 "
b00 #
b00 2
b00 H
b0000 $
b01 +
b00000010 :
b00000000000 ;
#426
0?
#431
b00 !
1?
b00 -
0D
b00 '
b00 6
1(
b00 I
b00 M
#436
0?
#441
1?
#446
0?
#451
1?
#456
0?
#461
1?
#466
0?
#471
1?
#476
0?
#481
1?
#486
b00 T
0?
b01 %
b10 1
b11 C
b01 @
b01 S
b1011 9
b10 E
b0100 L
1A
b01 M
#491
b01 3
b01 B
b01 -
b00100000 4
b001000 R
b01 '
b01 6
0(
b10 >
b00000100000 )
b01 !
1?
b01 "
b01 F
b01 G
b10 2
b01 #
b00000100000 *
b0010 $
b01 I
b00000100000 ;
#496
0?
0A
#501
b00 B
b00100000 Q
b00 %
b00000000 4
b000000 R
b00100000 .
b10 J
b10 5
b01 =
b00100000 /
b01 0
1?
b01 N
b10 F
b10 G
b00 #
b0000 $
b10 +
b00100000 :
b00100000 P
#506
0?
#511
b01 B
b01 %
b00110000 4
b001100 R
b00101100 .
b11 J
b11 5
b01 K
b11 E
b10 =
b11 7
b00101100 /
b11 >
b00000101100 )
b10 0
1?
b11 N
b11 F
b11 G
b11 2
b01 #
b00000101100 *
b01 H
b0011 $
b11 +
b00000101100 ;
#516
0?
#521
b10 3
b00 B
b00101100 Q
b10 -
b00 %
b00000000 4
b000000 R
b11 &
b00 J
b10 S
b00 K
b10 '
b10 6
b00 =
b11 0
1?
b00 N
b00 F
b00 G
b00 #
b00 H
b0000 $
b00 +
b00101100 :
b10 I
b00101100 P
#526
0?
#531
b00 3
b01 %
b00 &
b00 5
1D
b00 S
b10 E
b00 7
b00 >
b10 M
b10 !
b00 0
1?
b00 "
b00 2
b01 +
b00000000000 ;
#536
0?
#541
b00 !
1?
b00 -
0D
b00 '
b00 6
1(
b00 I
b00 M
