tested/CorrelationFSMDecoupled/correlation.TestCorrelationDecoupled176444714/CorrelationFSMDecoupled.vcd
$date
2021-07-06T18:55+0000
$end
$version
0.2
$end
$comment

$end
$timescale 1ns  $end
$scope module CorrelationFSMDecoupled $end
 $var wire 32 " _GEN_37 $end
 $var wire 3 # stateReg $end
 $var wire 32 $ x2Reg $end
 $var wire 3 % _GEN_22 $end
 $var wire 3 ' _GEN_16 $end
 $var wire 32 ( x0Reg $end
 $var wire 32 ) _GEN_2 $end
 $var wire 3 * _GEN_10 $end
 $var wire 1 + io_in_ready $end
 $var wire 32 . _GEN_31 $end
 $var wire 3 / _GEN_19 $end
 $var wire 3 0 _GEN_25 $end
 $var wire 1 2 io_out_ready $end
 $var wire 32 3 _GEN_5 $end
 $var wire 2 5 _GEN_13 $end
 $var wire 3 6 _GEN_8 $end
 $var wire 2 7 computingStageReg $end
 $var wire 1 9 pe $end
 $var wire 32 ; _GEN_39 $end
 $var wire 1 < _GEN_30 $end
 $var wire 3 = _GEN_24 $end
 $var wire 32 > _GEN_27 $end
 $var wire 3 @ _GEN_33 $end
 $var wire 3 A _GEN_12 $end
 $var wire 32 B _GEN_7 $end
 $var wire 2 C _GEN_15 $end
 $var wire 1 F _GEN_36 $end
 $var wire 1 G _GEN_21 $end
 $var wire 32 K io_out_bits $end
 $var wire 32 L _GEN_1 $end
 $var wire 2 M _GEN_18 $end
 $var wire 32 O x1Reg $end
 $var wire 2 P _GEN_4 $end
 $var wire 2 R _GEN_41 $end
 $var wire 2 T _GEN_35 $end
 $var wire 1 U clock $end
 $var wire 1 W io_in_valid $end
 $var wire 1 Y _GEN_23 $end
 $var wire 32 Z _GEN_44 $end
 $var wire 32 [ _GEN_38 $end
 $var wire 32 ] _GEN_17 $end
 $var wire 1 ^ io_out_valid $end
 $var wire 1 _ _GEN_26 $end
 $var wire 3 ` _GEN_32 $end
 $var wire 3 b _GEN_11 $end
 $var wire 3 e _GEN_20 $end
 $var wire 3 f _GEN_29 $end
 $var wire 3 g _GEN_6 $end
 $var wire 3 h _GEN_14 $end
 $var wire 32 i _GEN_0 $end
 $var wire 32 k _GEN_9 $end
 $var wire 32 o io_in_bits $end
 $var wire 1 p reset $end
 $var wire 3 q _GEN_3 $end
 $var wire 32 s _GEN_34 $end
 $var wire 32 t resReg $end
 $var wire 2 u _GEN_28 $end
 $var wire 3 v _GEN_40 $end
  $scope module pe $end
   $var wire 1 ! io_in_valid $end
   $var wire 1 & stateReg $end
   $var wire 32 , _GEN_8 $end
   $var wire 32 - xReg $end
   $var wire 1 1 _GEN_2 $end
   $var wire 64 4 _GEN_11 $end
   $var wire 1 8 _GEN_5 $end
   $var wire 1 : io_in_bits_reset $end
   $var wire 1 ? _GEN_10 $end
   $var wire 32 D accReg $end
   $var wire 1 E clock $end
   $var wire 32 H _GEN_7 $end
   $var wire 32 I io_in_bits_y $end
   $var wire 1 J resetReg $end
   $var wire 1 N io_in_ready $end
   $var wire 32 Q _GEN_1 $end
   $var wire 32 S yReg $end
   $var wire 64 V _GEN_4 $end
   $var wire 1 X _T $end
   $var wire 1 \ io_out_valid $end
   $var wire 1 a reset $end
   $var wire 1 c _GEN_3 $end
   $var wire 32 d _GEN_12 $end
   $var wire 32 j io_in_bits_x $end
   $var wire 64 l _GEN_6 $end
   $var wire 32 m io_out_bits $end
   $var wire 32 n _GEN_0 $end
   $var wire 1 r _GEN_9 $end
  $upscope $end
$upscope $end
$enddefinitions $end
$dumpvars
b00000000000000000000000000000000 n
0X
b00000000000000000000000000000000 D
0&
b000 *
b00000000000000000000000000000000 [
b00000000000000000000000000000000 S
b00000000000000000000000000000000 >
b00000000000000000000000000000000 j
b000 `
0N
09
b00000000000000000000000000000000 O
b000 =
b00000000000000000000000000000000 Q
b000 q
b00000000000000000000000000000000 I
b00000000000000000000000000000000 K
0J
b000 A
b00000000000000000000000000000000 .
0a
b00 M
b00000000000000000000000000000000 d
0c
0F
b000 g
01
b00000000000000000000000000000000 s
0r
b00000000000000000000000000000000 ,
0+
b0000000000000000000000000000000000000000000000000000000000000000 l
b00000000000000000000000000000000 $
b000 /
0_
b00 u
0W
b00000000000000000000000000000000 ;
b00 C
b0000000000000000000000000000000000000000000000000000000000000000 4
b00000000000000000000000000000000 o
b00000000000000000000000000000000 Z
b000 e
0Y
0<
b00000000000000000000000000000000 (
0p
b00 T
b00000000000000000000000000000000 "
0!
b00000000000000000000000000000000 k
0U
b000 v
08
b000 '
b00000000000000000000000000000000 m
0:
b00 P
02
b00000000000000000000000000000000 3
b00 R
b000 @
b00 5
b000 #
b00000000000000000000000000000000 i
b00000000000000000000000000000000 L
b00 7
b000 %
0E
b000 f
b00000000000000000000000000000000 )
0\
0G
b000 h
b00000000000000000000000000000000 ]
0?
b00000000000000000000000000000000 H
b000 6
b0000000000000000000000000000000000000000000000000000000000000000 V
b00000000000000000000000000000000 t
0^
b00000000000000000000000000000000 B
b000 b
b00000000000000000000000000000000 -
b000 0
$end
#0
1N
1X
b01 C
1G
b001 *
b001 '
1+
1p
1a
b001 /
b010 b
b01 M
1\
#1
1U
1E
#6
0U
0E
#11
1U
1E
#16
0U
0E
#21
1U
1E
#26
0U
0E
#31
1U
1E
#36
0U
0E
#41
1U
1E
#46
b00000000000000000000000000000001 ;
0U
b001 v
12
b100 e
b00000000000000000000000000000001 o
1W
0E
0a
0p
b00000000000000000000000000000001 )
b001 q
#51
b001 f
b00000000000000000000000000000001 Q
b001 `
b010 v
b001 h
1E
b001 =
b00000000000000000000000000000001 L
1!
b001 0
1c
1?
1U
b010 @
b001 #
b00000000000000000000000000000001 $
0+
b00000000000000000000000000000001 I
b001 A
b00000000000000000000000000000001 ,
#56
0U
0W
0E
b00000000000000000000000000000000 L
#61
b010 f
b000 `
b010 %
0X
1&
b010 h
b00000000000000000000000000000001 S
1E
b010 =
b010 /
b00 M
b010 q
0\
0!
b010 0
0?
0N
1U
b010 #
0G
b00000000000000000000000000000000 I
b010 A
#66
0U
0E
#71
b001 f
b01 u
b000 %
1X
b01 R
b001 v
0&
1E
b001 /
b01 M
1\
b01 T
0c
1N
1U
b001 @
1G
#76
0U
0E
#81
b00000000000000000000000000000010 Q
b010 `
b10 C
b010 v
b10 5
b001 h
b010 6
1E
b001 =
b01 7
b001 q
b10 M
1!
b001 0
1c
1?
1U
b010 @
b001 #
b010 *
b00000000000000000000000000000010 I
b001 A
b01 P
b00000000000000000000000000000010 ,
#86
0U
0E
#91
b010 f
b000 `
b010 %
0X
1&
b00000000000000000000000000000010 S
1E
b010 =
b010 /
b01 M
b010 q
0\
0!
b010 0
0?
0N
1U
b010 #
0G
b00000000000000000000000000000000 I
b010 A
#96
0U
0E
#101
b001 f
b10 u
b000 %
1X
b10 R
b001 v
0&
1E
b001 /
b10 M
1\
b10 T
0c
1N
1U
b001 @
1G
#106
0U
0E
#111
b00000000000000000000000000000001 3
b00000000000000000000000000000011 Q
b011 g
b011 h
b011 6
b10 7
b00000000000000000000000000000001 j
b011 /
b001 0
1c
b011 *
b00000000000000000000000000000001 H
b00000000000000000000000000000011 I
b011 A
b00000000000000000000000000000011 ,
b00000000000000000000000000000001 B
b011 `
b00000000000000000000000000000001 .
b010 v
b011 '
1E
b001 =
b001 q
1!
1?
1U
b010 @
b00000000000000000000000000000001 k
b001 #
b10 P
b00000000000000000000000000000001 n
#116
0U
0E
#121
b010 f
b00000000000000000000000000000001 -
b000 `
b010 %
0X
b0000000000000000000000000000000000000000000000000000000000000011 4
b00000000000000000000000000000000 .
1&
b00000000000000000000000000000011 S
1E
b010 =
b00000000000000000000000000000000 j
b010 /
b010 q
0\
0!
b010 0
0?
0N
1U
b00000000000000000000000000000011 d
b010 #
b0000000000000000000000000000000000000000000000000000000000000011 V
0G
b0000000000000000000000000000000000000000000000000000000000000011 l
b00000000000000000000000000000000 I
#126
0U
0E
#131
b011 f
b000 %
1X
b011 v
0&
b00000000000000000000000000000011 D
b00000000000000000000000000000011 Z
1E
b011 /
b00000000000000000000000000000011 >
1\
0c
1N
1U
b011 @
b00000000000000000000000000000011 s
1G
b0000000000000000000000000000000000000000000000000000000000000110 V
b00000000000000000000000000000011 ]
b00000000000000000000000000000011 m
#136
0U
0E
#141
b100 0
b100 f
1U
b100 @
b100 v
b011 #
b00000000000000000000000000000011 K
1E
b011 =
1^
b00000000000000000000000000000011 t
b011 q
#146
0U
0E
#151
b000 f
b00000000000000000000000000000000 Q
1<
b000 v
1Y
1E
b000 =
b100 q
1!
b000 0
1c
1?
1r
1F
1U
11
b000 @
b100 #
b00000000000000000000000000000000 H
0^
1:
b00000000000000000000000000000000 ,
1_
b00000000000000000000000000000000 n
#156
0U
0E
#161
b00000000000000000000000000000000 -
0<
0X
b0000000000000000000000000000000000000000000000000000000000000000 4
1J
1&
0Y
b00000000000000000000000000000000 S
1E
b000 /
b000 b
b000 q
0\
0!
0?
0N
0F
1U
b00000000000000000000000000000000 d
b000 #
b0000000000000000000000000000000000000000000000000000000000000000 V
0G
b0000000000000000000000000000000000000000000000000000000000000000 l
1+
0:
0_
#166
0U
0E
#171
0c
1N
1X
1U
0&
1G
b00000000000000000000000000000000 D
b00000000000000000000000000000000 ]
1E
b00000000000000000000000000000000 m
b011 /
b010 b
1\
#176
0U
0E
#181
1U
1E
#186
0U
0E
#191
1U
1E
#196
0U
0E
#201
1U
1E
#206
b11111111111111111111111111111111 ;
0U
b00 R
b001 v
b11111111111111111111111111111111 o
1W
0E
b00000000000000000000000000000001 L
b00000000000000000000000000000001 [
b00 P
b11111111111111111111111111111111 )
b001 q
#211
b00000000000000000000000000000000 3
b001 f
b00000000000000000000000000000001 Q
b000 g
b00 5
b001 h
b000 6
b00000000000000000000000000000001 i
b11111111111111111111111111111111 L
b00 7
b001 /
b01 M
b001 0
1c
01
b001 *
0+
b00000000000000000000000000000001 I
b001 A
b00000000000000000000000000000001 ,
b00000000000000000000000000000000 B
b00 u
b001 `
b01 C
b010 v
b001 '
1E
b001 =
1!
b00 T
1?
0r
1U
b010 @
b00000000000000000000000000000000 k
b001 #
b11111111111111111111111111111111 $
b00000000000000000000000000000001 O
#216
0U
0W
b00000000000000000000000000000000 i
0E
b00000000000000000000000000000001 L
#221
b010 f
b000 `
b010 %
0X
0J
1&
b010 h
b00000000000000000000000000000001 S
1E
b010 =
b010 /
b010 q
0\
b00 M
0!
b010 0
0?
0N
1U
b010 #
0G
b00000000000000000000000000000011 ]
b00000000000000000000000000000000 I
b010 A
#226
0U
0E
#231
b001 f
b01 u
b000 %
1X
b01 R
b001 v
0&
b00000000000000000000000000000000 Z
1E
b001 /
b00000000000000000000000000000000 >
b01 M
1\
b01 T
0c
1N
1U
b001 @
b00000000000000000000000000000000 s
1G
b00000000000000000000000000000000 ]
#236
0U
0E
#241
b00000000000000000000000000000010 Q
b10 5
b001 h
b00000000000000000000000000000000 K
b010 6
b01 7
b00000000000000000000000000000001 j
b10 M
b001 0
1c
b010 *
b00000000000000000000000000000001 H
b00000000000000000000000000000010 I
b001 A
b00000000000000000000000000000000 t
b00000000000000000000000000000010 ,
b00000000000000000000000000000001 B
b010 `
b10 C
b00000000000000000000000000000001 .
b010 v
1E
b001 =
b001 q
1!
1?
1U
b010 @
b00000000000000000000000000000001 k
b001 #
b01 P
b00000000000000000000000000000001 n
#246
0U
0E
#251
b010 f
b0000000000000000000000000000000000000000000000000000000000000010 4
b00000000000000000000000000000010 S
b00000000000000000000000000000000 j
b010 /
b01 M
b010 0
0N
b00000000000000000000000000000010 d
0G
b00000000000000000000000000000000 I
b010 A
b00000000000000000000000000000001 -
b000 `
b010 %
0X
b00000000000000000000000000000000 .
1&
1E
b010 =
b010 q
0\
0!
0?
1U
b010 #
b0000000000000000000000000000000000000000000000000000000000000010 V
b0000000000000000000000000000000000000000000000000000000000000010 l
#256
0U
0E
#261
b001 f
b10 u
b000 %
1X
b10 R
b001 v
0&
b00000000000000000000000000000010 D
b00000000000000000000000000000010 Z
1E
b001 /
b00000000000000000000000000000010 >
b10 M
1\
b10 T
0c
1N
1U
b001 @
b00000000000000000000000000000010 s
1G
b0000000000000000000000000000000000000000000000000000000000000100 V
b00000000000000000000000000000010 ]
b00000000000000000000000000000010 m
#266
0U
0E
#271
b11111111111111111111111111111111 3
b00000000000000000000000000000011 Q
b011 g
b011 h
b00000000000000000000000000000010 K
b011 6
b10 7
b11111111111111111111111111111111 j
b011 /
b001 0
1c
b011 *
b11111111111111111111111111111111 H
b00000000000000000000000000000011 I
b011 A
b00000000000000000000000000000010 t
b00000000000000000000000000000011 ,
b11111111111111111111111111111111 B
b011 `
b11111111111111111111111111111111 .
b010 v
b011 '
1E
b001 =
b001 q
1!
1?
1U
b010 @
b11111111111111111111111111111111 k
b001 #
b10 P
b11111111111111111111111111111111 n
#276
0U
0E
#281
b010 f
b11111111111111111111111111111111 -
b000 `
b010 %
0X
b1111111111111111111111111111111111111111111111111111111111111111 4
b00000000000000000000000000000000 .
1&
b00000000000000000000000000000011 S
1E
b010 =
b00000000000000000000000000000000 j
b010 /
b010 q
0\
0!
b010 0
0?
0N
1U
b11111111111111111111111111111111 d
b010 #
b1111111111111111111111111111111111111111111111111111111111111111 V
0G
b1111111111111111111111111111111111111111111111111111111111111111 l
b00000000000000000000000000000000 I
#286
0U
0E
#291
b011 f
b000 %
1X
b011 v
0&
b11111111111111111111111111111111 D
b11111111111111111111111111111111 Z
1E
b011 /
b11111111111111111111111111111111 >
1\
0c
1N
1U
b011 @
b11111111111111111111111111111111 s
1G
b1111111111111111111111111111111111111111111111111111111111111100 V
b11111111111111111111111111111111 ]
b11111111111111111111111111111111 m
#296
0U
0E
#301
b100 0
b100 f
1U
b100 @
b100 v
b011 #
b11111111111111111111111111111111 K
1E
b011 =
1^
b11111111111111111111111111111111 t
b011 q
#306
0U
0E
#311
b000 f
b00000000000000000000000000000000 Q
1<
b000 v
1Y
1E
b000 =
b100 q
1!
b000 0
1c
1?
1r
1F
1U
11
b000 @
b100 #
b00000000000000000000000000000000 H
0^
1:
b00000000000000000000000000000000 ,
1_
b00000000000000000000000000000000 n
#316
0U
0E
#321
b00000000000000000000000000000000 -
0<
0X
b0000000000000000000000000000000000000000000000000000000000000000 4
1J
1&
0Y
b00000000000000000000000000000000 S
1E
b000 /
b000 b
b000 q
0\
0!
0?
0N
0F
1U
b00000000000000000000000000000000 d
b000 #
b0000000000000000000000000000000000000000000000000000000000000000 V
0G
b0000000000000000000000000000000000000000000000000000000000000000 l
1+
0:
0_
#326
0U
0E
#331
0c
1N
1X
1U
0&
1G
b00000000000000000000000000000000 D
b00000000000000000000000000000000 ]
1E
b00000000000000000000000000000000 m
b011 /
b010 b
1\
#336
0U
0E
#341
1U
1E
#346
0U
0E
#351
1U
1E
#356
0U
0E
#361
1U
1E
#366
b00 R
b001 v
b00000000000000000000000000000001 o
b00000000000000000000000000000001 i
0E
b11111111111111111111111111111111 L
b11111111111111111111111111111111 [
b00000000000000000000000000000001 )
b001 q
b00000000000000000000000000000001 "
0U
1W
b00 P
b00000000000000000000000000000001 ;
#371
b00000000000000000000000000000000 3
b001 f
b00000000000000000000000000000001 Q
b000 g
b00 5
b001 h
b000 6
b11111111111111111111111111111111 i
b00000000000000000000000000000001 L
b00 7
b00000000000000000000000000000001 j
b001 /
b01 M
b001 0
1c
01
b001 *
b00000000000000000000000000000001 H
0+
b00000000000000000000000000000001 I
b001 A
b00000000000000000000000000000001 ,
b00000000000000000000000000000000 B
b00 u
b001 `
b01 C
b00000000000000000000000000000001 .
b010 v
b001 '
1E
b001 =
b00000000000000000000000000000001 (
1!
b00 T
1?
0r
1U
b010 @
b00000000000000000000000000000001 k
b001 #
b00000000000000000000000000000001 $
b11111111111111111111111111111111 O
b00000000000000000000000000000001 n
#376
0U
0W
b00000000000000000000000000000001 i
0E
b11111111111111111111111111111111 L
#381
b010 f
b0000000000000000000000000000000000000000000000000000000000000001 4
0J
b010 h
b00000000000000000000000000000001 S
b00000000000000000000000000000000 j
b010 /
b00 M
b010 0
0N
b00000000000000000000000000000001 d
0G
b11111111111111111111111111111111 ]
b00000000000000000000000000000000 I
b010 A
b00000000000000000000000000000001 -
b000 `
b010 %
0X
b00000000000000000000000000000000 .
1&
1E
b010 =
b010 q
0\
0!
0?
1U
b010 #
b0000000000000000000000000000000000000000000000000000000000000001 V
b0000000000000000000000000000000000000000000000000000000000000001 l
#386
0U
0E
#391
b001 f
b01 u
b000 %
1X
b01 R
b001 v
0&
b00000000000000000000000000000001 D
b00000000000000000000000000000001 Z
1E
b001 /
b00000000000000000000000000000001 >
b01 M
1\
b01 T
0c
1N
1U
b001 @
b00000000000000000000000000000001 s
1G
b0000000000000000000000000000000000000000000000000000000000000010 V
b00000000000000000000000000000001 ]
b00000000000000000000000000000001 m
#396
0U
0E
#401
b00000000000000000000000000000010 Q
b10 5
b001 h
b00000000000000000000000000000001 K
b010 6
b01 7
b11111111111111111111111111111111 j
b10 M
b001 0
1c
b010 *
b11111111111111111111111111111111 H
b00000000000000000000000000000010 I
b001 A
b00000000000000000000000000000001 t
b00000000000000000000000000000010 ,
b11111111111111111111111111111111 B
b010 `
b10 C
b11111111111111111111111111111111 .
b010 v
1E
b001 =
b001 q
1!
1?
1U
b010 @
b11111111111111111111111111111111 k
b001 #
b01 P
b11111111111111111111111111111111 n
#406
0U
0E
#411
b010 f
b1111111111111111111111111111111111111111111111111111111111111111 4
b00000000000000000000000000000010 S
b00000000000000000000000000000000 j
b010 /
b01 M
b010 0
0N
b11111111111111111111111111111111 d
0G
b00000000000000000000000000000000 I
b010 A
b11111111111111111111111111111111 -
b000 `
b010 %
0X
b00000000000000000000000000000000 .
1&
1E
b010 =
b010 q
0\
0!
0?
1U
b010 #
b1111111111111111111111111111111111111111111111111111111111111111 V
b1111111111111111111111111111111111111111111111111111111111111111 l
#416
0U
0E
#421
b001 f
b10 u
b000 %
1X
b10 R
b001 v
0&
b11111111111111111111111111111111 D
b11111111111111111111111111111111 Z
1E
b001 /
b11111111111111111111111111111111 >
b10 M
1\
b10 T
0c
1N
1U
b001 @
b11111111111111111111111111111111 s
1G
b1111111111111111111111111111111111111111111111111111111111111101 V
b11111111111111111111111111111111 ]
b11111111111111111111111111111111 m
#426
0U
0E
#431
b00000000000000000000000000000001 3
b00000000000000000000000000000011 Q
b011 g
b011 h
b11111111111111111111111111111111 K
b011 6
b10 7
b00000000000000000000000000000001 j
b011 /
b001 0
1c
b011 *
b00000000000000000000000000000001 H
b00000000000000000000000000000011 I
b011 A
b11111111111111111111111111111111 t
b00000000000000000000000000000011 ,
b00000000000000000000000000000001 B
b011 `
b00000000000000000000000000000001 .
b010 v
b011 '
1E
b001 =
b001 q
1!
1?
1U
b010 @
b00000000000000000000000000000001 k
b001 #
b10 P
b00000000000000000000000000000001 n
#436
0U
0E
#441
b010 f
b00000000000000000000000000000001 -
b000 `
b010 %
0X
b0000000000000000000000000000000000000000000000000000000000000010 4
b00000000000000000000000000000000 .
1&
b00000000000000000000000000000011 S
1E
b010 =
b00000000000000000000000000000000 j
b010 /
b010 q
0\
0!
b010 0
0?
0N
1U
b00000000000000000000000000000010 d
b010 #
b0000000000000000000000000000000000000000000000000000000000000010 V
0G
b0000000000000000000000000000000000000000000000000000000000000010 l
b00000000000000000000000000000000 I
#446
0U
0E
#451
b011 f
b000 %
1X
b011 v
0&
b00000000000000000000000000000010 D
b00000000000000000000000000000010 Z
1E
b011 /
b00000000000000000000000000000010 >
1\
0c
1N
1U
b011 @
b00000000000000000000000000000010 s
1G
b0000000000000000000000000000000000000000000000000000000000000101 V
b00000000000000000000000000000010 ]
b00000000000000000000000000000010 m
#456
0U
0E
#461
b100 0
b100 f
1U
b100 @
b100 v
b011 #
b00000000000000000000000000000010 K
1E
b011 =
1^
b00000000000000000000000000000010 t
b011 q
#466
0U
0E
#471
b000 f
b00000000000000000000000000000000 Q
1<
b000 v
1Y
1E
b000 =
b100 q
1!
b000 0
1c
1?
1r
1F
1U
11
b000 @
b100 #
b00000000000000000000000000000000 H
0^
1:
b00000000000000000000000000000000 ,
1_
b00000000000000000000000000000000 n
#476
0U
0E
#481
b00000000000000000000000000000000 -
0<
0X
b0000000000000000000000000000000000000000000000000000000000000000 4
1J
1&
0Y
b00000000000000000000000000000000 S
1E
b000 /
b000 b
b000 q
0\
0!
0?
0N
0F
1U
b00000000000000000000000000000000 d
b000 #
b0000000000000000000000000000000000000000000000000000000000000000 V
0G
b0000000000000000000000000000000000000000000000000000000000000000 l
1+
0:
0_
#486
0U
0E
#491
0c
1N
1X
1U
0&
1G
b00000000000000000000000000000000 D
b00000000000000000000000000000000 ]
1E
b00000000000000000000000000000000 m
b011 /
b010 b
1\
#496
0U
0E
#501
1U
1E
#506
0U
0E
#511
1U
1E
#516
0U
0E
#521
1U
1E
#526
b00 R
b001 v
b00000000000000000000000000000010 o
b11111111111111111111111111111111 i
0E
b00000000000000000000000000000001 L
b00000000000000000000000000000001 [
b00000000000000000000000000000010 )
b001 q
b11111111111111111111111111111111 "
0U
1W
b00 P
b00000000000000000000000000000010 ;
#531
b00000000000000000000000000000000 3
b001 f
b00000000000000000000000000000001 Q
b000 g
b00 5
b001 h
b000 6
b00000000000000000000000000000001 i
b00000000000000000000000000000010 L
b00 7
b11111111111111111111111111111111 j
b001 /
b01 M
b001 0
1c
01
b001 *
b11111111111111111111111111111111 H
0+
b00000000000000000000000000000001 I
b001 A
b00000000000000000000000000000001 ,
b00000000000000000000000000000000 B
b00 u
b001 `
b01 C
b11111111111111111111111111111111 .
b010 v
b001 '
1E
b001 =
b11111111111111111111111111111111 (
1!
b00 T
1?
0r
1U
b010 @
b11111111111111111111111111111111 k
b001 #
b00000000000000000000000000000010 $
b00000000000000000000000000000001 O
b11111111111111111111111111111111 n
#536
0U
0W
b11111111111111111111111111111111 i
0E
b00000000000000000000000000000001 L
#541
b010 f
b1111111111111111111111111111111111111111111111111111111111111111 4
0J
b010 h
b00000000000000000000000000000001 S
b00000000000000000000000000000000 j
b010 /
b00 M
b010 0
0N
b11111111111111111111111111111111 d
0G
b00000000000000000000000000000010 ]
b00000000000000000000000000000000 I
b010 A
b11111111111111111111111111111111 -
b000 `
b010 %
0X
b00000000000000000000000000000000 .
1&
1E
b010 =
b010 q
0\
0!
0?
1U
b010 #
b1111111111111111111111111111111111111111111111111111111111111111 V
b1111111111111111111111111111111111111111111111111111111111111111 l
#546
0U
0E
#551
b001 f
b01 u
b000 %
1X
b01 R
b001 v
0&
b11111111111111111111111111111111 D
b11111111111111111111111111111111 Z
1E
b001 /
b11111111111111111111111111111111 >
b01 M
1\
b01 T
0c
1N
1U
b001 @
b11111111111111111111111111111111 s
1G
b1111111111111111111111111111111111111111111111111111111111111110 V
b11111111111111111111111111111111 ]
b11111111111111111111111111111111 m
#556
0U
0E
#561
b00000000000000000000000000000010 Q
b10 5
b001 h
b11111111111111111111111111111111 K
b010 6
b01 7
b00000000000000000000000000000001 j
b10 M
b001 0
1c
b010 *
b00000000000000000000000000000001 H
b00000000000000000000000000000010 I
b001 A
b11111111111111111111111111111111 t
b00000000000000000000000000000010 ,
b00000000000000000000000000000001 B
b010 `
b10 C
b00000000000000000000000000000001 .
b010 v
1E
b001 =
b001 q
1!
1?
1U
b010 @
b00000000000000000000000000000001 k
b001 #
b01 P
b00000000000000000000000000000001 n
#566
0U
0E
#571
b010 f
b0000000000000000000000000000000000000000000000000000000000000001 4
b00000000000000000000000000000010 S
b00000000000000000000000000000000 j
b010 /
b01 M
b010 0
0N
b00000000000000000000000000000001 d
0G
b00000000000000000000000000000000 I
b010 A
b00000000000000000000000000000001 -
b000 `
b010 %
0X
b00000000000000000000000000000000 .
1&
1E
b010 =
b010 q
0\
0!
0?
1U
b010 #
b0000000000000000000000000000000000000000000000000000000000000001 V
b0000000000000000000000000000000000000000000000000000000000000001 l
#576
0U
0E
#581
b001 f
b10 u
b000 %
1X
b10 R
b001 v
0&
b00000000000000000000000000000001 D
b00000000000000000000000000000001 Z
1E
b001 /
b00000000000000000000000000000001 >
b10 M
1\
b10 T
0c
1N
1U
b001 @
b00000000000000000000000000000001 s
1G
b0000000000000000000000000000000000000000000000000000000000000011 V
b00000000000000000000000000000001 ]
b00000000000000000000000000000001 m
#586
0U
0E
#591
b00000000000000000000000000000010 3
b00000000000000000000000000000011 Q
b011 g
b011 h
b00000000000000000000000000000001 K
b011 6
b10 7
b00000000000000000000000000000010 j
b011 /
b001 0
1c
b011 *
b00000000000000000000000000000010 H
b00000000000000000000000000000011 I
b011 A
b00000000000000000000000000000001 t
b00000000000000000000000000000011 ,
b00000000000000000000000000000010 B
b011 `
b00000000000000000000000000000010 .
b010 v
b011 '
1E
b001 =
b001 q
1!
1?
1U
b010 @
b00000000000000000000000000000010 k
b001 #
b10 P
b00000000000000000000000000000010 n
#596
0U
0E
#601
b010 f
b00000000000000000000000000000010 -
b000 `
b010 %
0X
b0000000000000000000000000000000000000000000000000000000000000111 4
b00000000000000000000000000000000 .
1&
b00000000000000000000000000000011 S
1E
b010 =
b00000000000000000000000000000000 j
b010 /
b010 q
0\
0!
b010 0
0?
0N
1U
b00000000000000000000000000000111 d
b010 #
b0000000000000000000000000000000000000000000000000000000000000111 V
0G
b0000000000000000000000000000000000000000000000000000000000000111 l
b00000000000000000000000000000000 I
#606
0U
0E
#611
b011 f
b000 %
1X
b011 v
0&
b00000000000000000000000000000111 D
b00000000000000000000000000000111 Z
1E
b011 /
b00000000000000000000000000000111 >
1\
0c
1N
1U
b011 @
b00000000000000000000000000000111 s
1G
b0000000000000000000000000000000000000000000000000000000000001101 V
b00000000000000000000000000000111 ]
b00000000000000000000000000000111 m
#616
0U
0E
#621
b100 0
b100 f
1U
b100 @
b100 v
b011 #
b00000000000000000000000000000111 K
1E
b011 =
1^
b00000000000000000000000000000111 t
b011 q
#626
0U
0E
#631
b000 f
b00000000000000000000000000000000 Q
1<
b000 v
1Y
1E
b000 =
b100 q
1!
b000 0
1c
1?
1r
1F
1U
11
b000 @
b100 #
b00000000000000000000000000000000 H
0^
1:
b00000000000000000000000000000000 ,
1_
b00000000000000000000000000000000 n
#636
0U
0E
#641
b00000000000000000000000000000000 -
0<
0X
b0000000000000000000000000000000000000000000000000000000000000000 4
1J
1&
0Y
b00000000000000000000000000000000 S
1E
b000 /
b000 b
b000 q
0\
0!
0?
0N
0F
1U
b00000000000000000000000000000000 d
b000 #
b0000000000000000000000000000000000000000000000000000000000000000 V
0G
b0000000000000000000000000000000000000000000000000000000000000000 l
1+
0:
0_
#646
0U
0E
#651
0c
1N
1X
1U
0&
1G
b00000000000000000000000000000000 D
b00000000000000000000000000000000 ]
1E
b00000000000000000000000000000000 m
b011 /
b010 b
1\
#656
0U
0E
#661
1U
1E
#666
0U
0E
#671
1U
1E
#676
0U
0E
#681
1U
1E
#686
b00 R
b001 v
b00000000000000000000000000000001 o
b00000000000000000000000000000001 i
0E
b00000000000000000000000000000010 L
b00000000000000000000000000000010 [
b00000000000000000000000000000001 )
b001 q
b00000000000000000000000000000001 "
0U
1W
b00 P
b00000000000000000000000000000001 ;
#691
b00000000000000000000000000000000 3
b001 f
b00000000000000000000000000000001 Q
b000 g
b00 5
b001 h
b000 6
b00000000000000000000000000000010 i
b00000000000000000000000000000001 L
b00 7
b00000000000000000000000000000001 j
b001 /
b01 M
b001 0
1c
01
b001 *
b00000000000000000000000000000001 H
0+
b00000000000000000000000000000001 I
b001 A
b00000000000000000000000000000001 ,
b00000000000000000000000000000000 B
b00 u
b001 `
b01 C
b00000000000000000000000000000001 .
b010 v
b001 '
1E
b001 =
b00000000000000000000000000000001 (
1!
b00 T
1?
0r
1U
b010 @
b00000000000000000000000000000001 k
b001 #
b00000000000000000000000000000001 $
b00000000000000000000000000000010 O
b00000000000000000000000000000001 n
#696
0U
0W
b00000000000000000000000000000001 i
0E
b00000000000000000000000000000010 L
#701
b010 f
b0000000000000000000000000000000000000000000000000000000000000001 4
0J
b010 h
b00000000000000000000000000000001 S
b00000000000000000000000000000000 j
b010 /
b00 M
b010 0
0N
b00000000000000000000000000000001 d
0G
b00000000000000000000000000000111 ]
b00000000000000000000000000000000 I
b010 A
b00000000000000000000000000000001 -
b000 `
b010 %
0X
b00000000000000000000000000000000 .
1&
1E
b010 =
b010 q
0\
0!
0?
1U
b010 #
b0000000000000000000000000000000000000000000000000000000000000001 V
b0000000000000000000000000000000000000000000000000000000000000001 l
#706
0U
0E
#711
b001 f
b01 u
b000 %
1X
b01 R
b001 v
0&
b00000000000000000000000000000001 D
b00000000000000000000000000000001 Z
1E
b001 /
b00000000000000000000000000000001 >
b01 M
1\
b01 T
0c
1N
1U
b001 @
b00000000000000000000000000000001 s
1G
b0000000000000000000000000000000000000000000000000000000000000010 V
b00000000000000000000000000000001 ]
b00000000000000000000000000000001 m
#716
0U
0E
#721
b00000000000000000000000000000010 Q
b10 5
b001 h
b00000000000000000000000000000001 K
b010 6
b01 7
b00000000000000000000000000000010 j
b10 M
b001 0
1c
b010 *
b00000000000000000000000000000010 H
b00000000000000000000000000000010 I
b001 A
b00000000000000000000000000000001 t
b00000000000000000000000000000010 ,
b00000000000000000000000000000010 B
b010 `
b10 C
b00000000000000000000000000000010 .
b010 v
1E
b001 =
b001 q
1!
1?
1U
b010 @
b00000000000000000000000000000010 k
b001 #
b01 P
b00000000000000000000000000000010 n
#726
0U
0E
