tested/DotProductDecoupled/dotProduct.TestDotProductDecoupled1092090094/DotProductDecoupled.vcd
$date
2021-07-08T14:08+0000
$end
$version
0.2
$end
$comment

$end
$timescale 1ns  $end
$scope module DotProductDecoupled $end
 $var wire 32 ! io_in_bits_y_3 $end
 $var wire 3 # _GEN_37 $end
 $var wire 3 $ stateReg $end
 $var wire 3 % _GEN_22 $end
 $var wire 32 ' _GEN_16 $end
 $var wire 32 ( _GEN_43 $end
 $var wire 32 ) _GEN_2 $end
 $var wire 1 * _T $end
 $var wire 1 + io_in_ready $end
 $var wire 3 - cntReg $end
 $var wire 3 / _GEN_31 $end
 $var wire 1 0 _GEN_25 $end
 $var wire 32 1 _GEN_19 $end
 $var wire 1 3 io_out_ready $end
 $var wire 32 4 yRegs_1 $end
 $var wire 32 5 _GEN_5 $end
 $var wire 32 7 xRegs_2 $end
 $var wire 32 8 _GEN_13 $end
 $var wire 3 9 _GEN_8 $end
 $var wire 32 : _GEN_42 $end
 $var wire 1 < pe $end
 $var wire 32 > _GEN_39 $end
 $var wire 1 ? _GEN_30 $end
 $var wire 3 @ _GEN_24 $end
 $var wire 32 A _GEN_45 $end
 $var wire 1 B _GEN_27 $end
 $var wire 3 D _GEN_48 $end
 $var wire 1 E _GEN_33 $end
 $var wire 32 F io_in_bits_x_0 $end
 $var wire 32 G _GEN_12 $end
 $var wire 32 H io_in_bits_y_2 $end
 $var wire 32 I _GEN_7 $end
 $var wire 32 J _GEN_15 $end
 $var wire 32 K io_in_bits_x_3 $end
 $var wire 3 N _GEN_36 $end
 $var wire 3 O _GEN_21 $end
 $var wire 32 S io_out_bits $end
 $var wire 32 T _GEN_1 $end
 $var wire 32 U _GEN_18 $end
 $var wire 32 W yRegs_0 $end
 $var wire 32 X _GEN_4 $end
 $var wire 32 Y xRegs_1 $end
 $var wire 32 [ _GEN_41 $end
 $var wire 32 ] _GEN_35 $end
 $var wire 1 ^ clock $end
 $var wire 32 _ io_in_bits_x_2 $end
 $var wire 1 a io_in_valid $end
 $var wire 32 b yRegs_3 $end
 $var wire 32 c io_in_bits_y_1 $end
 $var wire 3 d _GEN_23 $end
 $var wire 32 f _GEN_44 $end
 $var wire 1 g _GEN_38 $end
 $var wire 32 i _GEN_17 $end
 $var wire 1 j io_out_valid $end
 $var wire 3 k _GEN_26 $end
 $var wire 32 l xRegs_0 $end
 $var wire 3 m _GEN_32 $end
 $var wire 3 n _GEN_47 $end
 $var wire 32 p _GEN_11 $end
 $var wire 3 s _GEN_20 $end
 $var wire 32 t yRegs_2 $end
 $var wire 3 u _GEN_29 $end
 $var wire 32 v _GEN_6 $end
 $var wire 32 w xRegs_3 $end
 $var wire 32 x _GEN_0 $end
 $var wire 3 z _GEN_9 $end
 $var wire 1 ~ reset $end
 $var wire 32 "! _GEN_3 $end
 $var wire 32 "# _GEN_46 $end
 $var wire 32 "$ _GEN_34 $end
 $var wire 3 "% _GEN_28 $end
 $var wire 32 "& _GEN_40 $end
 $var wire 32 "' io_in_bits_x_1 $end
 $var wire 32 "( io_in_bits_y_0 $end
  $scope module pe $end
   $var wire 1 " io_in_valid $end
   $var wire 1 & stateReg $end
   $var wire 32 , _GEN_8 $end
   $var wire 32 . xReg $end
   $var wire 1 2 _GEN_2 $end
   $var wire 64 6 _GEN_11 $end
   $var wire 1 ; _GEN_5 $end
   $var wire 1 = io_in_bits_reset $end
   $var wire 1 C _GEN_10 $end
   $var wire 32 L accReg $end
   $var wire 1 M clock $end
   $var wire 32 P _GEN_7 $end
   $var wire 32 Q io_in_bits_y $end
   $var wire 1 R resetReg $end
   $var wire 1 V io_in_ready $end
   $var wire 32 Z _GEN_1 $end
   $var wire 32 \ yReg $end
   $var wire 64 ` _GEN_4 $end
   $var wire 1 e _T $end
   $var wire 1 h io_out_valid $end
   $var wire 1 o reset $end
   $var wire 1 q _GEN_3 $end
   $var wire 32 r _GEN_12 $end
   $var wire 32 y io_in_bits_x $end
   $var wire 64 { _GEN_6 $end
   $var wire 32 | io_out_bits $end
   $var wire 32 } _GEN_0 $end
   $var wire 1 "" _GEN_9 $end
  $upscope $end
$upscope $end
$enddefinitions $end
$dumpvars
b00000000000000000000000000000000 "'
0C
b000 d
0""
0;
0&
b00000000000000000000000000000000 Y
b00000000000000000000000000000000 '
0o
b000 "%
b00000000000000000000000000000000 p
b00000000000000000000000000000000 [
b00000000000000000000000000000000 S
b00000000000000000000000000000000 "!
0=
0R
b00000000000000000000000000000000 >
b00000000000000000000000000000000 !
0q
b00000000000000000000000000000000 r
b00000000000000000000000000000000 "#
b000 u
b00000000000000000000000000000000 U
b00000000000000000000000000000000 8
0"
b00000000000000000000000000000000 l
0V
b00000000000000000000000000000000 :
b00000000000000000000000000000000 f
b00000000000000000000000000000000 Q
0e
b00000000000000000000000000000000 I
b00000000000000000000000000000000 4
03
b00000000000000000000000000000000 }
0g
b000 s
b00000000000000000000000000000000 K
b000 k
b00000000000000000000000000000000 .
b000 9
b000 $
0~
b00000000000000000000000000000000 w
b00000000000000000000000000000000 b
0a
b000 m
b00000000000000000000000000000000 "(
b00000000000000000000000000000000 y
b00000000000000000000000000000000 \
b00000000000000000000000000000000 G
b00000000000000000000000000000000 "$
b00000000000000000000000000000000 A
b00000000000000000000000000000000 ,
0+
b000 /
b00000000000000000000000000000000 X
b00000000000000000000000000000000 "&
0B
b000 N
b00000000000000000000000000000000 Z
b000 z
0<
b00000000000000000000000000000000 (
b0000000000000000000000000000000000000000000000000000000000000000 6
b00000000000000000000000000000000 T
b00000000000000000000000000000000 7
b000 -
0j
0M
b000 D
b00000000000000000000000000000000 P
b0000000000000000000000000000000000000000000000000000000000000000 {
02
b00000000000000000000000000000000 |
b00000000000000000000000000000000 J
b00000000000000000000000000000000 5
b0000000000000000000000000000000000000000000000000000000000000000 `
b000 @
b000 #
0h
b00000000000000000000000000000000 i
b00000000000000000000000000000000 L
b000 O
b000 %
b00000000000000000000000000000000 x
b00000000000000000000000000000000 c
b000 n
0E
00
b00000000000000000000000000000000 F
b00000000000000000000000000000000 1
b00000000000000000000000000000000 )
b00000000000000000000000000000000 ]
b00000000000000000000000000000000 H
0?
0*
b00000000000000000000000000000000 t
0^
b00000000000000000000000000000000 _
b00000000000000000000000000000000 W
b00000000000000000000000000000000 v
$end
#0
10
b001 %
b001 d
b010 s
1h
1V
1e
1o
1~
b001 O
1+
#1
1^
1M
#6
0^
0M
#11
1^
1M
#16
0^
0M
#21
1^
1M
#26
0^
0M
#31
1^
1M
#36
0^
0M
#41
1^
1M
#46
13
b00000000000000000000000000000100 f
b00000000000000000000000000000100 5
b00000000000000000000000000000111 K
0~
b00000000000000000000000000000011 "&
1a
b00000000000000000000000000000011 "'
0M
b00000000000000000000000000000100 c
b00000000000000000000000000000001 F
b00000000000000000000000000000111 "!
b001 z
b00000000000000000000000000000110 H
b00000000000000000000000000001000 "#
0^
b00000000000000000000000000001000 I
b00000000000000000000000000000110 A
b00000000000000000000000000000101 _
b00000000000000000000000000000010 X
b00000000000000000000000000000110 v
b001 D
0o
b00000000000000000000000000000001 x
b00000000000000000000000000000010 (
b00000000000000000000000000000101 [
b00000000000000000000000000000001 >
b00000000000000000000000000000101 )
b00000000000000000000000000001000 !
b00000000000000000000000000000011 T
b100 @
b00000000000000000000000000000010 "(
b00000000000000000000000000000111 :
#51
b00000000000000000000000000000010 Q
b00000000000000000000000000000100 4
b00000000000000000000000000000001 "$
b00000000000000000000000000000010 J
b00000000000000000000000000000001 }
b001 "%
b00000000000000000000000000000010 i
b00000000000000000000000000000101 7
b00000000000000000000000000001000 b
1M
b010 N
b00000000000000000000000000000010 1
b00000000000000000000000000000001 y
b00000000000000000000000000000001 G
1*
b00000000000000000000000000000010 ]
0+
1^
b00000000000000000000000000000110 t
b00000000000000000000000000000010 ,
b001 u
1C
b00000000000000000000000000000011 Y
b010 D
b00000000000000000000000000000111 w
b00000000000000000000000000000010 '
b00000000000000000000000000000010 Z
b00000000000000000000000000000001 p
1q
1"
b00000000000000000000000000000001 U
b00000000000000000000000000000001 8
b001 $
b00000000000000000000000000000010 W
b00000000000000000000000000000001 l
b001 m
b00000000000000000000000000000001 P
#56
0a
0^
0M
#61
b00000000000000000000000000000000 Q
b00000000000000000000000000000000 "$
0h
b010 "%
b0000000000000000000000000000000000000000000000000000000000000010 6
1M
00
b00000000000000000000000000000000 1
b010 d
b00000000000000000000000000000000 y
b010 z
0e
0*
b00000000000000000000000000000000 ]
b0000000000000000000000000000000000000000000000000000000000000010 {
1^
b010 u
b0000000000000000000000000000000000000000000000000000000000000010 `
b000 %
0C
b00000000000000000000000000000001 .
1&
b00000000000000000000000000000010 \
b00000000000000000000000000000010 r
0"
b00000000000000000000000000000000 U
b010 k
0V
b010 $
b010 m
#66
0^
0M
#71
b0000000000000000000000000000000000000000000000000000000000000100 `
b001 %
0&
1h
b00000000000000000000000000000010 S
b001 D
b00000000000000000000000000000010 L
b001 /
1M
0q
10
b001 N
b00000000000000000000000000000010 1
b001 d
b00000000000000000000000000000001 U
b001 #
1V
b000 k
1e
1^
b001 m
b00000000000000000000000000000010 |
b001 n
#76
0^
0M
#81
b00000000000000000000000000000100 Q
b00000000000000000000000000000011 "$
b00000000000000000000000000000100 J
b00000000000000000000000000000011 }
b001 "%
b00000000000000000000000000000100 i
1M
b010 N
b00000000000000000000000000000100 1
b00000000000000000000000000000011 y
b00000000000000000000000000000011 G
b001 z
1*
b00000000000000000000000000000100 ]
1^
b00000000000000000000000000000100 ,
b001 -
b001 u
b010 %
1C
b010 D
b00000000000000000000000000000100 '
b00000000000000000000000000000100 Z
b00000000000000000000000000000011 p
1q
1"
b00000000000000000000000000000011 U
b00000000000000000000000000000011 8
b001 9
b001 $
b00000000000000000000000000000011 P
#86
0^
0M
#91
b00000000000000000000000000000000 Q
b00000000000000000000000000000000 "$
0h
b010 "%
b0000000000000000000000000000000000000000000000000000000000001110 6
1M
00
b00000000000000000000000000000000 1
b010 d
b00000000000000000000000000000000 y
b010 z
0e
0*
b00000000000000000000000000000000 ]
b0000000000000000000000000000000000000000000000000000000000001110 {
1^
b010 u
b0000000000000000000000000000000000000000000000000000000000001110 `
b001 %
0C
b00000000000000000000000000000011 .
1&
b00000000000000000000000000000100 \
b00000000000000000000000000001110 r
0"
b00000000000000000000000000000000 U
b010 k
0V
b010 $
b010 m
#96
0^
0M
#101
b0000000000000000000000000000000000000000000000000000000000011010 `
b010 %
0&
1h
b00000000000000000000000000001110 S
b001 D
b00000000000000000000000000001110 L
b010 /
1M
0q
10
b001 N
b00000000000000000000000000000100 1
b001 d
b00000000000000000000000000000011 U
b010 #
1V
b000 k
1e
1^
b001 m
b00000000000000000000000000001110 |
b010 n
#106
0^
0M
#111
b00000000000000000000000000000110 Q
b00000000000000000000000000000101 "$
b00000000000000000000000000000010 J
b00000000000000000000000000000101 }
b001 "%
b00000000000000000000000000000110 i
1M
b010 N
b00000000000000000000000000000110 1
b00000000000000000000000000000101 y
b00000000000000000000000000000101 G
b001 z
1*
b00000000000000000000000000000110 ]
1^
b00000000000000000000000000000110 ,
b010 -
b001 u
b011 %
1C
b010 D
b00000000000000000000000000000110 '
b00000000000000000000000000000110 Z
b00000000000000000000000000000001 p
1q
1"
b00000000000000000000000000000101 U
b00000000000000000000000000000101 8
b010 9
b001 $
b00000000000000000000000000000101 P
#116
0^
0M
#121
b00000000000000000000000000000000 Q
b00000000000000000000000000000000 "$
0h
b010 "%
b0000000000000000000000000000000000000000000000000000000000101100 6
1M
00
b00000000000000000000000000000000 1
b010 d
b00000000000000000000000000000000 y
b010 z
0e
0*
b00000000000000000000000000000000 ]
b0000000000000000000000000000000000000000000000000000000000101100 {
1^
b010 u
b0000000000000000000000000000000000000000000000000000000000101100 `
b010 %
0C
b00000000000000000000000000000101 .
1&
b00000000000000000000000000000110 \
b00000000000000000000000000101100 r
0"
b00000000000000000000000000000000 U
b010 k
0V
b010 $
b010 m
#126
0^
0M
#131
b0000000000000000000000000000000000000000000000000000000001001010 `
b011 %
0&
1h
b00000000000000000000000000101100 S
b001 D
b00000000000000000000000000101100 L
b011 /
1M
0q
10
b001 N
b00000000000000000000000000000110 1
b001 d
b00000000000000000000000000000101 U
b011 #
1V
b000 k
1e
1^
b001 m
b00000000000000000000000000101100 |
b011 n
#136
0^
0M
#141
b00000000000000000000000000001000 Q
b00000000000000000000000000000111 "$
b00000000000000000000000000000111 }
b001 "%
b00000000000000000000000000001000 i
1M
b010 N
b00000000000000000000000000001000 1
b011 d
b00000000000000000000000000000111 y
b00000000000000000000000000000001 G
b001 z
1*
b00000000000000000000000000001000 ]
1^
b00000000000000000000000000001000 ,
b011 -
b001 u
b100 %
1C
b010 D
b00000000000000000000000000000010 '
b00000000000000000000000000001000 Z
1q
1"
b00000000000000000000000000000111 U
b00000000000000000000000000000111 8
b011 9
b001 $
b011 O
b00000000000000000000000000000111 P
#146
0^
0M
#151
b00000000000000000000000000000000 Q
b00000000000000000000000000000000 "$
0h
b010 "%
b0000000000000000000000000000000000000000000000000000000001100100 6
1M
00
b00000000000000000000000000000000 1
b010 d
b00000000000000000000000000000000 y
b010 z
0e
0*
b00000000000000000000000000000000 ]
b0000000000000000000000000000000000000000000000000000000001100100 {
1^
b010 u
b0000000000000000000000000000000000000000000000000000000001100100 `
b011 %
0C
b00000000000000000000000000000111 .
1&
b00000000000000000000000000001000 \
b00000000000000000000000001100100 r
0"
b00000000000000000000000000000000 U
b010 k
0V
b010 $
b010 m
#156
0^
0M
#161
b0000000000000000000000000000000000000000000000000000000010011100 `
b100 %
0&
1h
b00000000000000000000000001100100 S
b011 D
b00000000000000000000000001100100 L
b100 /
1M
0q
10
b011 N
b00000000000000000000000000001000 1
b011 d
b00000000000000000000000000000111 U
b100 #
1V
b000 k
1e
1^
b011 m
b00000000000000000000000001100100 |
b100 n
#166
0^
0M
#171
b100 -
b100 u
b101 %
b011 "%
b100 D
b00000000000000000000000000000010 i
1j
1M
b100 N
b00000000000000000000000000000010 1
b001 d
b00000000000000000000000000000001 U
b00000000000000000000000000000001 8
b011 z
b100 9
b011 $
b001 O
1^
b100 m
#176
0^
0M
#181
1B
b000 u
1g
1C
b00000000000000000000000000000000 }
b000 "%
b000 D
b00000000000000000000000000000000 Z
1E
1=
0j
1M
1q
1?
b000 N
1"
b100 z
12
1""
b100 $
1^
b000 m
b00000000000000000000000000000000 ,
b00000000000000000000000000000000 P
#186
0^
0M
#191
0g
1R
0h
b0000000000000000000000000000000000000000000000000000000000000000 6
1M
00
b00000000000000000000000000000000 1
b000 d
b000 z
0e
b0000000000000000000000000000000000000000000000000000000000000000 {
1+
1^
0B
b0000000000000000000000000000000000000000000000000000000000000000 `
b100 %
0C
b00000000000000000000000000000000 .
1&
0E
0=
b00000000000000000000000000000000 \
0?
b00000000000000000000000000000000 r
0"
b00000000000000000000000000000000 U
b000 s
0V
b000 $
#196
0^
0M
#201
b101 %
0&
1h
b00000000000000000000000000000000 S
b00000000000000000000000000000000 L
1M
0q
10
b00000000000000000000000000000010 1
b001 d
b010 s
b00000000000000000000000000000001 U
1V
1e
1^
b00000000000000000000000000000000 |
#206
b11111111111111111111111111111111 f
b11111111111111111111111111111111 5
b00000000000000000000000000000100 K
b00000000000000000000000000000010 "&
1a
b00000000000000000000000000000010 "'
0M
b11111111111111111111111111111111 c
b00000000000000000000000000000100 "!
b001 z
b11111111111111111111111111111111 H
b11111111111111111111111111111111 "#
0^
b11111111111111111111111111111111 I
b11111111111111111111111111111111 A
b00000000000000000000000000000011 _
b11111111111111111111111111111111 X
b11111111111111111111111111111111 v
b001 D
b11111111111111111111111111111111 (
b00000000000000000000000000000011 [
b00000000000000000000000000000011 )
b11111111111111111111111111111111 !
b00000000000000000000000000000010 T
b11111111111111111111111111111111 "(
b000 9
b00000000000000000000000000000100 :
b000 n
#211
b11111111111111111111111111111111 Q
b11111111111111111111111111111111 4
b00000000000000000000000000000001 "$
b11111111111111111111111111111111 J
b00000000000000000000000000000001 }
b001 "%
b11111111111111111111111111111111 i
b00000000000000000000000000000011 7
b000 /
b11111111111111111111111111111111 b
1M
b010 N
b11111111111111111111111111111111 1
b00000000000000000000000000000001 y
02
0""
1*
b11111111111111111111111111111111 ]
0+
1^
b11111111111111111111111111111111 t
b11111111111111111111111111111111 ,
b000 -
b001 u
b001 %
1C
b00000000000000000000000000000010 Y
b010 D
b00000000000000000000000000000100 w
b11111111111111111111111111111111 '
b11111111111111111111111111111111 Z
1q
1"
b000 #
b001 $
b11111111111111111111111111111111 W
b001 m
b00000000000000000000000000000001 P
#216
0a
0^
0M
#221
b00000000000000000000000000000000 Q
b00000000000000000000000000000000 "$
0R
0h
b010 "%
b1111111111111111111111111111111111111111111111111111111111111111 6
1M
00
b00000000000000000000000000000000 1
b010 d
b00000000000000000000000000000000 y
b010 z
0e
0*
b00000000000000000000000000000000 ]
b1111111111111111111111111111111111111111111111111111111111111111 {
1^
b010 u
b1111111111111111111111111111111111111111111111111111111111111111 `
b000 %
0C
b00000000000000000000000000000001 .
1&
b11111111111111111111111111111111 \
b11111111111111111111111111111111 r
0"
b00000000000000000000000000000000 U
b010 k
0V
b010 $
b010 m
#226
0^
0M
#231
b1111111111111111111111111111111111111111111111111111111111111110 `
b001 %
0&
1h
b11111111111111111111111111111111 S
b001 D
b11111111111111111111111111111111 L
b001 /
1M
0q
10
b001 N
b11111111111111111111111111111111 1
b001 d
b00000000000000000000000000000001 U
b001 #
1V
b000 k
1e
1^
b001 m
b11111111111111111111111111111111 |
b001 n
#236
0^
0M
#241
b001 -
b001 u
b11111111111111111111111111111111 Q
b010 %
b00000000000000000000000000000010 "$
1C
b00000000000000000000000000000010 }
b001 "%
b010 D
b00000000000000000000000000000010 p
1M
1q
b010 N
1"
b00000000000000000000000000000010 U
b00000000000000000000000000000010 y
b00000000000000000000000000000010 8
b00000000000000000000000000000010 G
b001 z
1*
b001 9
b001 $
b11111111111111111111111111111111 ]
1^
b00000000000000000000000000000010 P
#246
0^
0M
#251
b00000000000000000000000000000000 Q
b00000000000000000000000000000000 "$
0h
b010 "%
b1111111111111111111111111111111111111111111111111111111111111101 6
1M
00
b00000000000000000000000000000000 1
b010 d
b00000000000000000000000000000000 y
b010 z
0e
0*
b00000000000000000000000000000000 ]
b1111111111111111111111111111111111111111111111111111111111111101 {
1^
b010 u
b1111111111111111111111111111111111111111111111111111111111111101 `
b001 %
0C
b00000000000000000000000000000010 .
1&
b11111111111111111111111111111101 r
0"
b00000000000000000000000000000000 U
b010 k
0V
b010 $
b010 m
#256
0^
0M
#261
b1111111111111111111111111111111111111111111111111111111111111011 `
b010 %
0&
1h
b11111111111111111111111111111101 S
b001 D
b11111111111111111111111111111101 L
b010 /
1M
0q
10
b001 N
b11111111111111111111111111111111 1
b001 d
b00000000000000000000000000000010 U
b010 #
1V
b000 k
1e
1^
b001 m
b11111111111111111111111111111101 |
b010 n
#266
0^
0M
#271
b010 -
b001 u
b11111111111111111111111111111111 Q
b011 %
b00000000000000000000000000000011 "$
1C
b00000000000000000000000000000011 }
b001 "%
b010 D
b00000000000000000000000000000001 p
1M
1q
b010 N
1"
b00000000000000000000000000000011 U
b00000000000000000000000000000011 y
b00000000000000000000000000000011 8
b00000000000000000000000000000011 G
b001 z
1*
b010 9
b001 $
b11111111111111111111111111111111 ]
1^
b00000000000000000000000000000011 P
#276
0^
0M
#281
b00000000000000000000000000000000 Q
b00000000000000000000000000000000 "$
0h
b010 "%
b1111111111111111111111111111111111111111111111111111111111111010 6
1M
00
b00000000000000000000000000000000 1
b010 d
b00000000000000000000000000000000 y
b010 z
0e
0*
b00000000000000000000000000000000 ]
b1111111111111111111111111111111111111111111111111111111111111010 {
1^
b010 u
b1111111111111111111111111111111111111111111111111111111111111010 `
b010 %
0C
b00000000000000000000000000000011 .
1&
b11111111111111111111111111111010 r
0"
b00000000000000000000000000000000 U
b010 k
0V
b010 $
b010 m
#286
0^
0M
#291
b1111111111111111111111111111111111111111111111111111111111110111 `
b011 %
0&
1h
b11111111111111111111111111111010 S
b001 D
b11111111111111111111111111111010 L
b011 /
1M
0q
10
b001 N
b11111111111111111111111111111111 1
b001 d
b00000000000000000000000000000011 U
b011 #
1V
b000 k
1e
1^
b001 m
b11111111111111111111111111111010 |
b011 n
#296
0^
0M
#301
b011 -
b001 u
b11111111111111111111111111111111 Q
b100 %
b00000000000000000000000000000100 "$
1C
b00000000000000000000000000000100 }
b001 "%
b010 D
1M
1q
b010 N
1"
b00000000000000000000000000000100 U
b011 d
b00000000000000000000000000000100 y
b00000000000000000000000000000100 8
b00000000000000000000000000000001 G
b001 z
1*
b011 9
b001 $
b11111111111111111111111111111111 ]
b011 O
1^
b00000000000000000000000000000100 P
#306
0^
0M
#311
b00000000000000000000000000000000 Q
b00000000000000000000000000000000 "$
0h
b010 "%
b1111111111111111111111111111111111111111111111111111111111110110 6
1M
00
b00000000000000000000000000000000 1
b010 d
b00000000000000000000000000000000 y
b010 z
0e
0*
b00000000000000000000000000000000 ]
b1111111111111111111111111111111111111111111111111111111111110110 {
1^
b010 u
b1111111111111111111111111111111111111111111111111111111111110110 `
b011 %
0C
b00000000000000000000000000000100 .
1&
b11111111111111111111111111110110 r
0"
b00000000000000000000000000000000 U
b010 k
0V
b010 $
b010 m
#316
0^
0M
#321
b1111111111111111111111111111111111111111111111111111111111110010 `
b100 %
0&
1h
b11111111111111111111111111110110 S
b011 D
b11111111111111111111111111110110 L
b100 /
1M
0q
10
b011 N
b11111111111111111111111111111111 1
b011 d
b00000000000000000000000000000100 U
b100 #
1V
b000 k
1e
1^
b011 m
b11111111111111111111111111110110 |
b100 n
#326
0^
0M
#331
b100 -
b100 u
b101 %
b011 "%
b100 D
1j
1M
b100 N
b00000000000000000000000000000001 U
b001 d
b00000000000000000000000000000001 8
b011 z
b100 9
b011 $
b001 O
1^
b100 m
#336
0^
0M
#341
1B
b000 u
1g
1C
b00000000000000000000000000000000 }
b000 "%
b000 D
b00000000000000000000000000000000 Z
1E
1=
0j
1M
1q
1?
b000 N
1"
b100 z
12
1""
b100 $
1^
b000 m
b00000000000000000000000000000000 ,
b00000000000000000000000000000000 P
#346
0^
0M
#351
0g
1R
0h
b0000000000000000000000000000000000000000000000000000000000000000 6
1M
00
b00000000000000000000000000000000 1
b000 d
b000 z
0e
b0000000000000000000000000000000000000000000000000000000000000000 {
1+
1^
0B
b0000000000000000000000000000000000000000000000000000000000000000 `
b100 %
0C
b00000000000000000000000000000000 .
1&
0E
0=
b00000000000000000000000000000000 \
0?
b00000000000000000000000000000000 r
0"
b00000000000000000000000000000000 U
b000 s
0V
b000 $
#356
0^
0M
#361
b101 %
0&
1h
b00000000000000000000000000000000 S
b00000000000000000000000000000000 L
1M
0q
10
b11111111111111111111111111111111 1
b001 d
b010 s
b00000000000000000000000000000001 U
1V
1e
1^
b00000000000000000000000000000000 |
