tested/DotProductDecoupled/dotProduct.TestDotProductDecoupled1092090094/DotProductDecoupled.vcd
$date
2021-07-06T18:46+0000
$end
$version
0.2
$end
$comment

$end
$timescale 1ns  $end
$scope module DotProductDecoupled $end
 $var wire 3 " stateReg $end
 $var wire 1 # _GEN_22 $end
 $var wire 2 % _GEN_16 $end
 $var wire 3 & _GEN_2 $end
 $var wire 2 ' _GEN_10 $end
 $var wire 1 ( _T $end
 $var wire 1 ) io_in_ready $end
 $var wire 2 + cntReg $end
 $var wire 3 - _GEN_31 $end
 $var wire 32 . _GEN_19 $end
 $var wire 2 / _GEN_25 $end
 $var wire 1 1 io_out_ready $end
 $var wire 32 2 _GEN_5 $end
 $var wire 3 4 _GEN_13 $end
 $var wire 32 5 _GEN_8 $end
 $var wire 1 7 pe $end
 $var wire 32 9 _GEN_30 $end
 $var wire 32 : _GEN_24 $end
 $var wire 32 ; yReg $end
 $var wire 32 < _GEN_27 $end
 $var wire 1 > _GEN_12 $end
 $var wire 3 ? _GEN_7 $end
 $var wire 3 @ _GEN_15 $end
 $var wire 2 C _GEN_21 $end
 $var wire 32 F io_in_bits_y $end
 $var wire 32 H io_out_bits $end
 $var wire 32 I _GEN_1 $end
 $var wire 1 J _GEN_18 $end
 $var wire 32 L _GEN_4 $end
 $var wire 32 O _GEN_35 $end
 $var wire 1 P clock $end
 $var wire 1 R io_in_valid $end
 $var wire 32 T _GEN_23 $end
 $var wire 3 V _GEN_17 $end
 $var wire 1 W io_out_valid $end
 $var wire 3 X _GEN_26 $end
 $var wire 3 Z _GEN_11 $end
 $var wire 32 ] xReg $end
 $var wire 3 ^ _GEN_20 $end
 $var wire 32 _ _GEN_29 $end
 $var wire 2 ` _GEN_6 $end
 $var wire 1 a _GEN_14 $end
 $var wire 32 b io_in_bits_x $end
 $var wire 32 c _GEN_0 $end
 $var wire 3 e _GEN_9 $end
 $var wire 1 i reset $end
 $var wire 3 j _GEN_3 $end
 $var wire 2 l _GEN_34 $end
 $var wire 32 m resReg $end
 $var wire 1 n _GEN_28 $end
  $scope module pe $end
   $var wire 1 ! io_in_valid $end
   $var wire 1 $ stateReg $end
   $var wire 32 * _GEN_8 $end
   $var wire 32 , xReg $end
   $var wire 1 0 _GEN_2 $end
   $var wire 64 3 _GEN_11 $end
   $var wire 1 6 _GEN_5 $end
   $var wire 1 8 io_in_bits_reset $end
   $var wire 1 = _GEN_10 $end
   $var wire 32 A accReg $end
   $var wire 1 B clock $end
   $var wire 32 D _GEN_7 $end
   $var wire 32 E io_in_bits_y $end
   $var wire 1 G resetReg $end
   $var wire 1 K io_in_ready $end
   $var wire 32 M _GEN_1 $end
   $var wire 32 N yReg $end
   $var wire 64 Q _GEN_4 $end
   $var wire 1 S _T $end
   $var wire 1 U io_out_valid $end
   $var wire 1 Y reset $end
   $var wire 1 [ _GEN_3 $end
   $var wire 32 \ _GEN_12 $end
   $var wire 32 d io_in_bits_x $end
   $var wire 64 f _GEN_6 $end
   $var wire 32 g io_out_bits $end
   $var wire 32 h _GEN_0 $end
   $var wire 1 k _GEN_9 $end
  $upscope $end
$upscope $end
$enddefinitions $end
$dumpvars
b00000000000000000000000000000000 D
b00000000000000000000000000000000 <
b00 '
0R
0=
b000 ^
0i
07
b000 &
0k
b00 l
b00000000000000000000000000000000 O
b00000000000000000000000000000000 :
b000 Z
b00000000000000000000000000000000 2
b00 %
b0000000000000000000000000000000000000000000000000000000000000000 3
0P
b00000000000000000000000000000000 I
b000 ?
b000 "
b00000000000000000000000000000000 h
0J
b000 V
b00000000000000000000000000000000 .
b00000000000000000000000000000000 b
b00000000000000000000000000000000 M
0a
b000 X
b00000000000000000000000000000000 E
b00000000000000000000000000000000 d
b00000000000000000000000000000000 \
0[
01
b00000000000000000000000000000000 *
0)
b00000000000000000000000000000000 A
b00000000000000000000000000000000 ,
b00 `
0B
0W
b00000000000000000000000000000000 ;
b00 C
b0000000000000000000000000000000000000000000000000000000000000000 Q
0n
0Y
b000 e
0S
b00000000000000000000000000000000 T
0>
06
0!
b000 -
0U
b00000000000000000000000000000000 N
b00000000000000000000000000000000 9
08
0#
b00000000000000000000000000000000 m
b0000000000000000000000000000000000000000000000000000000000000000 f
b00000000000000000000000000000000 g
b00000000000000000000000000000000 5
b000 @
0K
b00000000000000000000000000000000 L
b00 /
b00000000000000000000000000000000 c
b00000000000000000000000000000000 F
00
0(
b000 4
b00000000000000000000000000000000 ]
0G
b00000000000000000000000000000000 H
b00 +
b00000000000000000000000000000000 _
b000 j
0$
$end
#0
b01 `
1U
1Y
b011 e
1S
1K
1i
1>
1)
#1
1B
b10 `
b01 %
b01 C
b01 '
b01 l
b01 +
b01 /
1P
#6
0B
0P
#11
1B
1P
#16
0B
0P
#21
1B
1P
#26
0B
0P
#31
1B
1P
#36
0B
0P
#41
1B
1P
#46
0B
b001 -
1R
b001 &
0Y
b100 Z
0i
b00000000000000000000000000001010 b
b00000000000000000000000000001010 c
b00000000000000000000000000000101 F
11
b00000000000000000000000000000101 9
b00000000000000000000000000000101 I
0P
b00000000000000000000000000001010 _
#51
1B
b000 -
b00000000000000000000000000001010 h
b00000000000000000000000000001010 D
b00000000000000000000000000000101 E
1=
1(
b00000000000000000000000000001010 L
1[
b10 /
0)
b00000000000000000000000000000101 M
1!
b00000000000000000000000000001010 T
b001 "
b001 @
b00000000000000000000000000001010 d
b001 V
b00000000000000000000000000000101 2
b00000000000000000000000000000101 *
b00000000000000000000000000001010 ]
b10 l
b001 ^
b00000000000000000000000000000101 :
1P
b00000000000000000000000000000101 ;
#56
0B
0R
0P
#61
b0000000000000000000000000000000000000000000000000000000000110010 3
b0000000000000000000000000000000000000000000000000000000000110010 f
b0000000000000000000000000000000000000000000000000000000000110010 Q
0S
0K
b00000000000000000000000000000000 L
b010 j
b00000000000000000000000000000101 N
b00000000000000000000000000000000 d
b00000000000000000000000000000000 2
b000 e
b10 +
b000 ^
b00000000000000000000000000001010 ,
1B
b10 %
b10 C
b000 &
b00000000000000000000000000000000 E
0=
0(
0>
1)
b00000000000000000000000000110010 \
0!
b00000000000000000000000000000000 T
b000 "
0U
b000 @
b000 V
1$
b00000000000000000000000000000000 :
1P
#66
0B
0P
#71
1B
b0000000000000000000000000000000000000000000000000000000001100100 Q
b11 `
b00000000000000000000000000110010 g
b00000000000000000000000000110010 5
1S
1K
b00000000000000000000000000001010 L
0[
1>
b010 ?
1U
b00000000000000000000000000000101 2
b011 e
0$
b00000000000000000000000000110010 A
1P
#76
0B
0P
#81
1B
1P
#86
0B
b001 -
b11111111111111111111111111111111 F
1R
b001 &
b11111111111111111111111111111111 9
b11111111111111111111111111111111 I
0P
#91
1B
b010 -
b010 X
b11111111111111111111111111111111 E
1=
1(
1[
b11 /
0)
b11111111111111111111111111111111 M
1!
b00000000000000000000000000001010 T
b001 "
b001 @
b00000000000000000000000000001010 d
b001 V
b11111111111111111111111111111111 2
b11111111111111111111111111111111 *
b11 l
b001 ^
b11111111111111111111111111111111 :
1P
b11111111111111111111111111111111 ;
#96
0B
0R
0P
#101
b0000000000000000000000000000000000000000000000000000000000101000 3
b0000000000000000000000000000000000000000000000000000000000101000 f
b0000000000000000000000000000000000000000000000000000000000101000 Q
b010 4
b00000000000000000000000000000000 5
0S
0K
b00000000000000000000000000000000 L
b000 j
b11111111111111111111111111111111 N
b00000000000000000000000000000000 d
b00000000000000000000000000000000 2
b010 e
b11 +
b010 ^
1B
b11 %
b11 C
b010 &
b00000000000000000000000000000000 E
0=
0(
0>
b00000000000000000000000000101000 \
0!
b00000000000000000000000000000000 T
b010 "
0U
b010 @
b010 V
1$
b00000000000000000000000000000000 :
1P
#106
0B
0P
#111
1B
b0000000000000000000000000000000000000000000000000000000000011110 Q
b00000000000000000000000000101000 <
b011 -
b00 `
b000 4
b00000000000000000000000000101000 g
b00000000000000000000000000101000 .
b011 X
b00000000000000000000000000101000 5
1S
1K
b00000000000000000000000000001010 L
0[
1>
b000 ?
1U
b11111111111111111111111111111111 2
b011 e
0$
b00000000000000000000000000101000 O
b011 ^
b00000000000000000000000000101000 A
1P
#116
0B
0P
#121
1B
b100 -
b01 %
b100 X
b01 C
b011 &
b01 /
b011 "
b011 @
b100 V
b00000000000000000000000000101000 H
1W
b01 l
b100 ^
b00000000000000000000000000101000 m
1P
#126
0B
0P
#131
1B
b000 -
b10 `
b000 X
b100 &
1J
b00000000000000000000000000000000 h
b00000000000000000000000000000000 D
1a
1=
1[
b00000000000000000000000000000000 M
1!
10
b100 "
b000 @
18
1#
b000 V
1k
b00000000000000000000000000000000 *
0W
b01 +
b000 ^
1P
1n
#136
0B
0P
#141
b0000000000000000000000000000000000000000000000000000000000000000 3
b0000000000000000000000000000000000000000000000000000000000000000 f
b0000000000000000000000000000000000000000000000000000000000000000 Q
0J
0S
0K
0a
b00000000000000000000000000000000 L
b00000000000000000000000000000000 N
1G
b00000000000000000000000000000000 2
b000 e
b00000000000000000000000000000000 ,
1B
b01 `
b000 &
0=
0>
1)
b00000000000000000000000000000000 \
0!
b000 "
0U
08
0#
1$
1P
0n
#146
0B
0P
#151
1B
b10 `
b00000000000000000000000000000000 g
b00000000000000000000000000000000 5
1S
1K
b00000000000000000000000000001010 L
0[
1>
1U
b11111111111111111111111111111111 2
b011 e
0$
b00000000000000000000000000000000 A
1P
