tested/DotProductDecoupled/dotProduct.TestDotProductDecoupled1092090094/DotProductDecoupled.vcd
$date
2021-07-08T10:22+0000
$end
$version
0.2
$end
$comment

$end
$timescale 1ns  $end
$scope module DotProductDecoupled $end
 $var wire 32 ! io_in_bits_y_3 $end
 $var wire 32 # _GEN_37 $end
 $var wire 3 $ stateReg $end
 $var wire 32 % _GEN_22 $end
 $var wire 32 ' _GEN_16 $end
 $var wire 32 ( _GEN_43 $end
 $var wire 32 ) _GEN_2 $end
 $var wire 1 * _T $end
 $var wire 1 + io_in_ready $end
 $var wire 3 - cntReg $end
 $var wire 1 / _GEN_31 $end
 $var wire 3 0 _GEN_25 $end
 $var wire 32 1 _GEN_19 $end
 $var wire 1 3 io_out_ready $end
 $var wire 32 4 yRegs_1 $end
 $var wire 32 5 _GEN_5 $end
 $var wire 32 7 xRegs_2 $end
 $var wire 32 8 _GEN_13 $end
 $var wire 3 9 _GEN_8 $end
 $var wire 32 : _GEN_42 $end
 $var wire 1 < pe $end
 $var wire 3 = _GEN_51 $end
 $var wire 32 ? _GEN_39 $end
 $var wire 3 @ _GEN_30 $end
 $var wire 3 A _GEN_24 $end
 $var wire 32 B _GEN_45 $end
 $var wire 3 C _GEN_27 $end
 $var wire 32 E _GEN_48 $end
 $var wire 3 F _GEN_33 $end
 $var wire 32 G io_in_bits_x_0 $end
 $var wire 32 H _GEN_54 $end
 $var wire 32 I _GEN_12 $end
 $var wire 32 J io_in_bits_y_2 $end
 $var wire 32 K _GEN_7 $end
 $var wire 32 L _GEN_15 $end
 $var wire 32 M io_in_bits_x_3 $end
 $var wire 32 P _GEN_36 $end
 $var wire 3 Q _GEN_21 $end
 $var wire 32 U io_out_bits $end
 $var wire 32 V _GEN_1 $end
 $var wire 32 W _GEN_18 $end
 $var wire 32 Y yRegs_0 $end
 $var wire 32 Z _GEN_4 $end
 $var wire 32 [ xRegs_1 $end
 $var wire 1 ] _GEN_41 $end
 $var wire 1 _ _GEN_35 $end
 $var wire 1 ` clock $end
 $var wire 32 a io_in_bits_x_2 $end
 $var wire 1 c io_in_valid $end
 $var wire 32 d yRegs_3 $end
 $var wire 32 e io_in_bits_y_1 $end
 $var wire 3 f _GEN_50 $end
 $var wire 3 g _GEN_23 $end
 $var wire 32 i _GEN_44 $end
 $var wire 3 j _GEN_38 $end
 $var wire 32 l _GEN_17 $end
 $var wire 1 m io_out_valid $end
 $var wire 1 n _GEN_26 $end
 $var wire 32 o xRegs_0 $end
 $var wire 32 p _GEN_32 $end
 $var wire 32 q _GEN_47 $end
 $var wire 32 s _GEN_11 $end
 $var wire 3 v _GEN_20 $end
 $var wire 32 w yRegs_2 $end
 $var wire 3 x _GEN_29 $end
 $var wire 32 y _GEN_6 $end
 $var wire 32 z xRegs_3 $end
 $var wire 32 { _GEN_0 $end
 $var wire 3 } _GEN_9 $end
 $var wire 1 "# reset $end
 $var wire 32 "$ _GEN_3 $end
 $var wire 32 "& _GEN_46 $end
 $var wire 3 "' _GEN_34 $end
 $var wire 32 "( resReg $end
 $var wire 1 ") _GEN_28 $end
 $var wire 3 "* _GEN_40 $end
 $var wire 32 "+ _GEN_49 $end
 $var wire 32 ", io_in_bits_x_1 $end
 $var wire 32 "- io_in_bits_y_0 $end
  $scope module pe $end
   $var wire 1 " io_in_valid $end
   $var wire 1 & stateReg $end
   $var wire 32 , _GEN_8 $end
   $var wire 32 . xReg $end
   $var wire 1 2 _GEN_2 $end
   $var wire 64 6 _GEN_11 $end
   $var wire 1 ; _GEN_5 $end
   $var wire 1 > io_in_bits_reset $end
   $var wire 1 D _GEN_10 $end
   $var wire 32 N accReg $end
   $var wire 1 O clock $end
   $var wire 32 R _GEN_7 $end
   $var wire 32 S io_in_bits_y $end
   $var wire 1 T resetReg $end
   $var wire 1 X io_in_ready $end
   $var wire 32 \ _GEN_1 $end
   $var wire 32 ^ yReg $end
   $var wire 64 b _GEN_4 $end
   $var wire 1 h _T $end
   $var wire 1 k io_out_valid $end
   $var wire 1 r reset $end
   $var wire 1 t _GEN_3 $end
   $var wire 32 u _GEN_12 $end
   $var wire 32 | io_in_bits_x $end
   $var wire 64 ~ _GEN_6 $end
   $var wire 32 "! io_out_bits $end
   $var wire 32 "" _GEN_0 $end
   $var wire 1 "% _GEN_9 $end
  $upscope $end
$upscope $end
$enddefinitions $end
$dumpvars
0X
b00000000000000000000000000000000 Y
0;
0&
b00000000000000000000000000000000 '
b00000000000000000000000000000000 p
b00000000000000000000000000000000 [
b00000000000000000000000000000000 S
b00000000000000000000000000000000 "!
b0000000000000000000000000000000000000000000000000000000000000000 ~
b00000000000000000000000000000000 !
b000 "'
b000 }
0T
b00000000000000000000000000000000 U
b00000000000000000000000000000000 8
0"
b000 C
b00000000000000000000000000000000 #
0k
b00000000000000000000000000000000 l
b00000000000000000000000000000000 :
b000 =
0m
b00000000000000000000000000000000 I
b00000000000000000000000000000000 4
03
b00000000000000000000000000000000 K
0")
b000 A
b00000000000000000000000000000000 .
b000 9
b000 $
b00000000000000000000000000000000 w
b00000000000000000000000000000000 M
b00000000000000000000000000000000 "(
b00000000000000000000000000000000 E
0/
0"#
0D
b00000000000000000000000000000000 y
b00000000000000000000000000000000 d
0c
b00000000000000000000000000000000 \
b00000000000000000000000000000000 G
b000 g
0"%
b00000000000000000000000000000000 {
b00000000000000000000000000000000 s
b00000000000000000000000000000000 ^
b00000000000000000000000000000000 ",
0]
b00000000000000000000000000000000 "$
0r
b00000000000000000000000000000000 ,
0+
b00000000000000000000000000000000 u
b000 "*
0t
0_
b00000000000000000000000000000000 "&
b000 F
b00000000000000000000000000000000 o
b00000000000000000000000000000000 Z
0n
0<
b00000000000000000000000000000000 (
b0000000000000000000000000000000000000000000000000000000000000000 6
b00000000000000000000000000000000 q
b00000000000000000000000000000000 ""
b00000000000000000000000000000000 ?
0>
b00000000000000000000000000000000 7
b0000000000000000000000000000000000000000000000000000000000000000 b
b000 -
b00000000000000000000000000000000 V
b000 v
b00000000000000000000000000000000 N
b000 x
b00000000000000000000000000000000 e
b00000000000000000000000000000000 P
0O
02
b00000000000000000000000000000000 |
b00000000000000000000000000000000 R
b00000000000000000000000000000000 "-
b00000000000000000000000000000000 J
b00000000000000000000000000000000 5
b000 @
0h
b00000000000000000000000000000000 i
0`
b00000000000000000000000000000000 a
b00000000000000000000000000000000 L
b000 f
b000 Q
b00000000000000000000000000000000 1
b00000000000000000000000000000000 )
b00000000000000000000000000000000 z
b00000000000000000000000000000000 "+
b00000000000000000000000000000000 H
0*
b000 j
b00000000000000000000000000000000 W
b00000000000000000000000000000000 B
b00000000000000000000000000000000 %
b000 0
$end
#0
b001 Q
1r
1X
b001 g
b010 v
1k
1h
1"#
1+
b001 A
1n
#1
1`
1O
#6
0`
0O
#11
1`
1O
#16
0`
0O
#21
1`
1O
#26
0`
0O
#31
1`
1O
#36
0`
0O
#41
1`
1O
#46
13
b00000000000000000000000000001010 ",
b00000000000000000000000000000010 "$
b00000000000000000000000000000001 J
b001 }
b00000000000000000000000000000101 5
b00000000000000000000000000000011 K
b00000000000000000000000000000101 "&
b00000000000000000000000000000001 i
b00000000000000000000000000000001 a
b00000000000000000000000000000010 M
b100 0
1c
b00000000000000000000000000000001 y
b00000000000000000000000000001010 G
b00000000000000000000000000000101 e
b00000000000000000000000000001010 {
0"#
b00000000000000000000000000000010 B
0`
b00000000000000000000000000000101 Z
b00000000000000000000000000000001 E
b001 =
b00000000000000000000000000000101 "-
b00000000000000000000000000001010 (
b00000000000000000000000000000101 q
b00000000000000000000000000000001 )
b00000000000000000000000000000011 !
0r
b00000000000000000000000000001010 V
0O
b00000000000000000000000000001010 :
b00000000000000000000000000000011 "+
#51
b00000000000000000000000000000101 4
b00000000000000000000000000001010 R
b00000000000000000000000000000101 S
b00000000000000000000000000000101 L
b00000000000000000000000000000001 7
b001 "'
b010 j
b00000000000000000000000000000101 1
b00000000000000000000000000000011 d
b00000000000000000000000000000010 z
b00000000000000000000000000001010 ""
1*
0+
b00000000000000000000000000001010 I
b00000000000000000000000000001010 |
1t
b00000000000000000000000000000101 ,
1`
b00000000000000000000000000000101 Y
1D
b00000000000000000000000000000001 w
b00000000000000000000000000000101 '
b00000000000000000000000000001010 o
b001 x
b010 =
b00000000000000000000000000001010 [
b00000000000000000000000000000101 \
1"
b001 @
b00000000000000000000000000001010 s
b00000000000000000000000000001010 8
b00000000000000000000000000000101 #
b001 $
b00000000000000000000000000000101 l
b00000000000000000000000000001010 W
1O
b00000000000000000000000000001010 P
#56
0c
0`
0O
#61
b000 g
b010 }
0h
b00000000000000000000000000000000 S
b0000000000000000000000000000000000000000000000000000000000110010 ~
b0000000000000000000000000000000000000000000000000000000000110010 6
b010 "'
b0000000000000000000000000000000000000000000000000000000000110010 b
b00000000000000000000000000000000 1
0*
b00000000000000000000000000000101 ^
b00000000000000000000000000000000 |
b010 A
b00000000000000000000000000110010 u
1`
0X
b010 C
b00000000000000000000000000001010 .
1&
0D
b010 x
0"
b010 @
0k
b00000000000000000000000000000000 #
b010 $
b00000000000000000000000000000000 W
1O
b00000000000000000000000000000000 P
0n
#66
0`
0O
#71
b001 f
1`
b00000000000000000000000000110010 %
1X
b001 g
b000 C
0&
1h
b001 =
b00000000000000000000000000110010 p
b001 "'
b001 j
b0000000000000000000000000000000000000000000000000000000001100100 b
b00000000000000000000000000110010 ?
b00000000000000000000000000110010 N
b001 F
b00000000000000000000000000000101 1
b00000000000000000000000000110010 "!
1k
b00000000000000000000000000110010 H
b00000000000000000000000000001010 W
1O
b001 "*
b001 A
0t
1n
#76
0`
0O
#81
b001 -
1`
b010 g
b001 }
1D
b00000000000000000000000000000101 S
b001 x
b010 =
b010 j
1"
b00000000000000000000000000110010 U
b001 @
b00000000000000000000000000110010 "(
b00000000000000000000000000000101 #
1*
b001 9
b001 $
1O
b00000000000000000000000000001010 |
b00000000000000000000000000001010 P
1t
#86
0`
0O
#91
b00000000000000000000000001100100 u
1`
0X
b001 g
b010 C
1&
b010 }
0h
b00000000000000000000000000000000 S
0D
b0000000000000000000000000000000000000000000000000000000001100100 ~
b0000000000000000000000000000000000000000000000000000000001100100 6
b010 x
b010 "'
0"
b00000000000000000000000000000000 1
b010 @
0k
b00000000000000000000000000000000 #
0*
b010 $
b00000000000000000000000000000000 W
1O
b00000000000000000000000000000000 |
b010 A
b00000000000000000000000000000000 P
0n
#96
0`
0O
#101
b010 f
1`
b00000000000000000000000001100100 %
1X
b010 g
b000 C
0&
1h
b001 =
b00000000000000000000000001100100 p
b001 "'
b001 j
b0000000000000000000000000000000000000000000000000000000010010110 b
b00000000000000000000000001100100 ?
b00000000000000000000000001100100 N
b010 F
b00000000000000000000000000000101 1
b00000000000000000000000001100100 "!
1k
b00000000000000000000000001100100 H
b00000000000000000000000000001010 W
1O
b010 "*
b001 A
0t
1n
#106
0`
0O
#111
b011 g
b00000000000000000000000000000001 R
b001 }
b00000000000000000000000000000001 S
b010 j
b00000000000000000000000000000001 1
b00000000000000000000000000000001 ""
1*
b00000000000000000000000000000001 I
b00000000000000000000000000000001 |
1t
b00000000000000000000000000000001 ,
b010 -
1`
1D
b00000000000000000000000000000001 '
b001 x
b010 =
b00000000000000000000000000000001 \
1"
b00000000000000000000000001100100 U
b001 @
b00000000000000000000000000000001 8
b00000000000000000000000001100100 "(
b00000000000000000000000000000001 #
b010 9
b001 $
b00000000000000000000000000000001 l
b00000000000000000000000000000001 W
1O
b00000000000000000000000000000001 P
#116
0`
0O
#121
b010 g
b010 }
0h
b00000000000000000000000000000000 S
b0000000000000000000000000000000000000000000000000000000001100101 ~
b0000000000000000000000000000000000000000000000000000000001100101 6
b010 "'
b0000000000000000000000000000000000000000000000000000000001100101 b
b00000000000000000000000000000000 1
0*
b00000000000000000000000000000001 ^
b00000000000000000000000000000000 |
b010 A
b00000000000000000000000001100101 u
1`
0X
b010 C
b00000000000000000000000000000001 .
1&
0D
b010 x
0"
b010 @
0k
b00000000000000000000000000000000 #
b010 $
b00000000000000000000000000000000 W
1O
b00000000000000000000000000000000 P
0n
#126
0`
0O
#131
b011 f
1`
b00000000000000000000000001100101 %
1X
b011 g
b000 C
0&
1h
b001 =
b00000000000000000000000001100101 p
b001 "'
b001 j
b0000000000000000000000000000000000000000000000000000000001100110 b
b00000000000000000000000001100101 ?
b00000000000000000000000001100101 N
b011 F
b00000000000000000000000000000001 1
b00000000000000000000000001100101 "!
1k
b00000000000000000000000001100101 H
b00000000000000000000000000000001 W
1O
b011 "*
b001 A
0t
1n
#136
0`
0O
#141
b011 Q
b100 g
b00000000000000000000000000000010 R
b001 }
b00000000000000000000000000000011 S
b010 j
b00000000000000000000000000000011 1
b00000000000000000000000000000010 ""
1*
b00000000000000000000000000001010 I
b00000000000000000000000000000010 |
b011 A
1t
b00000000000000000000000000000011 ,
b011 -
1`
1D
b00000000000000000000000000000101 '
b001 x
b010 =
b00000000000000000000000000000011 \
1"
b00000000000000000000000001100101 U
b001 @
b00000000000000000000000000000010 8
b00000000000000000000000001100101 "(
b00000000000000000000000000000011 #
b011 9
b001 $
b00000000000000000000000000000011 l
b00000000000000000000000000000010 W
1O
b00000000000000000000000000000010 P
#146
0`
0O
#151
b011 g
b010 }
0h
b00000000000000000000000000000000 S
b0000000000000000000000000000000000000000000000000000000001101011 ~
b0000000000000000000000000000000000000000000000000000000001101011 6
b010 "'
b0000000000000000000000000000000000000000000000000000000001101011 b
b00000000000000000000000000000000 1
0*
b00000000000000000000000000000011 ^
b00000000000000000000000000000000 |
b010 A
b00000000000000000000000001101011 u
1`
0X
b010 C
b00000000000000000000000000000010 .
1&
0D
b010 x
0"
b010 @
0k
b00000000000000000000000000000000 #
b010 $
b00000000000000000000000000000000 W
1O
b00000000000000000000000000000000 P
0n
#156
0`
0O
#161
b100 f
1`
b00000000000000000000000001101011 %
1X
b100 g
b000 C
0&
1h
b011 =
b00000000000000000000000001101011 p
b011 "'
b011 j
b0000000000000000000000000000000000000000000000000000000001110001 b
b00000000000000000000000001101011 ?
b00000000000000000000000001101011 N
b100 F
b00000000000000000000000000000011 1
b00000000000000000000000001101011 "!
1k
b00000000000000000000000001101011 H
b00000000000000000000000000000010 W
1O
b100 "*
b011 A
0t
1n
#166
0`
0O
#171
b100 -
1`
b001 Q
b101 g
b011 }
b011 x
b100 =
b100 "'
b100 j
b00000000000000000000000001101011 U
b100 @
b00000000000000000000000000000101 1
b00000000000000000000000000001010 8
b00000000000000000000000001101011 "(
b100 9
b011 $
b00000000000000000000000000000101 l
b00000000000000000000000000001010 W
1O
1m
b001 A
#176
0`
0O
#181
1`
b00000000000000000000000000000000 R
b100 }
1D
1"%
b000 x
b000 =
b000 "'
b000 j
1/
1>
b00000000000000000000000000000000 \
1"
b000 @
12
b00000000000000000000000000000000 ""
1]
b100 $
1")
1O
0m
1t
1_
b00000000000000000000000000000000 ,
#186
0`
0O
#191
b100 g
b000 }
0h
b0000000000000000000000000000000000000000000000000000000000000000 ~
b0000000000000000000000000000000000000000000000000000000000000000 6
0/
b0000000000000000000000000000000000000000000000000000000000000000 b
b00000000000000000000000000000000 1
0]
1+
b00000000000000000000000000000000 ^
b000 A
0_
b00000000000000000000000000000000 u
1`
0X
b00000000000000000000000000000000 .
b000 v
1&
0D
0>
1T
0"
0k
b000 $
0")
b00000000000000000000000000000000 W
1O
0n
#196
0`
0O
#201
1`
b00000000000000000000000000000000 %
1X
b101 g
b010 v
0&
1h
b00000000000000000000000000000000 N
b00000000000000000000000000000101 1
b00000000000000000000000000000000 "!
1k
b00000000000000000000000000001010 W
1O
b001 A
0t
1n
#206
0`
0O
#211
1`
1O
#216
0`
0O
#221
1`
1O
#226
0`
0O
#231
1`
1O
#236
0`
0O
#241
1`
1O
#246
0`
0O
#251
1`
1O
#256
0`
0O
#261
1`
1O
#266
0`
0O
#271
1`
1O
#276
0`
0O
#281
1`
1O
#286
0`
0O
#291
1`
1O
#296
0`
0O
#301
1`
1O
#306
0`
0O
#311
1`
1O
#316
0`
0O
#321
1`
1O
#326
0`
0O
#331
1`
1O
#336
0`
0O
#341
1`
1O
#346
0`
0O
#351
1`
1O
#356
b00000000000000000000000000001010 B
b000 f
0`
b00000000000000000000000000001010 "$
b00000000000000000000000000000101 J
b001 }
b11111111111111111111111111111111 5
b00000000000000000000000000000101 K
b11111111111111111111111111111111 Z
b00000000000000000000000000000101 E
b11111111111111111111111111111111 "&
b00000000000000000000000000001010 i
b00000000000000000000000000001010 a
b11111111111111111111111111111111 "-
b001 =
b00000000000000000000000000001010 M
b11111111111111111111111111111111 q
b00000000000000000000000000001010 )
b00000000000000000000000000000101 !
1c
b00000000000000000000000000000101 y
b11111111111111111111111111111111 e
b000 9
0O
b00000000000000000000000000000101 "+
#361
b11111111111111111111111111111111 4
b001 g
b00000000000000000000000000001010 R
0"%
b11111111111111111111111111111111 S
b11111111111111111111111111111111 L
b00000000000000000000000000001010 7
b001 "'
b010 j
b000 F
b11111111111111111111111111111111 1
b00000000000000000000000000000101 d
b00000000000000000000000000001010 z
02
b00000000000000000000000000001010 ""
1*
0+
b00000000000000000000000000001010 |
1t
b11111111111111111111111111111111 ,
b000 -
1`
b11111111111111111111111111111111 Y
1D
b00000000000000000000000000000101 w
b11111111111111111111111111111111 '
b001 x
b010 =
b11111111111111111111111111111111 \
1"
b001 @
b11111111111111111111111111111111 #
b001 $
b11111111111111111111111111111111 l
1O
b000 "*
b00000000000000000000000000001010 P
#366
0c
0`
0O
#371
b000 g
b010 }
0h
b00000000000000000000000000000000 S
b1111111111111111111111111111111111111111111111111111111111110110 ~
b1111111111111111111111111111111111111111111111111111111111110110 6
b010 "'
b1111111111111111111111111111111111111111111111111111111111110110 b
b00000000000000000000000000000000 1
0*
b11111111111111111111111111111111 ^
b00000000000000000000000000000000 |
b010 A
b11111111111111111111111111110110 u
1`
b00000000000000000000000001101011 %
0X
b010 C
b00000000000000000000000000001010 .
1&
0D
b010 x
0T
0"
b010 @
0k
b00000000000000000000000000000000 #
b010 $
b00000000000000000000000000000000 W
1O
b00000000000000000000000000000000 P
0n
#376
0`
0O
#381
b001 f
1`
b11111111111111111111111111110110 %
1X
b001 g
b000 C
0&
1h
b001 =
b11111111111111111111111111110110 p
b001 "'
b001 j
b1111111111111111111111111111111111111111111111111111111111101100 b
b11111111111111111111111111110110 ?
b11111111111111111111111111110110 N
b001 F
b11111111111111111111111111111111 1
b11111111111111111111111111110110 "!
1k
b11111111111111111111111111110110 H
b00000000000000000000000000001010 W
1O
b001 "*
b001 A
0t
1n
#386
0`
0O
#391
b001 -
1`
b010 g
b001 }
1D
b11111111111111111111111111111111 S
b001 x
b010 =
b010 j
1"
b11111111111111111111111111110110 U
b001 @
b11111111111111111111111111110110 "(
b11111111111111111111111111111111 #
1*
b001 9
b001 $
1O
b00000000000000000000000000001010 |
b00000000000000000000000000001010 P
1t
#396
0`
0O
#401
b11111111111111111111111111101100 u
1`
0X
b001 g
b010 C
1&
b010 }
0h
b00000000000000000000000000000000 S
0D
b1111111111111111111111111111111111111111111111111111111111101100 ~
b1111111111111111111111111111111111111111111111111111111111101100 6
b010 x
b010 "'
0"
b00000000000000000000000000000000 1
b010 @
0k
b00000000000000000000000000000000 #
0*
b010 $
b00000000000000000000000000000000 W
1O
b00000000000000000000000000000000 |
b010 A
b00000000000000000000000000000000 P
0n
#406
0`
0O
#411
b010 f
1`
b11111111111111111111111111101100 %
1X
b010 g
b000 C
0&
1h
b001 =
b11111111111111111111111111101100 p
b001 "'
b001 j
b1111111111111111111111111111111111111111111111111111111111100010 b
b11111111111111111111111111101100 ?
b11111111111111111111111111101100 N
b010 F
b11111111111111111111111111111111 1
b11111111111111111111111111101100 "!
1k
b11111111111111111111111111101100 H
b00000000000000000000000000001010 W
1O
b010 "*
b001 A
0t
1n
#416
0`
0O
#421
b010 -
1`
b011 g
b001 }
1D
b00000000000000000000000000000101 S
b00000000000000000000000000000101 '
b001 x
b010 =
b010 j
b00000000000000000000000000000101 \
1"
b11111111111111111111111111101100 U
b001 @
b00000000000000000000000000000101 1
b11111111111111111111111111101100 "(
b00000000000000000000000000000101 #
1*
b010 9
b001 $
b00000000000000000000000000000101 l
1O
b00000000000000000000000000001010 |
b00000000000000000000000000001010 P
1t
b00000000000000000000000000000101 ,
#426
0`
0O
#431
b010 g
b010 }
0h
b00000000000000000000000000000000 S
b0000000000000000000000000000000000000000000000000000000000011110 ~
b0000000000000000000000000000000000000000000000000000000000011110 6
b010 "'
b0000000000000000000000000000000000000000000000000000000000011110 b
b00000000000000000000000000000000 1
0*
b00000000000000000000000000000101 ^
b00000000000000000000000000000000 |
b010 A
b00000000000000000000000000011110 u
1`
0X
b010 C
1&
0D
b010 x
0"
b010 @
0k
b00000000000000000000000000000000 #
b010 $
b00000000000000000000000000000000 W
1O
b00000000000000000000000000000000 P
0n
#436
0`
0O
#441
b011 f
1`
b00000000000000000000000000011110 %
1X
b011 g
b000 C
0&
1h
b001 =
b00000000000000000000000000011110 p
b001 "'
b001 j
b0000000000000000000000000000000000000000000000000000000001010000 b
b00000000000000000000000000011110 ?
b00000000000000000000000000011110 N
b011 F
b00000000000000000000000000000101 1
b00000000000000000000000000011110 "!
1k
b00000000000000000000000000011110 H
b00000000000000000000000000001010 W
1O
b011 "*
b001 A
0t
1n
#446
0`
0O
#451
b011 -
1`
b011 Q
b100 g
b001 }
1D
b00000000000000000000000000000101 S
b11111111111111111111111111111111 '
b001 x
b010 =
b010 j
1"
b00000000000000000000000000011110 U
b001 @
b00000000000000000000000000011110 "(
b00000000000000000000000000000101 #
1*
b011 9
b001 $
1O
b00000000000000000000000000001010 |
b011 A
b00000000000000000000000000001010 P
1t
#456
0`
0O
#461
b00000000000000000000000001010000 u
1`
0X
b011 g
b010 C
1&
b010 }
0h
b00000000000000000000000000000000 S
0D
b0000000000000000000000000000000000000000000000000000000001010000 ~
b0000000000000000000000000000000000000000000000000000000001010000 6
b010 x
b010 "'
0"
b00000000000000000000000000000000 1
b010 @
0k
b00000000000000000000000000000000 #
0*
b010 $
b00000000000000000000000000000000 W
1O
b00000000000000000000000000000000 |
b010 A
b00000000000000000000000000000000 P
0n
#466
0`
0O
#471
b100 f
1`
b00000000000000000000000001010000 %
1X
b100 g
b000 C
0&
1h
b011 =
b00000000000000000000000001010000 p
b011 "'
b011 j
b0000000000000000000000000000000000000000000000000000000010000010 b
b00000000000000000000000001010000 ?
b00000000000000000000000001010000 N
b100 F
b00000000000000000000000000000101 1
b00000000000000000000000001010000 "!
1k
b00000000000000000000000001010000 H
b00000000000000000000000000001010 W
1O
b100 "*
b011 A
0t
1n
#476
0`
0O
#481
b100 -
1`
b001 Q
b101 g
b011 }
b011 x
b100 =
b100 "'
b100 j
b00000000000000000000000001010000 U
b100 @
b11111111111111111111111111111111 1
b00000000000000000000000001010000 "(
b100 9
b011 $
b11111111111111111111111111111111 l
1O
1m
b001 A
#486
0`
0O
#491
1`
b00000000000000000000000000000000 R
b100 }
1D
1"%
b000 x
b000 =
b000 "'
b000 j
1/
1>
b00000000000000000000000000000000 \
1"
b000 @
12
b00000000000000000000000000000000 ""
1]
b100 $
1")
1O
0m
1t
1_
b00000000000000000000000000000000 ,
#496
0`
0O
#501
b100 g
b000 }
0h
b0000000000000000000000000000000000000000000000000000000000000000 ~
b0000000000000000000000000000000000000000000000000000000000000000 6
0/
b0000000000000000000000000000000000000000000000000000000000000000 b
b00000000000000000000000000000000 1
0]
1+
b00000000000000000000000000000000 ^
b000 A
0_
b00000000000000000000000000000000 u
1`
0X
b00000000000000000000000000000000 .
b000 v
1&
0D
0>
1T
0"
0k
b000 $
0")
b00000000000000000000000000000000 W
1O
0n
#506
0`
0O
#511
1`
b00000000000000000000000000000000 %
1X
b101 g
b010 v
0&
1h
b00000000000000000000000000000000 N
b11111111111111111111111111111111 1
b00000000000000000000000000000000 "!
1k
b00000000000000000000000000001010 W
1O
b001 A
0t
1n
